Spectral Frequency (1/hr),Spectral Period (hr),VAV_301.SupplyAirVelocityPressure,VAV_302.SupplyAirVelocityPressure,VAV_303.SupplyAirVelocityPressure,VAV_304.SupplyAirVelocityPressure,VAV_305.SupplyAirVelocityPressure,VAV_306.SupplyAirVelocityPressure,VAV_308.SupplyAirVelocityPressure,VAV_309.SupplyAirVelocityPressure,VAV_310.SupplyAirVelocityPressure,VAV_311.SupplyAirVelocityPressure,VAV_312.SupplyAirVelocityPressure,VAV_313.SupplyAirVelocityPressure,VAV_314.SupplyAirVelocityPressure,VAV_315.SupplyAirVelocityPressure,VAV_316.SupplyAirVelocityPressure,VAV_401.SupplyAirVelocityPressure,VAV_402.SupplyAirVelocityPressure,VAV_403.SupplyAirVelocityPressure,VAV_404.SupplyAirVelocityPressure,VAV_405.SupplyAirVelocityPressure,VAV_406.SupplyAirVelocityPressure,VAV_407.SupplyAirVelocityPressure,VAV_408.SupplyAirVelocityPressure,VAV_409.SupplyAirVelocityPressure,VAV_410.SupplyAirVelocityPressure,VAV_411.SupplyAirVelocityPressure,VAV_412.SupplyAirVelocityPressure,VAV_413.SupplyAirVelocityPressure,VAV_415.SupplyAirVelocityPressure,VAV_416.SupplyAirVelocityPressure,VAV_417.SupplyAirVelocityPressure,VAV_418.SupplyAirVelocityPressure,VAV_419.SupplyAirVelocityPressure,VAV_420.SupplyAirVelocityPressure,VAV_421.SupplyAirVelocityPressure,VAV_101.SupplyAirVelocityPressure,VAV_102.SupplyAirVelocityPressure,VAV_103.SupplyAirVelocityPressure,VAV_104.SupplyAirVelocityPressure,VAV_105.SupplyAirVelocityPressure,VAV_106.SupplyAirVelocityPressure,VAV_107.SupplyAirVelocityPressure,VAV_108.SupplyAirVelocityPressure,VAV_110.SupplyAirVelocityPressure,VAV_111.SupplyAirVelocityPressure,VAV_112.SupplyAirVelocityPressure,VAV_113.SupplyAirVelocityPressure,VAV_114.SupplyAirVelocityPressure,VAV_115.SupplyAirVelocityPressure,VAV_116.SupplyAirVelocityPressure,VAV_117.SupplyAirVelocityPressure,VAV_118.SupplyAirVelocityPressure,VAV_119.SupplyAirVelocityPressure,VAV_120.SupplyAirVelocityPressure,VAV_121.SupplyAirVelocityPressure,VAV_122.SupplyAirVelocityPressure,VAV_123.SupplyAirVelocityPressure,VAV_124.SupplyAirVelocityPressure,VAV_125.SupplyAirVelocityPressure,VAV_126.SupplyAirVelocityPressure,VAV_127.SupplyAirVelocityPressure,VAV_201.SupplyAirVelocityPressure,VAV_202.SupplyAirVelocityPressure,VAV_203.SupplyAirVelocityPressure,VAV_204.SupplyAirVelocityPressure,VAV_205.SupplyAirVelocityPressure,VAV_206.SupplyAirVelocityPressure,VAV_208.SupplyAirVelocityPressure,VAV_209.SupplyAirVelocityPressure,VAV_210.SupplyAirVelocityPressure,VAV_211.SupplyAirVelocityPressure,VAV_212.SupplyAirVelocityPressure,VAV_213.SupplyAirVelocityPressure,VAV_214.SupplyAirVelocityPressure,VAV_215.SupplyAirVelocityPressure,VAV_216.SupplyAirVelocityPressure
mean ,0.00000,0.11624,0.29772,0.05180,0.03736,0.00001,0.08337,0.06848,0.12600,0.05662,0.05982,0.12466,0.10500,0.08811,0.06949,0.03904,0.15974,0.11287,0.10616,0.10782,0.13982,0.10448,0.08993,0.05560,0.05574,0.13935,0.08239,0.10191,0.03347,0.06647,0.07844,0.11365,0.18454,0.12372,0.17687,0.11333,0.09934,0.11752,0.09458,0.07037,0.09468,0.11073,0.09996,0.09706,0.08858,0.16970,0.08356,0.17057,0.12224,0.08520,0.04036,0.04241,0.10448,0.01826,0.26082,0.05207,0.09509,0.05319,0.10209,0.24034,0.04005,0.09582,0.07859,0.05438,0.05344,0.12575,0.05333,0.07844,0.03787,0.07281,0.05452,0.04804,0.04707,0.06040,0.09478,0.04805,0.05266
day ,24.00000,0.06476,0.17272,0.02913,0.01973,0.00027,0.04879,0.03963,0.07279,0.03235,0.03528,0.07273,0.06151,0.05048,0.04062,0.02235,0.09416,0.06680,0.05964,0.06328,0.08050,0.05599,0.05282,0.03291,0.02317,0.03553,0.04899,0.05693,0.01316,0.02178,0.03911,0.05680,0.00840,0.00889,0.10656,0.06700,0.05797,0.06411,0.05012,0.04037,0.05046,0.06610,0.04465,0.05295,0.05148,0.00162,0.04146,0.10000,0.00139,0.04819,0.02293,0.02389,0.06111,0.00913,0.14343,0.02757,0.06785,0.02869,0.05868,0.13755,0.02053,0.00054,0.04275,0.02860,0.02762,0.07041,0.02501,0.04305,0.01922,0.04044,0.03020,0.02601,0.02400,0.03074,0.04953,0.02692,0.02729
week,168.00000,  null,  null,  null,  null,  null,  null,  null,  null,  null,  null,  null,  null,  null,  null,  null,  null,  null,  null,  null,  null,  null,  null,  null,  null,  null,  null,  null,  null,  null,  null,  null,  null,  null,  null,  null,  null,  null,  null,  null,  null,  null,  null,  null,  null,  null,  null,  null,  null,  null,  null,  null,  null,  null,  null,  null,  null,  null,  null,  null,  null,  null,  null,  null,  null,  null,  null,  null,  null,  null,  null,  null,  null,  null,  null,  null,  null
0.04167,24.00000,0.06476,0.17272,0.02913,0.01973,0.00027,0.04879,0.03963,0.07279,0.03235,0.03528,0.07273,0.06151,0.05048,0.04062,0.02235,0.09416,0.06680,0.05964,0.06328,0.08050,0.05599,0.05282,0.03291,0.02317,0.03553,0.04899,0.05693,0.01316,0.02178,0.03911,0.05680,0.00840,0.00889,0.10656,0.06700,0.05797,0.06411,0.05012,0.04037,0.05046,0.06610,0.04465,0.05295,0.05148,0.00162,0.04146,0.10000,0.00139,0.04819,0.02293,0.02389,0.06111,0.00913,0.14343,0.02757,0.06785,0.02869,0.05868,0.13755,0.02053,0.00054,0.04275,0.02860,0.02762,0.07041,0.02501,0.04305,0.01922,0.04044,0.03020,0.02601,0.02400,0.03074,0.04953,0.02692,0.02729
0.08333,12.00000,0.04798,0.12871,0.01975,0.01459,0.00032,0.03498,0.02778,0.05203,0.02291,0.02369,0.05186,0.04341,0.03625,0.02852,0.01570,0.06811,0.04885,0.04471,0.04643,0.06007,0.04319,0.03840,0.02344,0.01965,0.02520,0.03429,0.04460,0.01684,0.01188,0.03072,0.04445,0.00836,0.00807,0.07546,0.04795,0.04293,0.04985,0.03931,0.03024,0.03759,0.04629,0.03701,0.04000,0.03657,0.00152,0.03199,0.06962,0.00038,0.03344,0.01635,0.01719,0.04384,0.00445,0.11435,0.02098,0.07145,0.01991,0.04060,0.10916,0.01457,0.00051,0.03211,0.02179,0.02103,0.05325,0.01941,0.03062,0.01400,0.02885,0.02121,0.01834,0.01719,0.02179,0.03573,0.01891,0.01937
0.12500,8.00000,0.02265,0.06063,0.00944,0.00690,0.00016,0.01623,0.01361,0.02425,0.01063,0.01222,0.02442,0.02073,0.01742,0.01351,0.00760,0.03261,0.02375,0.02309,0.02274,0.03003,0.02477,0.01862,0.01101,0.01423,0.01287,0.01692,0.02014,0.01236,0.00069,0.01874,0.02732,0.00795,0.00738,0.03594,0.02198,0.02020,0.02628,0.02169,0.01402,0.02232,0.02228,0.02493,0.02003,0.01782,0.00111,0.01985,0.03344,0.00031,0.01581,0.00765,0.00784,0.02130,0.00125,0.06042,0.00775,0.04803,0.00977,0.01918,0.04625,0.00749,0.00060,0.01452,0.01060,0.01037,0.02586,0.00996,0.01473,0.00692,0.01375,0.01034,0.00882,0.00831,0.01077,0.01730,0.00877,0.00945
0.16667,6.00000,0.00077,0.00130,0.00010,0.00026,0.00009,0.00012,0.00075,0.00038,0.00023,0.00034,0.00075,0.00015,0.00044,0.00021,0.00008,0.00103,0.00015,0.00191,0.00018,0.00018,0.00546,0.00051,0.00041,0.00810,0.01406,0.00054,0.00101,0.00700,0.01066,0.00632,0.00994,0.00755,0.00762,0.00068,0.00009,0.00023,0.00421,0.00266,0.00021,0.00251,0.00108,0.01401,0.00231,0.00053,0.00103,0.00713,0.00200,0.00050,0.00113,0.00008,0.00005,0.00107,0.00165,0.00871,0.00150,0.02641,0.00035,0.00003,0.01720,0.00057,0.00031,0.00072,0.00012,0.00021,0.00041,0.00079,0.00053,0.00022,0.00078,0.00061,0.00039,0.00050,0.00065,0.00058,0.00025,0.00070
0.20833,4.80000,0.01349,0.03498,0.00583,0.00430,0.00010,0.00991,0.00826,0.01470,0.00642,0.00734,0.01491,0.01253,0.01051,0.00834,0.00447,0.01970,0.01341,0.01056,0.01260,0.01698,0.00726,0.01070,0.00660,0.00243,0.02375,0.00973,0.01298,0.00696,0.01660,0.00298,0.00410,0.00777,0.00717,0.02192,0.01322,0.01162,0.01005,0.01187,0.00798,0.01106,0.01418,0.00226,0.01074,0.01006,0.00060,0.00320,0.01990,0.00012,0.00959,0.00457,0.00507,0.01154,0.00075,0.03573,0.00441,0.01801,0.00563,0.01154,0.02986,0.00372,0.00023,0.00896,0.00577,0.00550,0.01410,0.00448,0.00830,0.00376,0.00772,0.00561,0.00493,0.00447,0.00540,0.00957,0.00507,0.00498
0.25000,4.00000,0.01543,0.04113,0.00666,0.00483,0.00006,0.01167,0.00940,0.01757,0.00759,0.00857,0.01736,0.01491,0.01203,0.00975,0.00529,0.02175,0.01555,0.01370,0.01487,0.01985,0.01274,0.01237,0.00796,0.00182,0.02739,0.01169,0.01431,0.01042,0.01627,0.00820,0.01189,0.00761,0.00767,0.02551,0.01608,0.01351,0.01544,0.01372,0.00963,0.01435,0.01575,0.00577,0.01465,0.01225,0.00040,0.00870,0.02409,0.00047,0.01106,0.00552,0.00589,0.01463,0.00135,0.04225,0.00655,0.01268,0.00674,0.01382,0.05334,0.00510,0.00014,0.01082,0.00668,0.00673,0.01671,0.00601,0.00987,0.00434,0.00925,0.00672,0.00594,0.00543,0.00632,0.01144,0.00603,0.00611
0.29167,3.42857,0.00999,0.02709,0.00427,0.00326,0.00008,0.00712,0.00552,0.01096,0.00467,0.00480,0.01089,0.00908,0.00746,0.00590,0.00337,0.01361,0.01002,0.01012,0.00985,0.01294,0.01193,0.00793,0.00470,0.00449,0.02515,0.00717,0.00853,0.00836,0.01147,0.00889,0.01285,0.00771,0.00718,0.01513,0.00958,0.00842,0.01231,0.00802,0.00602,0.00951,0.00916,0.00975,0.00986,0.00774,0.00084,0.00955,0.01398,0.00013,0.00731,0.00348,0.00356,0.00950,0.00158,0.02471,0.00460,0.01119,0.00411,0.00852,0.01591,0.00348,0.00027,0.00691,0.00431,0.00431,0.01105,0.00426,0.00587,0.00249,0.00583,0.00418,0.00373,0.00358,0.00469,0.00690,0.00387,0.00395
0.33333,3.00000,0.00843,0.02275,0.00349,0.00257,0.00006,0.00622,0.00493,0.00921,0.00408,0.00447,0.00923,0.00777,0.00651,0.00507,0.00273,0.01213,0.00877,0.00737,0.00828,0.01083,0.00786,0.00686,0.00425,0.00407,0.01438,0.00633,0.00784,0.00833,0.00566,0.00565,0.00827,0.00730,0.00973,0.01350,0.00849,0.00747,0.00885,0.00730,0.00535,0.00752,0.00847,0.00746,0.00781,0.00655,0.00087,0.00600,0.01256,0.00028,0.00621,0.00293,0.00300,0.00778,0.00102,0.02104,0.00356,0.01275,0.00366,0.00757,0.02082,0.00288,0.00020,0.00589,0.00370,0.00359,0.00916,0.00322,0.00532,0.00238,0.00505,0.00364,0.00316,0.00284,0.00361,0.00611,0.00330,0.00335
0.37500,2.66667,0.00745,0.02015,0.00309,0.00227,0.00006,0.00549,0.00439,0.00814,0.00361,0.00396,0.00815,0.00685,0.00574,0.00448,0.00242,0.01072,0.00778,0.00636,0.00735,0.00961,0.00698,0.00607,0.00379,0.00363,0.01260,0.00562,0.00695,0.00728,0.00499,0.00499,0.00731,0.00716,0.00842,0.01191,0.00751,0.00662,0.00784,0.00649,0.00474,0.00666,0.00750,0.00664,0.00693,0.00583,0.00085,0.00530,0.01113,0.00026,0.00550,0.00260,0.00265,0.00688,0.00092,0.01854,0.00318,0.01113,0.00325,0.00666,0.01839,0.00257,0.00018,0.00523,0.00327,0.00316,0.00811,0.00284,0.00472,0.00211,0.00445,0.00320,0.00278,0.00250,0.00317,0.00541,0.00291,0.00297
0.41667,2.40000,0.00667,0.01805,0.00278,0.00203,0.00005,0.00491,0.00397,0.00727,0.00323,0.00355,0.00729,0.00611,0.00512,0.00402,0.00217,0.00958,0.00699,0.00555,0.00661,0.00864,0.00626,0.00543,0.00341,0.00328,0.01111,0.00504,0.00623,0.00634,0.00444,0.00446,0.00654,0.00702,0.00729,0.01063,0.00672,0.00594,0.00702,0.00583,0.00426,0.00597,0.00673,0.00598,0.00623,0.00525,0.00082,0.00474,0.00998,0.00024,0.00492,0.00233,0.00237,0.00615,0.00085,0.01653,0.00287,0.00983,0.00292,0.00593,0.01643,0.00232,0.00016,0.00470,0.00292,0.00282,0.00726,0.00253,0.00424,0.00189,0.00397,0.00285,0.00248,0.00223,0.00282,0.00484,0.00261,0.00266
0.45833,2.18182,0.00603,0.01634,0.00252,0.00183,0.00005,0.00442,0.00362,0.00656,0.00292,0.00322,0.00658,0.00550,0.00461,0.00363,0.00196,0.00865,0.00634,0.00490,0.00600,0.00784,0.00568,0.00491,0.00311,0.00298,0.00987,0.00457,0.00564,0.00553,0.00398,0.00402,0.00590,0.00690,0.00633,0.00959,0.00608,0.00538,0.00635,0.00529,0.00386,0.00541,0.00609,0.00544,0.00565,0.00477,0.00079,0.00429,0.00903,0.00022,0.00445,0.00211,0.00214,0.00556,0.00078,0.01489,0.00263,0.00877,0.00265,0.00533,0.01482,0.00211,0.00015,0.00426,0.00263,0.00254,0.00657,0.00227,0.00384,0.00171,0.00358,0.00256,0.00223,0.00200,0.00253,0.00438,0.00235,0.00241
0.50000,2.00000,0.00549,0.01491,0.00231,0.00167,0.00004,0.00402,0.00333,0.00597,0.00266,0.00293,0.00599,0.00500,0.00418,0.00331,0.00179,0.00788,0.00580,0.00437,0.00549,0.00717,0.00519,0.00447,0.00285,0.00274,0.00883,0.00418,0.00515,0.00486,0.00360,0.00366,0.00537,0.00680,0.00554,0.00871,0.00554,0.00491,0.00579,0.00484,0.00353,0.00494,0.00556,0.00499,0.00517,0.00437,0.00077,0.00391,0.00824,0.00021,0.00406,0.00193,0.00194,0.00506,0.00073,0.01352,0.00242,0.00789,0.00243,0.00483,0.01348,0.00194,0.00014,0.00390,0.00239,0.00231,0.00599,0.00206,0.00351,0.00156,0.00325,0.00232,0.00202,0.00181,0.00229,0.00399,0.00214,0.00220
0.54167,1.84615,0.00504,0.01370,0.00213,0.00153,0.00004,0.00368,0.00308,0.00547,0.00244,0.00269,0.00549,0.00457,0.00383,0.00304,0.00164,0.00722,0.00534,0.00393,0.00506,0.00660,0.00477,0.00411,0.00264,0.00254,0.00796,0.00385,0.00473,0.00430,0.00328,0.00335,0.00493,0.00672,0.00490,0.00798,0.00508,0.00452,0.00532,0.00446,0.00324,0.00454,0.00511,0.00461,0.00476,0.00403,0.00075,0.00358,0.00757,0.00020,0.00372,0.00177,0.00178,0.00464,0.00069,0.01236,0.00225,0.00716,0.00224,0.00441,0.01235,0.00180,0.00014,0.00359,0.00219,0.00211,0.00550,0.00188,0.00324,0.00144,0.00297,0.00212,0.00185,0.00165,0.00209,0.00366,0.00197,0.00202
0.58333,1.71429,0.00465,0.01267,0.00197,0.00142,0.00004,0.00339,0.00287,0.00505,0.00225,0.00249,0.00507,0.00421,0.00352,0.00281,0.00152,0.00667,0.00494,0.00356,0.00470,0.00612,0.00442,0.00379,0.00245,0.00236,0.00722,0.00356,0.00438,0.00384,0.00300,0.00309,0.00454,0.00665,0.00437,0.00735,0.00469,0.00418,0.00492,0.00413,0.00301,0.00421,0.00473,0.00428,0.00442,0.00375,0.00074,0.00331,0.00700,0.00019,0.00344,0.00164,0.00164,0.00428,0.00065,0.01138,0.00210,0.00654,0.00208,0.00405,0.01139,0.00167,0.00013,0.00332,0.00202,0.00194,0.00508,0.00173,0.00300,0.00133,0.00273,0.00195,0.00170,0.00152,0.00192,0.00338,0.00181,0.00187
0.62500,1.60000,0.00432,0.01178,0.00184,0.00132,0.00004,0.00314,0.00268,0.00468,0.00209,0.00231,0.00470,0.00390,0.00326,0.00261,0.00141,0.00619,0.00460,0.00325,0.00438,0.00570,0.00412,0.00353,0.00229,0.00221,0.00660,0.00332,0.00407,0.00346,0.00277,0.00286,0.00422,0.00660,0.00393,0.00681,0.00436,0.00389,0.00457,0.00385,0.00280,0.00392,0.00440,0.00399,0.00412,0.00350,0.00072,0.00307,0.00651,0.00019,0.00319,0.00152,0.00152,0.00397,0.00063,0.01055,0.00198,0.00601,0.00194,0.00375,0.01056,0.00157,0.00013,0.00309,0.00188,0.00180,0.00472,0.00160,0.00279,0.00124,0.00253,0.00181,0.00157,0.00140,0.00177,0.00313,0.00168,0.00174
0.66667,1.50000,0.00403,0.01101,0.00172,0.00123,0.00003,0.00293,0.00252,0.00436,0.00195,0.00215,0.00439,0.00364,0.00303,0.00243,0.00132,0.00577,0.00431,0.00298,0.00410,0.00534,0.00385,0.00329,0.00215,0.00207,0.00607,0.00310,0.00380,0.00315,0.00257,0.00267,0.00393,0.00656,0.00357,0.00635,0.00407,0.00364,0.00427,0.00361,0.00262,0.00367,0.00411,0.00374,0.00386,0.00328,0.00071,0.00287,0.00608,0.00018,0.00298,0.00142,0.00142,0.00371,0.00060,0.00982,0.00187,0.00556,0.00181,0.00348,0.00984,0.00147,0.00012,0.00289,0.00175,0.00168,0.00441,0.00148,0.00262,0.00116,0.00235,0.00169,0.00147,0.00130,0.00165,0.00292,0.00157,0.00162
0.70833,1.41176,0.00378,0.01033,0.00162,0.00115,0.00003,0.00274,0.00237,0.00408,0.00183,0.00201,0.00411,0.00341,0.00284,0.00228,0.00123,0.00541,0.00405,0.00276,0.00386,0.00502,0.00362,0.00309,0.00202,0.00196,0.00562,0.00291,0.00357,0.00288,0.00239,0.00249,0.00369,0.00652,0.00327,0.00594,0.00381,0.00341,0.00401,0.00340,0.00246,0.00345,0.00385,0.00352,0.00364,0.00309,0.00071,0.00269,0.00571,0.00018,0.00279,0.00133,0.00133,0.00347,0.00058,0.00920,0.00178,0.00518,0.00170,0.00326,0.00922,0.00139,0.00012,0.00271,0.00164,0.00157,0.00413,0.00138,0.00246,0.00110,0.00220,0.00158,0.00137,0.00122,0.00154,0.00274,0.00147,0.00152
0.75000,1.33333,0.00356,0.00974,0.00153,0.00109,0.00003,0.00258,0.00224,0.00384,0.00172,0.00188,0.00387,0.00320,0.00266,0.00214,0.00116,0.00509,0.00381,0.00257,0.00364,0.00474,0.00341,0.00291,0.00191,0.00185,0.00523,0.00274,0.00336,0.00266,0.00224,0.00235,0.00347,0.00648,0.00302,0.00559,0.00359,0.00322,0.00378,0.00321,0.00233,0.00326,0.00363,0.00333,0.00344,0.00292,0.00070,0.00254,0.00538,0.00017,0.00263,0.00125,0.00125,0.00326,0.00056,0.00866,0.00170,0.00484,0.00161,0.00306,0.00867,0.00131,0.00012,0.00256,0.00154,0.00148,0.00389,0.00130,0.00232,0.00104,0.00207,0.00148,0.00129,0.00114,0.00144,0.00257,0.00138,0.00143
0.79167,1.26316,0.00336,0.00922,0.00145,0.00103,0.00003,0.00243,0.00213,0.00362,0.00162,0.00177,0.00365,0.00302,0.00251,0.00203,0.00110,0.00481,0.00361,0.00240,0.00345,0.00450,0.00323,0.00275,0.00181,0.00176,0.00490,0.00259,0.00318,0.00248,0.00210,0.00221,0.00328,0.00642,0.00280,0.00528,0.00339,0.00305,0.00358,0.00305,0.00221,0.00309,0.00343,0.00315,0.00327,0.00276,0.00069,0.00240,0.00508,0.00017,0.00248,0.00118,0.00119,0.00308,0.00055,0.00818,0.00163,0.00455,0.00152,0.00288,0.00819,0.00125,0.00012,0.00242,0.00146,0.00140,0.00367,0.00122,0.00220,0.00098,0.00195,0.00140,0.00122,0.00108,0.00136,0.00243,0.00130,0.00136
0.83333,1.20000,0.00318,0.00876,0.00138,0.00098,0.00003,0.00230,0.00202,0.00343,0.00154,0.00167,0.00346,0.00287,0.00237,0.00192,0.00104,0.00456,0.00343,0.00226,0.00328,0.00427,0.00307,0.00262,0.00172,0.00168,0.00461,0.00246,0.00302,0.00232,0.00199,0.00210,0.00311,0.00632,0.00263,0.00500,0.00322,0.00289,0.00340,0.00290,0.00210,0.00295,0.00325,0.00300,0.00312,0.00263,0.00069,0.00228,0.00482,0.00017,0.00235,0.00112,0.00112,0.00292,0.00054,0.00776,0.00157,0.00430,0.00145,0.00273,0.00777,0.00119,0.00011,0.00229,0.00138,0.00133,0.00348,0.00115,0.00209,0.00094,0.00184,0.00133,0.00115,0.00102,0.00129,0.00230,0.00123,0.00128
0.87500,1.14286,0.00303,0.00835,0.00132,0.00093,0.00003,0.00219,0.00192,0.00326,0.00146,0.00158,0.00329,0.00273,0.00225,0.00183,0.00099,0.00433,0.00326,0.00214,0.00313,0.00408,0.00293,0.00249,0.00164,0.00160,0.00436,0.00234,0.00287,0.00219,0.00189,0.00199,0.00296,0.00618,0.00248,0.00476,0.00306,0.00275,0.00325,0.00277,0.00200,0.00282,0.00309,0.00285,0.00299,0.00251,0.00069,0.00217,0.00459,0.00017,0.00224,0.00106,0.00107,0.00277,0.00053,0.00740,0.00152,0.00408,0.00138,0.00259,0.00739,0.00114,0.00011,0.00218,0.00132,0.00126,0.00331,0.00110,0.00199,0.00090,0.00175,0.00127,0.00110,0.00097,0.00122,0.00218,0.00117,0.00122
0.91667,1.09091,0.00289,0.00798,0.00126,0.00089,0.00003,0.00208,0.00184,0.00311,0.00139,0.00150,0.00314,0.00261,0.00215,0.00174,0.00094,0.00414,0.00311,0.00203,0.00299,0.00390,0.00280,0.00238,0.00157,0.00153,0.00415,0.00223,0.00274,0.00208,0.00179,0.00190,0.00282,0.00598,0.00235,0.00455,0.00292,0.00263,0.00311,0.00266,0.00192,0.00270,0.00295,0.00273,0.00287,0.00240,0.00069,0.00207,0.00438,0.00017,0.00214,0.00101,0.00102,0.00264,0.00052,0.00707,0.00147,0.00389,0.00131,0.00247,0.00705,0.00109,0.00011,0.00208,0.00126,0.00121,0.00316,0.00104,0.00191,0.00086,0.00167,0.00121,0.00105,0.00092,0.00117,0.00208,0.00111,0.00116
0.95833,1.04348,0.00277,0.00765,0.00121,0.00086,0.00003,0.00199,0.00176,0.00297,0.00133,0.00143,0.00301,0.00250,0.00205,0.00166,0.00090,0.00396,0.00298,0.00194,0.00287,0.00374,0.00268,0.00228,0.00150,0.00147,0.00396,0.00214,0.00262,0.00198,0.00171,0.00182,0.00270,0.00572,0.00224,0.00435,0.00279,0.00252,0.00298,0.00256,0.00184,0.00260,0.00282,0.00261,0.00276,0.00230,0.00070,0.00199,0.00420,0.00017,0.00204,0.00097,0.00098,0.00253,0.00051,0.00679,0.00143,0.00372,0.00126,0.00236,0.00675,0.00104,0.00011,0.00199,0.00121,0.00116,0.00302,0.00099,0.00183,0.00083,0.00159,0.00116,0.00100,0.00088,0.00112,0.00199,0.00106,0.00111
1.00000,1.00000,0.00265,0.00735,0.00116,0.00082,0.00002,0.00191,0.00168,0.00285,0.00128,0.00136,0.00289,0.00240,0.00197,0.00159,0.00086,0.00380,0.00286,0.00186,0.00276,0.00360,0.00258,0.00220,0.00143,0.00141,0.00379,0.00205,0.00252,0.00190,0.00164,0.00175,0.00260,0.00541,0.00215,0.00418,0.00268,0.00242,0.00287,0.00246,0.00177,0.00251,0.00271,0.00250,0.00267,0.00221,0.00070,0.00191,0.00403,0.00017,0.00196,0.00092,0.00094,0.00242,0.00050,0.00654,0.00140,0.00357,0.00120,0.00227,0.00648,0.00100,0.00011,0.00190,0.00116,0.00111,0.00289,0.00095,0.00176,0.00080,0.00153,0.00112,0.00097,0.00084,0.00107,0.00190,0.00102,0.00106
1.04167,0.96000,0.00255,0.00708,0.00112,0.00079,0.00002,0.00184,0.00161,0.00274,0.00123,0.00130,0.00278,0.00231,0.00189,0.00153,0.00083,0.00365,0.00275,0.00179,0.00266,0.00347,0.00248,0.00212,0.00137,0.00136,0.00365,0.00197,0.00242,0.00183,0.00158,0.00168,0.00250,0.00505,0.00207,0.00403,0.00258,0.00233,0.00277,0.00238,0.00171,0.00243,0.00260,0.00240,0.00259,0.00213,0.00071,0.00185,0.00388,0.00017,0.00188,0.00089,0.00091,0.00233,0.00050,0.00631,0.00136,0.00344,0.00116,0.00218,0.00623,0.00097,0.00011,0.00183,0.00112,0.00107,0.00278,0.00091,0.00169,0.00078,0.00147,0.00108,0.00093,0.00081,0.00103,0.00182,0.00097,0.00102
1.08333,0.92308,0.00246,0.00684,0.00108,0.00077,0.00002,0.00177,0.00155,0.00264,0.00119,0.00124,0.00268,0.00223,0.00182,0.00147,0.00080,0.00352,0.00265,0.00174,0.00257,0.00335,0.00240,0.00204,0.00132,0.00131,0.00352,0.00190,0.00233,0.00177,0.00152,0.00162,0.00241,0.00467,0.00200,0.00389,0.00249,0.00224,0.00267,0.00230,0.00165,0.00235,0.00250,0.00231,0.00251,0.00205,0.00071,0.00179,0.00375,0.00017,0.00182,0.00085,0.00088,0.00224,0.00050,0.00612,0.00134,0.00333,0.00111,0.00210,0.00601,0.00094,0.00012,0.00176,0.00108,0.00104,0.00268,0.00088,0.00163,0.00076,0.00141,0.00104,0.00090,0.00078,0.00100,0.00176,0.00094,0.00098
1.12500,0.88889,0.00238,0.00662,0.00104,0.00074,0.00002,0.00171,0.00149,0.00255,0.00115,0.00119,0.00259,0.00216,0.00176,0.00142,0.00077,0.00339,0.00256,0.00169,0.00248,0.00324,0.00232,0.00198,0.00127,0.00126,0.00341,0.00183,0.00225,0.00171,0.00147,0.00156,0.00233,0.00428,0.00195,0.00376,0.00240,0.00217,0.00259,0.00223,0.00160,0.00229,0.00241,0.00223,0.00244,0.00198,0.00072,0.00173,0.00363,0.00017,0.00175,0.00082,0.00085,0.00216,0.00049,0.00594,0.00131,0.00323,0.00107,0.00203,0.00580,0.00091,0.00012,0.00169,0.00105,0.00101,0.00258,0.00085,0.00158,0.00074,0.00137,0.00101,0.00087,0.00076,0.00096,0.00169,0.00090,0.00095
1.16667,0.85714,0.00231,0.00642,0.00101,0.00072,0.00002,0.00166,0.00144,0.00247,0.00111,0.00115,0.00251,0.00210,0.00170,0.00137,0.00074,0.00328,0.00247,0.00164,0.00240,0.00314,0.00225,0.00192,0.00122,0.00122,0.00331,0.00177,0.00217,0.00167,0.00143,0.00151,0.00226,0.00391,0.00190,0.00365,0.00233,0.00210,0.00251,0.00217,0.00155,0.00223,0.00233,0.00215,0.00238,0.00192,0.00073,0.00168,0.00351,0.00018,0.00170,0.00079,0.00082,0.00209,0.00049,0.00578,0.00129,0.00314,0.00103,0.00196,0.00562,0.00088,0.00012,0.00163,0.00102,0.00098,0.00250,0.00082,0.00153,0.00072,0.00132,0.00098,0.00085,0.00074,0.00094,0.00164,0.00087,0.00091
1.20833,0.82759,0.00224,0.00624,0.00098,0.00070,0.00002,0.00161,0.00139,0.00239,0.00108,0.00111,0.00244,0.00204,0.00165,0.00133,0.00072,0.00318,0.00240,0.00161,0.00233,0.00305,0.00218,0.00186,0.00117,0.00118,0.00322,0.00172,0.00210,0.00163,0.00138,0.00147,0.00220,0.00356,0.00186,0.00355,0.00226,0.00203,0.00245,0.00211,0.00151,0.00218,0.00225,0.00208,0.00232,0.00186,0.00074,0.00164,0.00341,0.00018,0.00164,0.00076,0.00080,0.00202,0.00049,0.00564,0.00127,0.00306,0.00100,0.00190,0.00544,0.00085,0.00012,0.00158,0.00099,0.00095,0.00242,0.00079,0.00148,0.00070,0.00128,0.00096,0.00082,0.00071,0.00091,0.00158,0.00084,0.00088
1.25000,0.80000,0.00218,0.00607,0.00095,0.00068,0.00002,0.00156,0.00134,0.00232,0.00105,0.00107,0.00237,0.00198,0.00160,0.00129,0.00070,0.00308,0.00232,0.00158,0.00227,0.00297,0.00212,0.00181,0.00113,0.00114,0.00314,0.00166,0.00204,0.00159,0.00135,0.00143,0.00214,0.00324,0.00183,0.00346,0.00219,0.00197,0.00238,0.00206,0.00147,0.00213,0.00218,0.00202,0.00227,0.00181,0.00075,0.00160,0.00332,0.00018,0.00160,0.00074,0.00078,0.00196,0.00048,0.00552,0.00125,0.00299,0.00097,0.00184,0.00528,0.00083,0.00012,0.00153,0.00096,0.00092,0.00234,0.00077,0.00144,0.00069,0.00125,0.00094,0.00080,0.00070,0.00089,0.00153,0.00081,0.00086
1.29167,0.77419,0.00212,0.00591,0.00092,0.00066,0.00002,0.00152,0.00130,0.00226,0.00102,0.00103,0.00231,0.00193,0.00156,0.00125,0.00068,0.00299,0.00226,0.00155,0.00221,0.00289,0.00207,0.00177,0.00109,0.00110,0.00307,0.00162,0.00198,0.00156,0.00131,0.00139,0.00208,0.00295,0.00180,0.00337,0.00213,0.00192,0.00232,0.00201,0.00143,0.00208,0.00211,0.00196,0.00222,0.00176,0.00075,0.00156,0.00324,0.00018,0.00155,0.00072,0.00076,0.00190,0.00048,0.00540,0.00124,0.00292,0.00094,0.00179,0.00512,0.00081,0.00012,0.00148,0.00094,0.00090,0.00228,0.00075,0.00140,0.00067,0.00122,0.00091,0.00078,0.00068,0.00087,0.00149,0.00079,0.00083
1.33333,0.75000,0.00207,0.00577,0.00089,0.00065,0.00002,0.00148,0.00126,0.00220,0.00100,0.00100,0.00225,0.00189,0.00152,0.00121,0.00066,0.00291,0.00220,0.00153,0.00216,0.00282,0.00201,0.00172,0.00105,0.00106,0.00300,0.00158,0.00192,0.00153,0.00128,0.00135,0.00203,0.00269,0.00178,0.00329,0.00208,0.00187,0.00227,0.00197,0.00140,0.00204,0.00205,0.00190,0.00218,0.00172,0.00076,0.00152,0.00317,0.00019,0.00151,0.00070,0.00074,0.00185,0.00048,0.00530,0.00122,0.00287,0.00091,0.00173,0.00498,0.00079,0.00013,0.00144,0.00092,0.00087,0.00221,0.00072,0.00136,0.00066,0.00118,0.00089,0.00077,0.00066,0.00085,0.00145,0.00077,0.00080
1.37500,0.72727,0.00202,0.00563,0.00087,0.00063,0.00002,0.00144,0.00122,0.00214,0.00098,0.00097,0.00219,0.00184,0.00148,0.00118,0.00064,0.00283,0.00214,0.00152,0.00210,0.00275,0.00196,0.00168,0.00102,0.00103,0.00294,0.00154,0.00187,0.00151,0.00125,0.00132,0.00198,0.00246,0.00176,0.00321,0.00203,0.00182,0.00221,0.00192,0.00137,0.00200,0.00199,0.00185,0.00214,0.00168,0.00076,0.00149,0.00310,0.00019,0.00147,0.00068,0.00072,0.00180,0.00047,0.00521,0.00121,0.00281,0.00088,0.00168,0.00484,0.00078,0.00013,0.00140,0.00089,0.00085,0.00216,0.00071,0.00133,0.00065,0.00116,0.00087,0.00075,0.00065,0.00083,0.00141,0.00074,0.00078
1.41667,0.70588,0.00198,0.00550,0.00085,0.00061,0.00002,0.00141,0.00119,0.00209,0.00096,0.00095,0.00214,0.00180,0.00144,0.00115,0.00063,0.00275,0.00209,0.00151,0.00206,0.00269,0.00192,0.00164,0.00098,0.00100,0.00288,0.00150,0.00182,0.00148,0.00122,0.00128,0.00193,0.00226,0.00174,0.00314,0.00198,0.00177,0.00216,0.00188,0.00134,0.00196,0.00194,0.00180,0.00210,0.00164,0.00077,0.00146,0.00304,0.00019,0.00144,0.00066,0.00070,0.00175,0.00047,0.00512,0.00119,0.00276,0.00085,0.00164,0.00471,0.00076,0.00013,0.00136,0.00087,0.00083,0.00210,0.00069,0.00129,0.00064,0.00113,0.00086,0.00073,0.00064,0.00082,0.00138,0.00072,0.00076
1.45833,0.68571,0.00194,0.00538,0.00083,0.00060,0.00002,0.00138,0.00115,0.00204,0.00094,0.00092,0.00209,0.00176,0.00141,0.00112,0.00061,0.00267,0.00204,0.00150,0.00201,0.00263,0.00188,0.00160,0.00095,0.00097,0.00283,0.00147,0.00177,0.00145,0.00119,0.00125,0.00189,0.00209,0.00173,0.00308,0.00193,0.00173,0.00212,0.00185,0.00131,0.00193,0.00189,0.00175,0.00206,0.00160,0.00077,0.00144,0.00298,0.00019,0.00141,0.00064,0.00069,0.00171,0.00047,0.00503,0.00117,0.00272,0.00083,0.00159,0.00458,0.00075,0.00013,0.00132,0.00085,0.00081,0.00205,0.00067,0.00126,0.00062,0.00111,0.00084,0.00072,0.00063,0.00080,0.00135,0.00070,0.00074
1.50000,0.66667,0.00190,0.00527,0.00081,0.00058,0.00002,0.00135,0.00112,0.00199,0.00092,0.00090,0.00204,0.00172,0.00138,0.00109,0.00060,0.00260,0.00199,0.00149,0.00197,0.00258,0.00184,0.00156,0.00092,0.00094,0.00277,0.00144,0.00172,0.00142,0.00117,0.00123,0.00185,0.00194,0.00171,0.00301,0.00189,0.00169,0.00207,0.00181,0.00128,0.00189,0.00184,0.00171,0.00202,0.00157,0.00077,0.00141,0.00292,0.00019,0.00137,0.00063,0.00067,0.00167,0.00046,0.00496,0.00116,0.00267,0.00081,0.00155,0.00446,0.00074,0.00013,0.00129,0.00083,0.00079,0.00200,0.00066,0.00123,0.00061,0.00108,0.00082,0.00070,0.00061,0.00079,0.00132,0.00069,0.00072
1.54167,0.64865,0.00186,0.00516,0.00079,0.00057,0.00002,0.00132,0.00109,0.00194,0.00090,0.00088,0.00200,0.00168,0.00135,0.00106,0.00059,0.00254,0.00195,0.00149,0.00193,0.00253,0.00180,0.00153,0.00089,0.00091,0.00271,0.00141,0.00168,0.00139,0.00114,0.00120,0.00181,0.00180,0.00169,0.00295,0.00185,0.00165,0.00203,0.00178,0.00126,0.00186,0.00179,0.00167,0.00198,0.00154,0.00077,0.00139,0.00287,0.00019,0.00135,0.00061,0.00066,0.00163,0.00046,0.00488,0.00114,0.00263,0.00078,0.00150,0.00434,0.00072,0.00013,0.00125,0.00081,0.00077,0.00196,0.00064,0.00120,0.00060,0.00106,0.00080,0.00069,0.00060,0.00077,0.00129,0.00067,0.00070
1.58333,0.63158,0.00183,0.00505,0.00077,0.00055,0.00002,0.00129,0.00107,0.00190,0.00088,0.00087,0.00196,0.00164,0.00132,0.00103,0.00057,0.00247,0.00191,0.00149,0.00190,0.00248,0.00176,0.00149,0.00086,0.00088,0.00266,0.00138,0.00164,0.00136,0.00112,0.00117,0.00177,0.00168,0.00167,0.00289,0.00181,0.00162,0.00198,0.00174,0.00123,0.00183,0.00175,0.00163,0.00195,0.00151,0.00077,0.00136,0.00283,0.00019,0.00132,0.00060,0.00064,0.00159,0.00045,0.00480,0.00112,0.00258,0.00076,0.00146,0.00422,0.00071,0.00013,0.00122,0.00080,0.00075,0.00191,0.00063,0.00118,0.00059,0.00104,0.00079,0.00068,0.00059,0.00076,0.00126,0.00065,0.00069
1.62500,0.61538,0.00180,0.00495,0.00075,0.00054,0.00002,0.00126,0.00104,0.00186,0.00087,0.00085,0.00191,0.00161,0.00130,0.00101,0.00056,0.00241,0.00187,0.00148,0.00186,0.00243,0.00172,0.00146,0.00084,0.00086,0.00260,0.00136,0.00160,0.00132,0.00110,0.00115,0.00174,0.00158,0.00165,0.00284,0.00177,0.00158,0.00194,0.00171,0.00121,0.00179,0.00171,0.00160,0.00191,0.00148,0.00077,0.00134,0.00278,0.00019,0.00129,0.00059,0.00063,0.00156,0.00045,0.00473,0.00111,0.00254,0.00074,0.00142,0.00411,0.00070,0.00013,0.00119,0.00078,0.00073,0.00187,0.00061,0.00115,0.00058,0.00102,0.00077,0.00066,0.00058,0.00075,0.00123,0.00064,0.00067
1.66667,0.60000,0.00176,0.00485,0.00073,0.00053,0.00002,0.00124,0.00102,0.00182,0.00085,0.00084,0.00187,0.00157,0.00127,0.00099,0.00055,0.00235,0.00183,0.00148,0.00183,0.00239,0.00169,0.00143,0.00081,0.00083,0.00254,0.00134,0.00156,0.00128,0.00107,0.00112,0.00170,0.00149,0.00162,0.00278,0.00174,0.00155,0.00190,0.00168,0.00118,0.00176,0.00167,0.00156,0.00188,0.00146,0.00076,0.00132,0.00274,0.00019,0.00127,0.00058,0.00062,0.00152,0.00045,0.00466,0.00109,0.00249,0.00072,0.00138,0.00400,0.00070,0.00013,0.00116,0.00076,0.00071,0.00184,0.00060,0.00112,0.00056,0.00100,0.00075,0.00065,0.00058,0.00074,0.00121,0.00062,0.00065
1.70833,0.58537,0.00173,0.00475,0.00072,0.00051,0.00002,0.00121,0.00100,0.00178,0.00084,0.00082,0.00183,0.00153,0.00125,0.00096,0.00054,0.00229,0.00179,0.00148,0.00180,0.00234,0.00165,0.00139,0.00079,0.00081,0.00248,0.00132,0.00153,0.00125,0.00105,0.00110,0.00167,0.00141,0.00159,0.00272,0.00170,0.00152,0.00186,0.00165,0.00116,0.00173,0.00163,0.00153,0.00184,0.00143,0.00076,0.00130,0.00270,0.00018,0.00124,0.00057,0.00060,0.00149,0.00044,0.00458,0.00107,0.00245,0.00071,0.00134,0.00389,0.00069,0.00013,0.00114,0.00074,0.00069,0.00180,0.00059,0.00110,0.00055,0.00098,0.00073,0.00063,0.00057,0.00073,0.00119,0.00061,0.00064
1.75000,0.57143,0.00170,0.00466,0.00070,0.00050,0.00002,0.00119,0.00098,0.00174,0.00082,0.00081,0.00179,0.00150,0.00122,0.00094,0.00053,0.00223,0.00176,0.00147,0.00177,0.00230,0.00162,0.00136,0.00077,0.00079,0.00242,0.00130,0.00149,0.00121,0.00103,0.00107,0.00163,0.00134,0.00156,0.00267,0.00167,0.00148,0.00182,0.00162,0.00114,0.00169,0.00159,0.00150,0.00181,0.00141,0.00075,0.00128,0.00266,0.00018,0.00122,0.00055,0.00059,0.00146,0.00044,0.00451,0.00104,0.00240,0.00069,0.00130,0.00379,0.00068,0.00013,0.00111,0.00072,0.00067,0.00176,0.00058,0.00107,0.00054,0.00096,0.00071,0.00062,0.00056,0.00071,0.00116,0.00060,0.00062
1.79167,0.55814,0.00167,0.00457,0.00069,0.00049,0.00002,0.00116,0.00096,0.00170,0.00081,0.00080,0.00176,0.00146,0.00120,0.00092,0.00052,0.00217,0.00173,0.00146,0.00174,0.00226,0.00159,0.00133,0.00075,0.00077,0.00236,0.00128,0.00146,0.00116,0.00100,0.00105,0.00160,0.00128,0.00152,0.00261,0.00164,0.00145,0.00179,0.00159,0.00112,0.00166,0.00155,0.00148,0.00178,0.00139,0.00074,0.00126,0.00262,0.00018,0.00120,0.00054,0.00058,0.00143,0.00043,0.00443,0.00102,0.00235,0.00067,0.00127,0.00369,0.00068,0.00013,0.00108,0.00071,0.00066,0.00173,0.00057,0.00105,0.00053,0.00094,0.00070,0.00061,0.00055,0.00070,0.00114,0.00058,0.00061
1.83333,0.54545,0.00164,0.00448,0.00067,0.00047,0.00002,0.00114,0.00094,0.00166,0.00079,0.00079,0.00172,0.00143,0.00118,0.00090,0.00051,0.00212,0.00169,0.00145,0.00171,0.00222,0.00156,0.00130,0.00073,0.00075,0.00230,0.00126,0.00143,0.00112,0.00098,0.00103,0.00157,0.00123,0.00148,0.00256,0.00160,0.00142,0.00175,0.00156,0.00110,0.00163,0.00152,0.00145,0.00174,0.00137,0.00074,0.00124,0.00258,0.00018,0.00118,0.00053,0.00056,0.00140,0.00043,0.00436,0.00100,0.00230,0.00066,0.00123,0.00360,0.00067,0.00013,0.00106,0.00069,0.00064,0.00170,0.00056,0.00103,0.00051,0.00092,0.00068,0.00059,0.00054,0.00069,0.00112,0.00057,0.00060
1.87500,0.53333,0.00161,0.00439,0.00066,0.00046,0.00002,0.00112,0.00092,0.00163,0.00078,0.00078,0.00168,0.00139,0.00116,0.00088,0.00050,0.00207,0.00166,0.00143,0.00169,0.00218,0.00153,0.00127,0.00071,0.00073,0.00224,0.00124,0.00140,0.00108,0.00096,0.00101,0.00153,0.00118,0.00144,0.00251,0.00157,0.00139,0.00172,0.00153,0.00108,0.00159,0.00149,0.00142,0.00171,0.00135,0.00073,0.00122,0.00254,0.00018,0.00116,0.00053,0.00055,0.00137,0.00042,0.00428,0.00098,0.00225,0.00064,0.00120,0.00351,0.00066,0.00012,0.00104,0.00067,0.00062,0.00167,0.00055,0.00100,0.00050,0.00090,0.00066,0.00058,0.00053,0.00068,0.00110,0.00056,0.00059
1.91667,0.52174,0.00159,0.00431,0.00065,0.00045,0.00002,0.00110,0.00091,0.00159,0.00077,0.00078,0.00165,0.00136,0.00114,0.00086,0.00049,0.00202,0.00163,0.00141,0.00166,0.00215,0.00150,0.00124,0.00070,0.00072,0.00218,0.00123,0.00137,0.00104,0.00094,0.00099,0.00150,0.00115,0.00140,0.00245,0.00154,0.00137,0.00168,0.00150,0.00106,0.00156,0.00146,0.00140,0.00168,0.00133,0.00073,0.00120,0.00250,0.00018,0.00114,0.00052,0.00054,0.00134,0.00042,0.00421,0.00096,0.00220,0.00063,0.00117,0.00342,0.00066,0.00012,0.00101,0.00065,0.00061,0.00164,0.00054,0.00098,0.00049,0.00088,0.00064,0.00056,0.00052,0.00066,0.00108,0.00055,0.00057
1.95833,0.51064,0.00156,0.00423,0.00064,0.00044,0.00002,0.00108,0.00089,0.00156,0.00075,0.00077,0.00161,0.00132,0.00112,0.00084,0.00048,0.00197,0.00160,0.00139,0.00164,0.00211,0.00147,0.00121,0.00068,0.00070,0.00212,0.00121,0.00134,0.00101,0.00092,0.00097,0.00147,0.00111,0.00136,0.00240,0.00151,0.00134,0.00165,0.00148,0.00104,0.00153,0.00143,0.00138,0.00165,0.00132,0.00073,0.00118,0.00246,0.00018,0.00112,0.00051,0.00053,0.00131,0.00042,0.00413,0.00094,0.00215,0.00062,0.00114,0.00334,0.00065,0.00012,0.00099,0.00064,0.00059,0.00161,0.00053,0.00096,0.00047,0.00086,0.00063,0.00055,0.00051,0.00065,0.00106,0.00054,0.00056
2.00000,0.50000,0.00153,0.00415,0.00063,0.00043,0.00002,0.00105,0.00087,0.00153,0.00074,0.00076,0.00158,0.00129,0.00110,0.00082,0.00048,0.00193,0.00157,0.00136,0.00161,0.00208,0.00144,0.00119,0.00067,0.00069,0.00206,0.00120,0.00132,0.00097,0.00090,0.00095,0.00144,0.00109,0.00131,0.00235,0.00148,0.00131,0.00162,0.00145,0.00102,0.00150,0.00140,0.00136,0.00162,0.00130,0.00072,0.00116,0.00242,0.00018,0.00110,0.00050,0.00052,0.00129,0.00041,0.00406,0.00092,0.00210,0.00061,0.00112,0.00327,0.00065,0.00012,0.00097,0.00062,0.00058,0.00158,0.00052,0.00094,0.00046,0.00085,0.00061,0.00054,0.00050,0.00064,0.00104,0.00053,0.00055
2.04167,0.48980,0.00150,0.00408,0.00062,0.00042,0.00002,0.00103,0.00086,0.00149,0.00072,0.00075,0.00154,0.00126,0.00109,0.00081,0.00047,0.00189,0.00154,0.00132,0.00159,0.00204,0.00141,0.00116,0.00065,0.00067,0.00201,0.00118,0.00129,0.00094,0.00088,0.00093,0.00142,0.00106,0.00127,0.00231,0.00145,0.00129,0.00159,0.00142,0.00100,0.00147,0.00137,0.00134,0.00160,0.00128,0.00072,0.00114,0.00238,0.00017,0.00108,0.00049,0.00050,0.00126,0.00041,0.00399,0.00090,0.00205,0.00060,0.00109,0.00319,0.00064,0.00012,0.00095,0.00061,0.00056,0.00155,0.00051,0.00092,0.00045,0.00083,0.00060,0.00052,0.00049,0.00062,0.00102,0.00052,0.00054
2.08333,0.48000,0.00147,0.00400,0.00061,0.00041,0.00002,0.00101,0.00085,0.00146,0.00071,0.00075,0.00151,0.00123,0.00107,0.00079,0.00046,0.00185,0.00151,0.00129,0.00157,0.00201,0.00139,0.00114,0.00064,0.00066,0.00196,0.00117,0.00127,0.00091,0.00087,0.00091,0.00139,0.00105,0.00124,0.00226,0.00142,0.00126,0.00156,0.00140,0.00099,0.00144,0.00135,0.00132,0.00157,0.00126,0.00072,0.00112,0.00234,0.00017,0.00107,0.00048,0.00049,0.00124,0.00041,0.00393,0.00088,0.00201,0.00059,0.00107,0.00313,0.00063,0.00012,0.00093,0.00059,0.00055,0.00153,0.00050,0.00091,0.00044,0.00081,0.00058,0.00051,0.00048,0.00061,0.00100,0.00051,0.00053
2.12500,0.47059,0.00144,0.00393,0.00060,0.00040,0.00002,0.00100,0.00083,0.00143,0.00070,0.00074,0.00148,0.00120,0.00106,0.00077,0.00045,0.00181,0.00148,0.00125,0.00155,0.00198,0.00136,0.00111,0.00063,0.00065,0.00191,0.00116,0.00125,0.00088,0.00085,0.00089,0.00136,0.00104,0.00120,0.00222,0.00139,0.00124,0.00154,0.00138,0.00097,0.00141,0.00132,0.00130,0.00155,0.00125,0.00072,0.00110,0.00230,0.00017,0.00105,0.00048,0.00048,0.00122,0.00040,0.00386,0.00087,0.00196,0.00058,0.00104,0.00307,0.00063,0.00011,0.00091,0.00058,0.00054,0.00150,0.00050,0.00089,0.00043,0.00079,0.00057,0.00050,0.00047,0.00060,0.00098,0.00050,0.00052
2.16667,0.46154,0.00142,0.00387,0.00059,0.00039,0.00002,0.00098,0.00082,0.00141,0.00068,0.00073,0.00146,0.00118,0.00104,0.00076,0.00044,0.00177,0.00146,0.00121,0.00153,0.00195,0.00134,0.00109,0.00062,0.00064,0.00186,0.00114,0.00123,0.00085,0.00083,0.00088,0.00134,0.00103,0.00117,0.00218,0.00136,0.00122,0.00151,0.00135,0.00096,0.00138,0.00130,0.00128,0.00153,0.00123,0.00073,0.00108,0.00225,0.00018,0.00103,0.00047,0.00047,0.00120,0.00040,0.00380,0.00085,0.00192,0.00057,0.00102,0.00301,0.00062,0.00011,0.00089,0.00057,0.00053,0.00148,0.00049,0.00087,0.00042,0.00077,0.00055,0.00049,0.00046,0.00058,0.00096,0.00049,0.00051
2.20833,0.45283,0.00139,0.00381,0.00059,0.00039,0.00002,0.00096,0.00080,0.00138,0.00067,0.00072,0.00143,0.00115,0.00103,0.00075,0.00044,0.00174,0.00143,0.00117,0.00151,0.00192,0.00132,0.00107,0.00061,0.00063,0.00182,0.00113,0.00121,0.00082,0.00082,0.00086,0.00132,0.00103,0.00114,0.00214,0.00134,0.00120,0.00149,0.00133,0.00094,0.00136,0.00127,0.00126,0.00151,0.00122,0.00073,0.00107,0.00221,0.00018,0.00102,0.00046,0.00047,0.00118,0.00040,0.00375,0.00084,0.00188,0.00056,0.00101,0.00296,0.00061,0.00011,0.00087,0.00056,0.00052,0.00146,0.00048,0.00085,0.00041,0.00076,0.00054,0.00048,0.00045,0.00057,0.00095,0.00048,0.00050
2.25000,0.44444,0.00136,0.00375,0.00058,0.00038,0.00002,0.00094,0.00079,0.00135,0.00066,0.00071,0.00140,0.00113,0.00101,0.00073,0.00043,0.00171,0.00140,0.00113,0.00149,0.00189,0.00130,0.00105,0.00061,0.00062,0.00178,0.00112,0.00120,0.00080,0.00081,0.00085,0.00130,0.00103,0.00111,0.00210,0.00131,0.00118,0.00147,0.00131,0.00093,0.00133,0.00125,0.00124,0.00149,0.00120,0.00074,0.00105,0.00217,0.00018,0.00101,0.00045,0.00046,0.00116,0.00040,0.00370,0.00082,0.00184,0.00055,0.00099,0.00291,0.00061,0.00011,0.00085,0.00055,0.00051,0.00144,0.00048,0.00084,0.00040,0.00074,0.00053,0.00046,0.00044,0.00056,0.00093,0.00048,0.00050
2.29167,0.43636,0.00134,0.00369,0.00057,0.00037,0.00002,0.00093,0.00078,0.00133,0.00065,0.00070,0.00138,0.00111,0.00100,0.00072,0.00042,0.00168,0.00138,0.00109,0.00147,0.00187,0.00128,0.00104,0.00060,0.00062,0.00174,0.00111,0.00118,0.00078,0.00079,0.00084,0.00128,0.00104,0.00108,0.00206,0.00128,0.00116,0.00145,0.00129,0.00092,0.00131,0.00123,0.00123,0.00147,0.00119,0.00074,0.00104,0.00213,0.00018,0.00099,0.00045,0.00045,0.00114,0.00040,0.00365,0.00081,0.00180,0.00054,0.00097,0.00287,0.00060,0.00011,0.00083,0.00053,0.00050,0.00142,0.00047,0.00083,0.00039,0.00072,0.00052,0.00045,0.00044,0.00055,0.00091,0.00047,0.00049
2.33333,0.42857,0.00131,0.00364,0.00057,0.00037,0.00002,0.00091,0.00076,0.00131,0.00064,0.00069,0.00136,0.00109,0.00099,0.00071,0.00041,0.00165,0.00135,0.00105,0.00145,0.00184,0.00126,0.00102,0.00059,0.00061,0.00171,0.00109,0.00117,0.00076,0.00078,0.00082,0.00126,0.00105,0.00106,0.00203,0.00126,0.00114,0.00144,0.00127,0.00091,0.00129,0.00121,0.00121,0.00146,0.00117,0.00075,0.00102,0.00209,0.00018,0.00098,0.00044,0.00044,0.00113,0.00039,0.00361,0.00080,0.00177,0.00054,0.00096,0.00283,0.00059,0.00011,0.00082,0.00053,0.00050,0.00140,0.00047,0.00081,0.00038,0.00071,0.00051,0.00045,0.00043,0.00053,0.00089,0.00046,0.00048
2.37500,0.42105,0.00129,0.00360,0.00056,0.00036,0.00002,0.00090,0.00075,0.00128,0.00062,0.00068,0.00133,0.00107,0.00098,0.00070,0.00041,0.00162,0.00133,0.00102,0.00143,0.00182,0.00124,0.00100,0.00059,0.00060,0.00168,0.00108,0.00116,0.00075,0.00077,0.00081,0.00124,0.00107,0.00104,0.00200,0.00124,0.00112,0.00142,0.00125,0.00089,0.00127,0.00120,0.00120,0.00144,0.00116,0.00076,0.00101,0.00205,0.00018,0.00097,0.00043,0.00043,0.00111,0.00039,0.00358,0.00079,0.00174,0.00053,0.00094,0.00279,0.00058,0.00011,0.00080,0.00052,0.00049,0.00138,0.00047,0.00080,0.00038,0.00069,0.00051,0.00044,0.00042,0.00052,0.00088,0.00046,0.00047
2.41667,0.41379,0.00127,0.00355,0.00056,0.00036,0.00002,0.00088,0.00074,0.00126,0.00061,0.00067,0.00132,0.00105,0.00096,0.00069,0.00040,0.00160,0.00131,0.00098,0.00141,0.00179,0.00122,0.00099,0.00058,0.00060,0.00165,0.00107,0.00114,0.00073,0.00076,0.00080,0.00122,0.00110,0.00102,0.00197,0.00122,0.00110,0.00141,0.00124,0.00088,0.00125,0.00118,0.00118,0.00143,0.00115,0.00077,0.00100,0.00202,0.00018,0.00096,0.00043,0.00043,0.00110,0.00039,0.00355,0.00079,0.00171,0.00053,0.00093,0.00276,0.00057,0.00010,0.00079,0.00051,0.00048,0.00136,0.00046,0.00079,0.00037,0.00068,0.00050,0.00043,0.00041,0.00051,0.00086,0.00045,0.00047
2.45833,0.40678,0.00124,0.00351,0.00056,0.00035,0.00002,0.00087,0.00073,0.00125,0.00060,0.00066,0.00130,0.00103,0.00095,0.00068,0.00039,0.00157,0.00129,0.00095,0.00139,0.00177,0.00121,0.00098,0.00058,0.00059,0.00163,0.00106,0.00113,0.00072,0.00075,0.00079,0.00121,0.00113,0.00101,0.00195,0.00120,0.00109,0.00140,0.00122,0.00088,0.00124,0.00116,0.00117,0.00142,0.00113,0.00079,0.00099,0.00198,0.00018,0.00095,0.00042,0.00042,0.00108,0.00039,0.00352,0.00078,0.00169,0.00052,0.00092,0.00273,0.00056,0.00010,0.00077,0.00050,0.00048,0.00134,0.00046,0.00077,0.00036,0.00067,0.00049,0.00042,0.00040,0.00050,0.00084,0.00045,0.00046
2.50000,0.40000,0.00122,0.00347,0.00055,0.00035,0.00002,0.00086,0.00072,0.00123,0.00060,0.00065,0.00128,0.00102,0.00094,0.00067,0.00039,0.00155,0.00126,0.00092,0.00138,0.00175,0.00119,0.00097,0.00057,0.00059,0.00160,0.00105,0.00113,0.00071,0.00074,0.00078,0.00120,0.00117,0.00099,0.00193,0.00118,0.00107,0.00139,0.00121,0.00087,0.00122,0.00114,0.00115,0.00141,0.00112,0.00080,0.00098,0.00195,0.00018,0.00094,0.00041,0.00042,0.00107,0.00039,0.00350,0.00077,0.00166,0.00051,0.00091,0.00270,0.00055,0.00010,0.00076,0.00049,0.00047,0.00133,0.00045,0.00076,0.00036,0.00066,0.00049,0.00041,0.00040,0.00049,0.00083,0.00044,0.00046
2.54167,0.39344,0.00120,0.00344,0.00055,0.00035,0.00002,0.00085,0.00071,0.00121,0.00059,0.00064,0.00127,0.00100,0.00093,0.00066,0.00038,0.00153,0.00124,0.00089,0.00136,0.00173,0.00118,0.00095,0.00057,0.00059,0.00158,0.00104,0.00112,0.00070,0.00074,0.00077,0.00118,0.00123,0.00098,0.00190,0.00116,0.00106,0.00138,0.00119,0.00086,0.00121,0.00113,0.00114,0.00140,0.00111,0.00081,0.00097,0.00191,0.00018,0.00093,0.00041,0.00041,0.00106,0.00039,0.00349,0.00077,0.00164,0.00051,0.00090,0.00267,0.00055,0.00010,0.00075,0.00049,0.00047,0.00131,0.00045,0.00075,0.00036,0.00064,0.00048,0.00041,0.00039,0.00048,0.00082,0.00043,0.00045
2.58333,0.38710,0.00118,0.00341,0.00055,0.00034,0.00002,0.00084,0.00070,0.00120,0.00058,0.00063,0.00125,0.00099,0.00092,0.00066,0.00037,0.00151,0.00122,0.00087,0.00135,0.00172,0.00117,0.00094,0.00057,0.00059,0.00157,0.00103,0.00111,0.00069,0.00073,0.00076,0.00117,0.00129,0.00097,0.00188,0.00114,0.00105,0.00137,0.00118,0.00085,0.00120,0.00111,0.00113,0.00139,0.00109,0.00083,0.00096,0.00188,0.00018,0.00093,0.00040,0.00040,0.00104,0.00039,0.00348,0.00076,0.00163,0.00050,0.00089,0.00265,0.00054,0.00010,0.00074,0.00048,0.00047,0.00129,0.00045,0.00074,0.00035,0.00063,0.00048,0.00040,0.00038,0.00047,0.00080,0.00043,0.00044
2.62500,0.38095,0.00117,0.00338,0.00054,0.00034,0.00002,0.00083,0.00069,0.00118,0.00057,0.00062,0.00124,0.00098,0.00091,0.00065,0.00037,0.00149,0.00121,0.00085,0.00133,0.00170,0.00116,0.00094,0.00056,0.00058,0.00155,0.00102,0.00111,0.00068,0.00072,0.00075,0.00116,0.00137,0.00097,0.00187,0.00112,0.00104,0.00136,0.00116,0.00084,0.00119,0.00110,0.00111,0.00138,0.00108,0.00084,0.00095,0.00185,0.00018,0.00092,0.00039,0.00040,0.00103,0.00039,0.00348,0.00076,0.00161,0.00050,0.00088,0.00263,0.00053,0.00010,0.00073,0.00048,0.00046,0.00128,0.00045,0.00073,0.00035,0.00062,0.00048,0.00040,0.00038,0.00046,0.00079,0.00043,0.00044
2.66667,0.37500,0.00115,0.00335,0.00054,0.00034,0.00002,0.00082,0.00068,0.00117,0.00056,0.00061,0.00123,0.00097,0.00090,0.00064,0.00036,0.00147,0.00119,0.00083,0.00132,0.00169,0.00115,0.00093,0.00056,0.00058,0.00153,0.00101,0.00110,0.00067,0.00072,0.00075,0.00115,0.00146,0.00096,0.00185,0.00111,0.00103,0.00136,0.00115,0.00084,0.00118,0.00108,0.00110,0.00137,0.00107,0.00085,0.00095,0.00183,0.00018,0.00091,0.00039,0.00040,0.00102,0.00038,0.00348,0.00075,0.00160,0.00049,0.00087,0.00260,0.00052,0.00010,0.00072,0.00047,0.00046,0.00127,0.00044,0.00072,0.00035,0.00062,0.00047,0.00039,0.00037,0.00045,0.00078,0.00042,0.00044
2.70833,0.36923,0.00113,0.00333,0.00054,0.00034,0.00002,0.00081,0.00067,0.00116,0.00056,0.00060,0.00122,0.00096,0.00089,0.00064,0.00036,0.00145,0.00117,0.00081,0.00130,0.00167,0.00114,0.00092,0.00056,0.00058,0.00152,0.00101,0.00110,0.00067,0.00071,0.00074,0.00114,0.00157,0.00096,0.00184,0.00109,0.00102,0.00135,0.00114,0.00083,0.00117,0.00107,0.00109,0.00136,0.00106,0.00086,0.00094,0.00180,0.00018,0.00090,0.00038,0.00039,0.00101,0.00038,0.00348,0.00075,0.00159,0.00049,0.00086,0.00258,0.00052,0.00010,0.00071,0.00047,0.00046,0.00125,0.00044,0.00071,0.00035,0.00061,0.00047,0.00039,0.00036,0.00045,0.00077,0.00042,0.00043
2.75000,0.36364,0.00112,0.00330,0.00053,0.00034,0.00002,0.00080,0.00066,0.00115,0.00055,0.00059,0.00121,0.00095,0.00088,0.00063,0.00035,0.00143,0.00116,0.00079,0.00129,0.00166,0.00113,0.00091,0.00055,0.00057,0.00151,0.00100,0.00109,0.00066,0.00071,0.00073,0.00114,0.00169,0.00095,0.00182,0.00108,0.00101,0.00134,0.00112,0.00083,0.00116,0.00105,0.00108,0.00135,0.00105,0.00088,0.00093,0.00178,0.00018,0.00090,0.00038,0.00039,0.00100,0.00038,0.00349,0.00074,0.00158,0.00048,0.00084,0.00256,0.00051,0.00010,0.00070,0.00046,0.00045,0.00124,0.00044,0.00071,0.00034,0.00060,0.00047,0.00038,0.00036,0.00044,0.00075,0.00041,0.00043
2.79167,0.35821,0.00110,0.00328,0.00053,0.00033,0.00002,0.00079,0.00066,0.00113,0.00055,0.00058,0.00120,0.00095,0.00087,0.00063,0.00035,0.00141,0.00114,0.00078,0.00128,0.00165,0.00112,0.00091,0.00055,0.00057,0.00150,0.00099,0.00109,0.00066,0.00070,0.00072,0.00113,0.00183,0.00095,0.00181,0.00106,0.00100,0.00134,0.00111,0.00082,0.00115,0.00104,0.00107,0.00134,0.00104,0.00088,0.00093,0.00176,0.00018,0.00089,0.00037,0.00038,0.00099,0.00038,0.00350,0.00074,0.00157,0.00048,0.00083,0.00254,0.00050,0.00009,0.00069,0.00046,0.00045,0.00122,0.00043,0.00070,0.00034,0.00059,0.00047,0.00038,0.00035,0.00043,0.00074,0.00041,0.00042
2.83333,0.35294,0.00109,0.00326,0.00053,0.00033,0.00002,0.00078,0.00065,0.00112,0.00054,0.00057,0.00119,0.00094,0.00085,0.00062,0.00034,0.00139,0.00113,0.00076,0.00127,0.00164,0.00112,0.00090,0.00054,0.00057,0.00148,0.00099,0.00108,0.00065,0.00069,0.00072,0.00112,0.00199,0.00095,0.00180,0.00105,0.00099,0.00133,0.00110,0.00082,0.00115,0.00103,0.00106,0.00133,0.00103,0.00089,0.00092,0.00174,0.00017,0.00088,0.00037,0.00038,0.00098,0.00038,0.00351,0.00073,0.00156,0.00048,0.00082,0.00251,0.00050,0.00009,0.00069,0.00045,0.00045,0.00121,0.00043,0.00069,0.00034,0.00059,0.00047,0.00037,0.00035,0.00043,0.00073,0.00040,0.00042
2.87500,0.34783,0.00107,0.00324,0.00052,0.00033,0.00002,0.00077,0.00064,0.00111,0.00054,0.00056,0.00118,0.00093,0.00084,0.00061,0.00034,0.00137,0.00112,0.00075,0.00126,0.00163,0.00111,0.00089,0.00054,0.00057,0.00147,0.00098,0.00108,0.00065,0.00069,0.00071,0.00111,0.00213,0.00095,0.00178,0.00104,0.00098,0.00133,0.00109,0.00081,0.00114,0.00101,0.00105,0.00131,0.00102,0.00090,0.00092,0.00172,0.00017,0.00088,0.00036,0.00038,0.00097,0.00038,0.00353,0.00072,0.00155,0.00047,0.00081,0.00248,0.00049,0.00009,0.00068,0.00045,0.00044,0.00120,0.00043,0.00068,0.00034,0.00058,0.00048,0.00037,0.00034,0.00042,0.00073,0.00040,0.00042
2.91667,0.34286,0.00106,0.00322,0.00052,0.00033,0.00001,0.00076,0.00064,0.00111,0.00053,0.00055,0.00118,0.00093,0.00083,0.00061,0.00033,0.00135,0.00111,0.00074,0.00125,0.00162,0.00111,0.00089,0.00054,0.00056,0.00146,0.00098,0.00107,0.00064,0.00068,0.00070,0.00111,0.00223,0.00094,0.00177,0.00103,0.00098,0.00132,0.00107,0.00081,0.00113,0.00100,0.00104,0.00129,0.00101,0.00090,0.00091,0.00170,0.00017,0.00087,0.00036,0.00037,0.00096,0.00037,0.00354,0.00071,0.00155,0.00046,0.00079,0.00246,0.00049,0.00009,0.00068,0.00045,0.00044,0.00119,0.00042,0.00067,0.00034,0.00058,0.00048,0.00037,0.00034,0.00041,0.00072,0.00039,0.00041
2.95833,0.33803,0.00105,0.00320,0.00051,0.00033,0.00001,0.00076,0.00064,0.00110,0.00053,0.00054,0.00117,0.00092,0.00082,0.00060,0.00033,0.00133,0.00110,0.00074,0.00124,0.00161,0.00110,0.00088,0.00053,0.00056,0.00145,0.00097,0.00107,0.00063,0.00068,0.00069,0.00110,0.00226,0.00094,0.00176,0.00102,0.00097,0.00131,0.00106,0.00080,0.00113,0.00098,0.00103,0.00128,0.00101,0.00090,0.00091,0.00168,0.00016,0.00086,0.00035,0.00037,0.00095,0.00037,0.00356,0.00070,0.00154,0.00046,0.00078,0.00242,0.00049,0.00009,0.00067,0.00044,0.00043,0.00117,0.00042,0.00067,0.00034,0.00057,0.00048,0.00036,0.00034,0.00041,0.00071,0.00039,0.00041
3.00000,0.33333,0.00104,0.00318,0.00051,0.00033,0.00001,0.00075,0.00063,0.00109,0.00053,0.00053,0.00116,0.00091,0.00081,0.00060,0.00032,0.00131,0.00109,0.00073,0.00123,0.00161,0.00110,0.00088,0.00053,0.00055,0.00143,0.00097,0.00106,0.00063,0.00067,0.00069,0.00110,0.00220,0.00094,0.00174,0.00101,0.00096,0.00130,0.00105,0.00080,0.00112,0.00097,0.00102,0.00126,0.00100,0.00090,0.00091,0.00167,0.00016,0.00085,0.00035,0.00036,0.00094,0.00037,0.00357,0.00069,0.00153,0.00045,0.00077,0.00239,0.00049,0.00009,0.00067,0.00044,0.00043,0.00116,0.00042,0.00066,0.00034,0.00057,0.00048,0.00036,0.00033,0.00040,0.00070,0.00039,0.00040
3.04167,0.32877,0.00102,0.00316,0.00050,0.00032,0.00001,0.00074,0.00063,0.00108,0.00053,0.00053,0.00116,0.00091,0.00080,0.00059,0.00032,0.00129,0.00108,0.00072,0.00122,0.00160,0.00110,0.00087,0.00052,0.00055,0.00142,0.00096,0.00105,0.00062,0.00066,0.00068,0.00109,0.00207,0.00093,0.00173,0.00100,0.00096,0.00129,0.00103,0.00079,0.00111,0.00096,0.00101,0.00124,0.00099,0.00089,0.00090,0.00165,0.00016,0.00085,0.00035,0.00036,0.00094,0.00037,0.00358,0.00068,0.00153,0.00045,0.00075,0.00236,0.00048,0.00009,0.00067,0.00044,0.00042,0.00115,0.00041,0.00065,0.00034,0.00056,0.00048,0.00036,0.00033,0.00040,0.00070,0.00038,0.00040
3.08333,0.32432,0.00101,0.00314,0.00050,0.00032,0.00001,0.00073,0.00063,0.00107,0.00052,0.00052,0.00115,0.00090,0.00079,0.00059,0.00031,0.00128,0.00107,0.00072,0.00121,0.00159,0.00109,0.00086,0.00051,0.00054,0.00140,0.00096,0.00105,0.00061,0.00065,0.00067,0.00108,0.00189,0.00093,0.00171,0.00099,0.00095,0.00128,0.00102,0.00078,0.00111,0.00094,0.00100,0.00121,0.00099,0.00089,0.00090,0.00164,0.00015,0.00084,0.00034,0.00036,0.00093,0.00037,0.00359,0.00066,0.00152,0.00044,0.00074,0.00232,0.00048,0.00009,0.00066,0.00043,0.00042,0.00113,0.00041,0.00065,0.00034,0.00056,0.00048,0.00035,0.00033,0.00039,0.00069,0.00038,0.00040
3.12500,0.32000,0.00100,0.00312,0.00049,0.00032,0.00001,0.00072,0.00063,0.00106,0.00052,0.00051,0.00115,0.00090,0.00078,0.00058,0.00031,0.00126,0.00106,0.00072,0.00121,0.00159,0.00109,0.00086,0.00051,0.00054,0.00139,0.00096,0.00104,0.00061,0.00065,0.00066,0.00107,0.00171,0.00092,0.00170,0.00098,0.00095,0.00127,0.00101,0.00078,0.00110,0.00093,0.00100,0.00119,0.00098,0.00089,0.00089,0.00163,0.00015,0.00083,0.00034,0.00035,0.00092,0.00036,0.00359,0.00065,0.00151,0.00044,0.00072,0.00229,0.00048,0.00009,0.00066,0.00043,0.00041,0.00112,0.00041,0.00064,0.00034,0.00056,0.00049,0.00035,0.00032,0.00039,0.00068,0.00037,0.00039
3.16667,0.31579,0.00099,0.00310,0.00048,0.00032,0.00001,0.00072,0.00063,0.00106,0.00052,0.00051,0.00114,0.00089,0.00077,0.00058,0.00031,0.00124,0.00106,0.00072,0.00120,0.00158,0.00109,0.00085,0.00050,0.00053,0.00137,0.00095,0.00103,0.00060,0.00064,0.00066,0.00107,0.00153,0.00091,0.00168,0.00097,0.00094,0.00126,0.00099,0.00077,0.00109,0.00092,0.00099,0.00117,0.00098,0.00088,0.00089,0.00162,0.00015,0.00082,0.00034,0.00035,0.00091,0.00036,0.00359,0.00063,0.00151,0.00043,0.00071,0.00225,0.00048,0.00009,0.00066,0.00042,0.00041,0.00111,0.00040,0.00063,0.00034,0.00055,0.00049,0.00035,0.00032,0.00038,0.00068,0.00037,0.00039
3.20833,0.31169,0.00098,0.00308,0.00048,0.00031,0.00001,0.00071,0.00063,0.00105,0.00051,0.00050,0.00113,0.00088,0.00076,0.00057,0.00030,0.00122,0.00105,0.00072,0.00119,0.00158,0.00109,0.00084,0.00049,0.00052,0.00135,0.00095,0.00102,0.00059,0.00063,0.00065,0.00106,0.00137,0.00090,0.00166,0.00096,0.00093,0.00125,0.00098,0.00077,0.00108,0.00090,0.00098,0.00114,0.00097,0.00088,0.00088,0.00161,0.00015,0.00081,0.00033,0.00035,0.00089,0.00036,0.00358,0.00062,0.00150,0.00043,0.00069,0.00221,0.00048,0.00009,0.00065,0.00042,0.00040,0.00110,0.00040,0.00062,0.00034,0.00055,0.00049,0.00035,0.00032,0.00038,0.00067,0.00037,0.00039
3.25000,0.30769,0.00097,0.00306,0.00047,0.00031,0.00001,0.00070,0.00063,0.00104,0.00051,0.00050,0.00113,0.00088,0.00075,0.00057,0.00030,0.00120,0.00104,0.00072,0.00119,0.00157,0.00109,0.00084,0.00049,0.00051,0.00133,0.00095,0.00101,0.00058,0.00062,0.00064,0.00105,0.00124,0.00089,0.00164,0.00096,0.00093,0.00123,0.00097,0.00076,0.00107,0.00089,0.00098,0.00112,0.00097,0.00087,0.00088,0.00159,0.00014,0.00080,0.00033,0.00034,0.00088,0.00036,0.00356,0.00060,0.00149,0.00042,0.00068,0.00217,0.00049,0.00009,0.00065,0.00042,0.00039,0.00108,0.00039,0.00062,0.00033,0.00055,0.00049,0.00034,0.00031,0.00038,0.00067,0.00036,0.00038
3.29167,0.30380,0.00096,0.00304,0.00046,0.00031,0.00001,0.00069,0.00063,0.00103,0.00051,0.00049,0.00112,0.00087,0.00074,0.00056,0.00030,0.00119,0.00104,0.00072,0.00118,0.00156,0.00108,0.00083,0.00048,0.00051,0.00131,0.00095,0.00100,0.00057,0.00062,0.00063,0.00104,0.00113,0.00088,0.00162,0.00095,0.00092,0.00122,0.00095,0.00076,0.00106,0.00088,0.00097,0.00110,0.00096,0.00087,0.00087,0.00158,0.00014,0.00079,0.00033,0.00034,0.00087,0.00036,0.00354,0.00058,0.00148,0.00042,0.00066,0.00214,0.00049,0.00009,0.00065,0.00041,0.00039,0.00107,0.00039,0.00061,0.00033,0.00055,0.00049,0.00034,0.00031,0.00037,0.00066,0.00036,0.00038
3.33333,0.30000,0.00095,0.00302,0.00046,0.00030,0.00001,0.00069,0.00063,0.00102,0.00051,0.00049,0.00111,0.00087,0.00073,0.00056,0.00029,0.00117,0.00103,0.00073,0.00118,0.00156,0.00108,0.00082,0.00047,0.00050,0.00129,0.00094,0.00099,0.00056,0.00061,0.00063,0.00103,0.00103,0.00087,0.00160,0.00094,0.00091,0.00120,0.00094,0.00075,0.00105,0.00087,0.00096,0.00107,0.00096,0.00086,0.00087,0.00157,0.00014,0.00078,0.00032,0.00033,0.00086,0.00036,0.00351,0.00057,0.00146,0.00041,0.00065,0.00210,0.00049,0.00009,0.00065,0.00041,0.00038,0.00106,0.00039,0.00061,0.00033,0.00055,0.00048,0.00034,0.00031,0.00037,0.00066,0.00035,0.00037
3.37500,0.29630,0.00094,0.00300,0.00045,0.00030,0.00001,0.00068,0.00064,0.00101,0.00050,0.00049,0.00110,0.00086,0.00073,0.00055,0.00029,0.00116,0.00103,0.00073,0.00117,0.00156,0.00108,0.00082,0.00046,0.00049,0.00127,0.00094,0.00097,0.00055,0.00060,0.00062,0.00102,0.00095,0.00085,0.00158,0.00094,0.00091,0.00119,0.00093,0.00075,0.00104,0.00086,0.00096,0.00105,0.00096,0.00086,0.00086,0.00156,0.00014,0.00077,0.00032,0.00033,0.00085,0.00036,0.00348,0.00055,0.00145,0.00041,0.00063,0.00206,0.00049,0.00008,0.00065,0.00040,0.00037,0.00105,0.00038,0.00060,0.00033,0.00054,0.00048,0.00033,0.00030,0.00037,0.00065,0.00035,0.00037
3.41667,0.29268,0.00093,0.00297,0.00044,0.00030,0.00002,0.00067,0.00064,0.00100,0.00050,0.00048,0.00110,0.00085,0.00072,0.00055,0.00029,0.00114,0.00103,0.00074,0.00117,0.00155,0.00107,0.00081,0.00046,0.00048,0.00125,0.00094,0.00096,0.00055,0.00059,0.00061,0.00101,0.00089,0.00084,0.00156,0.00093,0.00090,0.00117,0.00092,0.00074,0.00103,0.00084,0.00095,0.00103,0.00095,0.00086,0.00086,0.00154,0.00014,0.00076,0.00032,0.00033,0.00084,0.00035,0.00344,0.00053,0.00144,0.00040,0.00062,0.00203,0.00050,0.00008,0.00064,0.00040,0.00037,0.00104,0.00038,0.00059,0.00032,0.00054,0.00048,0.00033,0.00030,0.00037,0.00065,0.00035,0.00036
3.45833,0.28916,0.00092,0.00295,0.00044,0.00029,0.00002,0.00066,0.00064,0.00099,0.00050,0.00048,0.00109,0.00084,0.00071,0.00054,0.00029,0.00113,0.00102,0.00074,0.00117,0.00155,0.00107,0.00080,0.00045,0.00048,0.00124,0.00094,0.00095,0.00054,0.00059,0.00061,0.00100,0.00083,0.00083,0.00153,0.00093,0.00089,0.00116,0.00090,0.00074,0.00102,0.00083,0.00095,0.00101,0.00095,0.00086,0.00085,0.00153,0.00014,0.00076,0.00032,0.00032,0.00083,0.00035,0.00339,0.00052,0.00142,0.00040,0.00061,0.00199,0.00050,0.00008,0.00064,0.00040,0.00036,0.00102,0.00037,0.00059,0.00032,0.00054,0.00047,0.00033,0.00030,0.00037,0.00065,0.00034,0.00036
3.50000,0.28571,0.00091,0.00293,0.00043,0.00029,0.00002,0.00066,0.00064,0.00098,0.00049,0.00047,0.00108,0.00084,0.00071,0.00054,0.00028,0.00111,0.00102,0.00075,0.00117,0.00154,0.00107,0.00080,0.00044,0.00047,0.00122,0.00093,0.00094,0.00053,0.00058,0.00060,0.00099,0.00078,0.00081,0.00151,0.00092,0.00088,0.00114,0.00089,0.00073,0.00101,0.00082,0.00094,0.00099,0.00095,0.00086,0.00084,0.00152,0.00014,0.00075,0.00032,0.00032,0.00082,0.00035,0.00335,0.00050,0.00141,0.00040,0.00060,0.00196,0.00050,0.00008,0.00064,0.00039,0.00036,0.00101,0.00037,0.00058,0.00031,0.00054,0.00047,0.00033,0.00030,0.00036,0.00064,0.00034,0.00036
3.54167,0.28235,0.00090,0.00291,0.00043,0.00028,0.00002,0.00065,0.00065,0.00097,0.00049,0.00047,0.00107,0.00083,0.00070,0.00053,0.00028,0.00110,0.00101,0.00076,0.00117,0.00154,0.00106,0.00079,0.00044,0.00046,0.00120,0.00093,0.00092,0.00052,0.00057,0.00060,0.00098,0.00074,0.00080,0.00149,0.00091,0.00087,0.00113,0.00088,0.00073,0.00100,0.00081,0.00094,0.00097,0.00094,0.00087,0.00084,0.00150,0.00014,0.00074,0.00031,0.00032,0.00081,0.00035,0.00330,0.00049,0.00139,0.00039,0.00059,0.00193,0.00050,0.00008,0.00064,0.00039,0.00035,0.00100,0.00037,0.00058,0.00031,0.00054,0.00046,0.00032,0.00029,0.00036,0.00064,0.00034,0.00035
3.58333,0.27907,0.00089,0.00289,0.00042,0.00028,0.00002,0.00064,0.00065,0.00096,0.00048,0.00047,0.00106,0.00082,0.00070,0.00053,0.00028,0.00109,0.00101,0.00076,0.00117,0.00153,0.00106,0.00078,0.00043,0.00046,0.00118,0.00093,0.00091,0.00051,0.00057,0.00059,0.00097,0.00070,0.00079,0.00147,0.00091,0.00087,0.00111,0.00087,0.00072,0.00099,0.00081,0.00094,0.00095,0.00094,0.00087,0.00083,0.00149,0.00014,0.00073,0.00031,0.00031,0.00080,0.00035,0.00325,0.00048,0.00137,0.00039,0.00058,0.00190,0.00051,0.00008,0.00063,0.00038,0.00035,0.00099,0.00036,0.00057,0.00030,0.00053,0.00046,0.00032,0.00029,0.00036,0.00063,0.00033,0.00035
3.62500,0.27586,0.00088,0.00287,0.00042,0.00028,0.00002,0.00064,0.00065,0.00095,0.00048,0.00046,0.00105,0.00082,0.00070,0.00052,0.00028,0.00108,0.00101,0.00077,0.00116,0.00153,0.00105,0.00078,0.00043,0.00045,0.00116,0.00092,0.00090,0.00051,0.00056,0.00059,0.00096,0.00067,0.00078,0.00144,0.00090,0.00086,0.00110,0.00086,0.00072,0.00098,0.00080,0.00093,0.00094,0.00094,0.00088,0.00083,0.00147,0.00014,0.00072,0.00031,0.00031,0.00080,0.00035,0.00320,0.00047,0.00136,0.00039,0.00057,0.00188,0.00051,0.00008,0.00063,0.00038,0.00034,0.00098,0.00036,0.00057,0.00030,0.00053,0.00045,0.00032,0.00029,0.00036,0.00063,0.00033,0.00034
3.66667,0.27273,0.00087,0.00285,0.00042,0.00027,0.00002,0.00063,0.00065,0.00094,0.00047,0.00046,0.00104,0.00081,0.00070,0.00052,0.00028,0.00107,0.00100,0.00077,0.00116,0.00152,0.00105,0.00077,0.00042,0.00045,0.00115,0.00092,0.00089,0.00050,0.00056,0.00058,0.00095,0.00065,0.00077,0.00142,0.00090,0.00085,0.00109,0.00085,0.00071,0.00097,0.00079,0.00093,0.00092,0.00094,0.00089,0.00082,0.00145,0.00014,0.00071,0.00031,0.00031,0.00079,0.00035,0.00315,0.00046,0.00134,0.00038,0.00056,0.00186,0.00051,0.00008,0.00063,0.00038,0.00034,0.00097,0.00036,0.00056,0.00029,0.00053,0.00044,0.00032,0.00029,0.00036,0.00062,0.00033,0.00034
3.70833,0.26966,0.00086,0.00283,0.00041,0.00027,0.00002,0.00063,0.00065,0.00093,0.00047,0.00046,0.00103,0.00080,0.00070,0.00051,0.00027,0.00106,0.00100,0.00078,0.00116,0.00152,0.00104,0.00077,0.00042,0.00044,0.00113,0.00091,0.00088,0.00050,0.00055,0.00058,0.00094,0.00062,0.00076,0.00140,0.00089,0.00084,0.00108,0.00084,0.00071,0.00096,0.00078,0.00093,0.00091,0.00093,0.00090,0.00082,0.00144,0.00014,0.00070,0.00031,0.00031,0.00078,0.00035,0.00310,0.00045,0.00132,0.00038,0.00055,0.00184,0.00051,0.00008,0.00062,0.00037,0.00033,0.00096,0.00036,0.00056,0.00029,0.00052,0.00044,0.00031,0.00028,0.00036,0.00062,0.00033,0.00033
3.75000,0.26667,0.00085,0.00281,0.00041,0.00027,0.00002,0.00062,0.00065,0.00092,0.00047,0.00045,0.00102,0.00079,0.00069,0.00051,0.00027,0.00105,0.00099,0.00078,0.00117,0.00151,0.00104,0.00076,0.00041,0.00044,0.00112,0.00091,0.00087,0.00049,0.00055,0.00058,0.00093,0.00061,0.00075,0.00138,0.00089,0.00083,0.00107,0.00083,0.00071,0.00095,0.00078,0.00092,0.00090,0.00093,0.00091,0.00081,0.00142,0.00014,0.00069,0.00031,0.00030,0.00077,0.00035,0.00305,0.00044,0.00131,0.00038,0.00055,0.00182,0.00051,0.00008,0.00062,0.00037,0.00033,0.00095,0.00036,0.00055,0.00028,0.00052,0.00043,0.00031,0.00028,0.00036,0.00062,0.00032,0.00033
3.79167,0.26374,0.00084,0.00280,0.00041,0.00026,0.00002,0.00061,0.00065,0.00091,0.00046,0.00045,0.00101,0.00079,0.00069,0.00050,0.00027,0.00105,0.00099,0.00079,0.00117,0.00151,0.00103,0.00076,0.00041,0.00044,0.00111,0.00090,0.00086,0.00049,0.00054,0.00057,0.00092,0.00059,0.00074,0.00137,0.00088,0.00082,0.00106,0.00083,0.00071,0.00094,0.00077,0.00092,0.00089,0.00093,0.00092,0.00081,0.00140,0.00014,0.00068,0.00031,0.00030,0.00076,0.00035,0.00301,0.00043,0.00129,0.00038,0.00054,0.00180,0.00051,0.00008,0.00061,0.00037,0.00033,0.00095,0.00035,0.00055,0.00028,0.00052,0.00042,0.00031,0.00028,0.00036,0.00061,0.00032,0.00033
3.83333,0.26087,0.00084,0.00278,0.00041,0.00026,0.00002,0.00061,0.00064,0.00090,0.00046,0.00045,0.00100,0.00078,0.00070,0.00050,0.00027,0.00104,0.00098,0.00079,0.00117,0.00150,0.00102,0.00075,0.00040,0.00043,0.00110,0.00089,0.00085,0.00048,0.00054,0.00057,0.00092,0.00058,0.00073,0.00135,0.00088,0.00081,0.00105,0.00082,0.00071,0.00094,0.00076,0.00092,0.00088,0.00092,0.00093,0.00080,0.00139,0.00014,0.00068,0.00030,0.00030,0.00076,0.00035,0.00297,0.00042,0.00127,0.00038,0.00053,0.00179,0.00050,0.00007,0.00061,0.00036,0.00033,0.00094,0.00035,0.00055,0.00027,0.00051,0.00041,0.00031,0.00028,0.00036,0.00061,0.00032,0.00032
3.87500,0.25806,0.00083,0.00277,0.00040,0.00026,0.00002,0.00060,0.00064,0.00090,0.00045,0.00044,0.00099,0.00078,0.00070,0.00050,0.00027,0.00104,0.00098,0.00078,0.00117,0.00150,0.00102,0.00075,0.00040,0.00043,0.00109,0.00089,0.00084,0.00048,0.00054,0.00057,0.00091,0.00057,0.00073,0.00134,0.00087,0.00081,0.00105,0.00081,0.00070,0.00093,0.00076,0.00091,0.00087,0.00092,0.00094,0.00080,0.00137,0.00014,0.00067,0.00030,0.00030,0.00075,0.00035,0.00293,0.00041,0.00126,0.00038,0.00053,0.00178,0.00050,0.00007,0.00060,0.00036,0.00032,0.00093,0.00035,0.00055,0.00027,0.00051,0.00041,0.00031,0.00027,0.00036,0.00060,0.00032,0.00032
3.91667,0.25532,0.00082,0.00276,0.00040,0.00026,0.00002,0.00060,0.00063,0.00089,0.00045,0.00044,0.00098,0.00077,0.00070,0.00049,0.00027,0.00103,0.00097,0.00078,0.00117,0.00149,0.00101,0.00074,0.00040,0.00043,0.00108,0.00088,0.00083,0.00048,0.00054,0.00057,0.00090,0.00057,0.00072,0.00133,0.00087,0.00080,0.00104,0.00081,0.00070,0.00092,0.00075,0.00091,0.00086,0.00092,0.00096,0.00080,0.00135,0.00014,0.00066,0.00030,0.00030,0.00075,0.00035,0.00289,0.00040,0.00125,0.00037,0.00052,0.00177,0.00050,0.00007,0.00060,0.00036,0.00032,0.00093,0.00035,0.00054,0.00027,0.00051,0.00040,0.00030,0.00027,0.00036,0.00060,0.00032,0.00031
3.95833,0.25263,0.00081,0.00275,0.00040,0.00026,0.00002,0.00060,0.00063,0.00088,0.00044,0.00044,0.00098,0.00077,0.00070,0.00049,0.00027,0.00103,0.00096,0.00078,0.00117,0.00149,0.00101,0.00074,0.00040,0.00043,0.00107,0.00087,0.00082,0.00048,0.00054,0.00056,0.00090,0.00056,0.00072,0.00131,0.00086,0.00079,0.00104,0.00080,0.00070,0.00091,0.00075,0.00091,0.00085,0.00091,0.00097,0.00079,0.00134,0.00014,0.00066,0.00030,0.00030,0.00074,0.00035,0.00286,0.00040,0.00123,0.00037,0.00052,0.00176,0.00049,0.00007,0.00059,0.00036,0.00032,0.00092,0.00035,0.00054,0.00026,0.00050,0.00039,0.00030,0.00027,0.00036,0.00060,0.00031,0.00031
4.00000,0.25000,0.00081,0.00274,0.00040,0.00026,0.00002,0.00059,0.00062,0.00087,0.00044,0.00043,0.00097,0.00076,0.00070,0.00049,0.00027,0.00102,0.00096,0.00077,0.00117,0.00148,0.00100,0.00074,0.00039,0.00043,0.00106,0.00087,0.00082,0.00047,0.00054,0.00056,0.00089,0.00056,0.00072,0.00131,0.00086,0.00078,0.00104,0.00079,0.00070,0.00091,0.00075,0.00090,0.00085,0.00091,0.00098,0.00079,0.00133,0.00014,0.00065,0.00030,0.00029,0.00074,0.00035,0.00284,0.00039,0.00122,0.00037,0.00051,0.00176,0.00049,0.00007,0.00058,0.00036,0.00032,0.00091,0.00035,0.00054,0.00026,0.00050,0.00039,0.00030,0.00027,0.00036,0.00059,0.00031,0.00031
4.04167,0.24742,0.00080,0.00273,0.00040,0.00025,0.00002,0.00059,0.00061,0.00086,0.00043,0.00043,0.00096,0.00076,0.00070,0.00048,0.00026,0.00102,0.00095,0.00076,0.00117,0.00148,0.00099,0.00073,0.00039,0.00043,0.00106,0.00086,0.00081,0.00047,0.00053,0.00056,0.00089,0.00056,0.00072,0.00130,0.00085,0.00078,0.00104,0.00079,0.00070,0.00090,0.00075,0.00090,0.00084,0.00091,0.00099,0.00079,0.00131,0.00014,0.00065,0.00030,0.00029,0.00073,0.00035,0.00281,0.00039,0.00121,0.00037,0.00051,0.00176,0.00049,0.00007,0.00058,0.00035,0.00032,0.00091,0.00035,0.00054,0.00026,0.00050,0.00038,0.00030,0.00026,0.00036,0.00059,0.00031,0.00031
4.08333,0.24490,0.00079,0.00273,0.00040,0.00025,0.00001,0.00059,0.00060,0.00086,0.00043,0.00043,0.00095,0.00075,0.00070,0.00048,0.00026,0.00101,0.00094,0.00075,0.00117,0.00147,0.00099,0.00073,0.00039,0.00043,0.00105,0.00085,0.00080,0.00047,0.00053,0.00056,0.00088,0.00056,0.00072,0.00129,0.00085,0.00077,0.00104,0.00078,0.00070,0.00090,0.00074,0.00090,0.00083,0.00090,0.00100,0.00079,0.00130,0.00014,0.00064,0.00030,0.00029,0.00073,0.00035,0.00279,0.00038,0.00120,0.00037,0.00050,0.00175,0.00048,0.00007,0.00057,0.00035,0.00032,0.00090,0.00034,0.00053,0.00026,0.00049,0.00038,0.00030,0.00026,0.00036,0.00058,0.00031,0.00030
4.12500,0.24242,0.00079,0.00272,0.00040,0.00025,0.00001,0.00058,0.00059,0.00085,0.00043,0.00042,0.00095,0.00075,0.00070,0.00048,0.00026,0.00101,0.00093,0.00074,0.00117,0.00147,0.00098,0.00073,0.00039,0.00043,0.00105,0.00085,0.00080,0.00047,0.00053,0.00056,0.00088,0.00057,0.00072,0.00129,0.00085,0.00076,0.00104,0.00078,0.00070,0.00089,0.00074,0.00090,0.00082,0.00090,0.00100,0.00079,0.00129,0.00014,0.00064,0.00030,0.00029,0.00072,0.00035,0.00277,0.00037,0.00119,0.00037,0.00050,0.00175,0.00048,0.00007,0.00057,0.00035,0.00032,0.00090,0.00034,0.00053,0.00025,0.00049,0.00037,0.00030,0.00026,0.00036,0.00058,0.00031,0.00030
4.16667,0.24000,0.00078,0.00272,0.00040,0.00025,0.00001,0.00058,0.00058,0.00084,0.00043,0.00042,0.00094,0.00074,0.00070,0.00048,0.00026,0.00100,0.00092,0.00072,0.00117,0.00147,0.00098,0.00073,0.00039,0.00043,0.00104,0.00084,0.00080,0.00047,0.00053,0.00056,0.00087,0.00058,0.00072,0.00129,0.00084,0.00076,0.00104,0.00078,0.00070,0.00089,0.00074,0.00089,0.00082,0.00089,0.00101,0.00079,0.00128,0.00014,0.00063,0.00030,0.00029,0.00072,0.00035,0.00276,0.00037,0.00118,0.00037,0.00049,0.00176,0.00047,0.00007,0.00056,0.00035,0.00032,0.00090,0.00034,0.00053,0.00025,0.00049,0.00037,0.00030,0.00026,0.00036,0.00057,0.00031,0.00030
4.20833,0.23762,0.00078,0.00272,0.00040,0.00025,0.00001,0.00058,0.00057,0.00084,0.00042,0.00042,0.00093,0.00074,0.00070,0.00048,0.00026,0.00100,0.00092,0.00071,0.00117,0.00146,0.00097,0.00073,0.00039,0.00044,0.00104,0.00083,0.00079,0.00047,0.00053,0.00056,0.00087,0.00059,0.00072,0.00128,0.00084,0.00075,0.00104,0.00077,0.00070,0.00088,0.00074,0.00089,0.00081,0.00089,0.00101,0.00078,0.00127,0.00014,0.00063,0.00029,0.00029,0.00072,0.00035,0.00275,0.00036,0.00117,0.00037,0.00049,0.00176,0.00047,0.00006,0.00055,0.00035,0.00032,0.00089,0.00034,0.00053,0.00025,0.00048,0.00036,0.00030,0.00026,0.00036,0.00057,0.00031,0.00030
4.25000,0.23529,0.00077,0.00271,0.00041,0.00025,0.00001,0.00058,0.00057,0.00083,0.00042,0.00042,0.00093,0.00074,0.00069,0.00047,0.00026,0.00099,0.00091,0.00070,0.00117,0.00146,0.00097,0.00072,0.00039,0.00044,0.00104,0.00083,0.00079,0.00047,0.00053,0.00056,0.00087,0.00060,0.00072,0.00129,0.00083,0.00075,0.00105,0.00077,0.00070,0.00088,0.00074,0.00089,0.00080,0.00089,0.00100,0.00078,0.00127,0.00014,0.00063,0.00029,0.00029,0.00072,0.00035,0.00274,0.00036,0.00116,0.00037,0.00049,0.00176,0.00046,0.00006,0.00055,0.00035,0.00032,0.00089,0.00034,0.00053,0.00025,0.00048,0.00036,0.00030,0.00025,0.00036,0.00057,0.00030,0.00030
4.29167,0.23301,0.00077,0.00271,0.00041,0.00025,0.00001,0.00058,0.00056,0.00083,0.00042,0.00041,0.00092,0.00073,0.00069,0.00047,0.00026,0.00099,0.00090,0.00068,0.00117,0.00145,0.00096,0.00072,0.00039,0.00044,0.00103,0.00082,0.00079,0.00047,0.00053,0.00056,0.00087,0.00062,0.00072,0.00129,0.00082,0.00074,0.00105,0.00076,0.00070,0.00088,0.00073,0.00089,0.00079,0.00088,0.00100,0.00078,0.00126,0.00015,0.00062,0.00029,0.00029,0.00072,0.00035,0.00273,0.00035,0.00115,0.00037,0.00048,0.00176,0.00046,0.00006,0.00054,0.00035,0.00032,0.00089,0.00033,0.00053,0.00025,0.00048,0.00035,0.00030,0.00025,0.00035,0.00056,0.00030,0.00030
4.33333,0.23077,0.00077,0.00271,0.00041,0.00025,0.00001,0.00057,0.00055,0.00082,0.00042,0.00041,0.00092,0.00073,0.00069,0.00047,0.00026,0.00098,0.00089,0.00067,0.00116,0.00145,0.00096,0.00072,0.00040,0.00045,0.00103,0.00082,0.00079,0.00047,0.00053,0.00055,0.00087,0.00064,0.00072,0.00129,0.00082,0.00074,0.00106,0.00076,0.00070,0.00087,0.00073,0.00088,0.00078,0.00088,0.00099,0.00078,0.00126,0.00015,0.00062,0.00029,0.00029,0.00071,0.00035,0.00273,0.00035,0.00114,0.00037,0.00048,0.00176,0.00045,0.00006,0.00054,0.00035,0.00032,0.00088,0.00033,0.00053,0.00025,0.00048,0.00035,0.00030,0.00025,0.00035,0.00056,0.00030,0.00029
4.37500,0.22857,0.00077,0.00271,0.00041,0.00025,0.00001,0.00057,0.00054,0.00082,0.00042,0.00041,0.00092,0.00073,0.00068,0.00047,0.00026,0.00097,0.00088,0.00065,0.00116,0.00144,0.00095,0.00072,0.00040,0.00045,0.00102,0.00081,0.00079,0.00046,0.00053,0.00055,0.00086,0.00066,0.00072,0.00130,0.00081,0.00073,0.00106,0.00075,0.00070,0.00087,0.00073,0.00088,0.00077,0.00087,0.00099,0.00078,0.00126,0.00015,0.00062,0.00029,0.00028,0.00071,0.00035,0.00273,0.00034,0.00113,0.00037,0.00047,0.00177,0.00045,0.00006,0.00053,0.00034,0.00032,0.00088,0.00033,0.00053,0.00025,0.00047,0.00035,0.00029,0.00025,0.00035,0.00056,0.00030,0.00029
4.41667,0.22642,0.00076,0.00270,0.00041,0.00025,0.00001,0.00057,0.00053,0.00082,0.00042,0.00041,0.00091,0.00072,0.00067,0.00047,0.00026,0.00097,0.00087,0.00064,0.00115,0.00144,0.00095,0.00071,0.00040,0.00046,0.00102,0.00081,0.00078,0.00046,0.00053,0.00055,0.00086,0.00069,0.00072,0.00130,0.00081,0.00073,0.00106,0.00075,0.00070,0.00086,0.00073,0.00088,0.00076,0.00087,0.00098,0.00078,0.00126,0.00015,0.00062,0.00029,0.00028,0.00071,0.00035,0.00273,0.00034,0.00112,0.00036,0.00047,0.00177,0.00045,0.00006,0.00053,0.00034,0.00032,0.00088,0.00033,0.00052,0.00026,0.00047,0.00034,0.00029,0.00025,0.00035,0.00055,0.00030,0.00029
4.45833,0.22430,0.00076,0.00270,0.00041,0.00025,0.00001,0.00057,0.00052,0.00081,0.00042,0.00041,0.00091,0.00072,0.00066,0.00047,0.00026,0.00096,0.00087,0.00062,0.00115,0.00143,0.00095,0.00071,0.00040,0.00046,0.00102,0.00081,0.00078,0.00046,0.00053,0.00055,0.00086,0.00072,0.00072,0.00131,0.00080,0.00073,0.00107,0.00074,0.00070,0.00086,0.00073,0.00088,0.00075,0.00086,0.00096,0.00078,0.00126,0.00015,0.00062,0.00029,0.00028,0.00071,0.00035,0.00273,0.00033,0.00111,0.00036,0.00046,0.00177,0.00045,0.00006,0.00053,0.00034,0.00033,0.00088,0.00032,0.00052,0.00026,0.00047,0.00034,0.00029,0.00025,0.00034,0.00055,0.00030,0.00029
4.50000,0.22222,0.00076,0.00270,0.00041,0.00025,0.00001,0.00057,0.00052,0.00081,0.00042,0.00041,0.00090,0.00072,0.00066,0.00047,0.00025,0.00095,0.00086,0.00061,0.00114,0.00143,0.00094,0.00071,0.00040,0.00046,0.00101,0.00081,0.00078,0.00046,0.00052,0.00055,0.00086,0.00076,0.00072,0.00132,0.00080,0.00072,0.00107,0.00074,0.00070,0.00086,0.00073,0.00087,0.00074,0.00086,0.00095,0.00078,0.00126,0.00015,0.00062,0.00029,0.00028,0.00071,0.00034,0.00273,0.00032,0.00110,0.00036,0.00045,0.00177,0.00045,0.00006,0.00052,0.00034,0.00033,0.00087,0.00032,0.00052,0.00026,0.00047,0.00034,0.00029,0.00024,0.00034,0.00055,0.00029,0.00029
4.54167,0.22018,0.00076,0.00269,0.00041,0.00025,0.00001,0.00057,0.00051,0.00081,0.00042,0.00041,0.00090,0.00071,0.00065,0.00047,0.00025,0.00094,0.00085,0.00060,0.00114,0.00143,0.00094,0.00070,0.00040,0.00047,0.00101,0.00081,0.00078,0.00045,0.00052,0.00054,0.00086,0.00080,0.00072,0.00133,0.00079,0.00072,0.00108,0.00073,0.00070,0.00085,0.00073,0.00087,0.00073,0.00086,0.00094,0.00078,0.00126,0.00015,0.00062,0.00028,0.00028,0.00071,0.00034,0.00273,0.00032,0.00109,0.00036,0.00045,0.00177,0.00045,0.00006,0.00052,0.00034,0.00033,0.00087,0.00031,0.00052,0.00026,0.00047,0.00034,0.00029,0.00024,0.00033,0.00055,0.00029,0.00029
4.58333,0.21818,0.00076,0.00269,0.00040,0.00025,0.00001,0.00057,0.00050,0.00080,0.00042,0.00040,0.00090,0.00071,0.00064,0.00046,0.00025,0.00093,0.00085,0.00058,0.00113,0.00142,0.00094,0.00070,0.00041,0.00047,0.00100,0.00080,0.00078,0.00045,0.00052,0.00054,0.00086,0.00085,0.00072,0.00134,0.00079,0.00072,0.00108,0.00073,0.00069,0.00085,0.00073,0.00087,0.00071,0.00085,0.00093,0.00078,0.00127,0.00015,0.00062,0.00028,0.00028,0.00071,0.00034,0.00273,0.00031,0.00109,0.00035,0.00044,0.00176,0.00045,0.00006,0.00052,0.00034,0.00033,0.00087,0.00031,0.00052,0.00026,0.00046,0.00033,0.00029,0.00024,0.00033,0.00054,0.00029,0.00029
4.62500,0.21622,0.00076,0.00268,0.00040,0.00025,0.00001,0.00056,0.00050,0.00080,0.00042,0.00040,0.00090,0.00071,0.00063,0.00046,0.00025,0.00092,0.00084,0.00057,0.00112,0.00142,0.00093,0.00070,0.00041,0.00048,0.00100,0.00080,0.00078,0.00045,0.00051,0.00054,0.00086,0.00091,0.00071,0.00134,0.00078,0.00072,0.00108,0.00072,0.00069,0.00084,0.00072,0.00087,0.00070,0.00085,0.00092,0.00078,0.00127,0.00015,0.00061,0.00028,0.00028,0.00071,0.00034,0.00274,0.00030,0.00108,0.00035,0.00043,0.00176,0.00045,0.00006,0.00051,0.00034,0.00032,0.00087,0.00031,0.00052,0.00027,0.00046,0.00033,0.00029,0.00024,0.00033,0.00054,0.00029,0.00029
4.66667,0.21429,0.00076,0.00267,0.00040,0.00025,0.00001,0.00056,0.00049,0.00080,0.00042,0.00040,0.00089,0.00070,0.00062,0.00046,0.00025,0.00091,0.00084,0.00056,0.00112,0.00141,0.00093,0.00069,0.00041,0.00048,0.00099,0.00080,0.00078,0.00044,0.00051,0.00054,0.00086,0.00098,0.00071,0.00135,0.00077,0.00071,0.00108,0.00071,0.00069,0.00084,0.00072,0.00086,0.00069,0.00085,0.00091,0.00078,0.00128,0.00015,0.00061,0.00028,0.00027,0.00070,0.00034,0.00274,0.00030,0.00107,0.00035,0.00043,0.00175,0.00045,0.00006,0.00051,0.00034,0.00032,0.00087,0.00030,0.00052,0.00027,0.00046,0.00033,0.00029,0.00024,0.00032,0.00054,0.00029,0.00029
4.70833,0.21239,0.00077,0.00266,0.00040,0.00025,0.00001,0.00056,0.00049,0.00080,0.00042,0.00040,0.00089,0.00070,0.00061,0.00046,0.00025,0.00090,0.00083,0.00056,0.00111,0.00141,0.00093,0.00069,0.00041,0.00048,0.00098,0.00080,0.00078,0.00044,0.00050,0.00053,0.00086,0.00106,0.00071,0.00136,0.00077,0.00071,0.00108,0.00071,0.00068,0.00083,0.00072,0.00086,0.00067,0.00084,0.00090,0.00077,0.00129,0.00016,0.00061,0.00028,0.00027,0.00070,0.00034,0.00274,0.00029,0.00106,0.00035,0.00042,0.00174,0.00045,0.00007,0.00051,0.00034,0.00032,0.00087,0.00030,0.00051,0.00027,0.00046,0.00033,0.00029,0.00024,0.00032,0.00054,0.00029,0.00029
4.75000,0.21053,0.00077,0.00265,0.00039,0.00025,0.00001,0.00056,0.00049,0.00080,0.00043,0.00041,0.00089,0.00070,0.00060,0.00046,0.00025,0.00089,0.00083,0.00055,0.00110,0.00140,0.00093,0.00068,0.00041,0.00048,0.00098,0.00081,0.00078,0.00043,0.00050,0.00053,0.00087,0.00114,0.00070,0.00137,0.00076,0.00071,0.00108,0.00070,0.00068,0.00083,0.00072,0.00086,0.00066,0.00084,0.00090,0.00077,0.00130,0.00016,0.00061,0.00028,0.00027,0.00070,0.00034,0.00275,0.00028,0.00105,0.00034,0.00042,0.00173,0.00046,0.00007,0.00051,0.00033,0.00032,0.00086,0.00029,0.00051,0.00028,0.00046,0.00033,0.00029,0.00024,0.00031,0.00054,0.00028,0.00029
4.79167,0.20870,0.00077,0.00264,0.00039,0.00025,0.00001,0.00056,0.00048,0.00080,0.00043,0.00041,0.00089,0.00069,0.00059,0.00046,0.00025,0.00088,0.00083,0.00054,0.00110,0.00139,0.00092,0.00068,0.00041,0.00048,0.00097,0.00081,0.00078,0.00043,0.00049,0.00052,0.00087,0.00122,0.00069,0.00138,0.00076,0.00071,0.00108,0.00070,0.00067,0.00083,0.00072,0.00086,0.00064,0.00084,0.00089,0.00077,0.00131,0.00016,0.00061,0.00028,0.00027,0.00070,0.00034,0.00275,0.00028,0.00104,0.00034,0.00041,0.00172,0.00046,0.00007,0.00051,0.00033,0.00032,0.00086,0.00029,0.00051,0.00028,0.00046,0.00033,0.00029,0.00024,0.00031,0.00053,0.00028,0.00029
4.83333,0.20690,0.00077,0.00263,0.00039,0.00025,0.00001,0.00056,0.00048,0.00079,0.00043,0.00041,0.00089,0.00069,0.00058,0.00046,0.00025,0.00088,0.00082,0.00054,0.00109,0.00139,0.00092,0.00068,0.00042,0.00048,0.00096,0.00081,0.00078,0.00042,0.00049,0.00052,0.00087,0.00130,0.00069,0.00138,0.00075,0.00071,0.00108,0.00069,0.00067,0.00082,0.00071,0.00086,0.00063,0.00083,0.00089,0.00077,0.00132,0.00016,0.00061,0.00028,0.00027,0.00070,0.00034,0.00275,0.00027,0.00103,0.00034,0.00040,0.00171,0.00047,0.00007,0.00051,0.00033,0.00032,0.00086,0.00029,0.00051,0.00029,0.00046,0.00033,0.00029,0.00023,0.00031,0.00053,0.00028,0.00029
4.87500,0.20513,0.00077,0.00262,0.00038,0.00025,0.00001,0.00056,0.00048,0.00079,0.00043,0.00041,0.00089,0.00069,0.00057,0.00046,0.00024,0.00087,0.00082,0.00053,0.00108,0.00138,0.00092,0.00067,0.00042,0.00048,0.00096,0.00081,0.00078,0.00042,0.00049,0.00052,0.00086,0.00136,0.00068,0.00138,0.00075,0.00071,0.00108,0.00068,0.00067,0.00082,0.00071,0.00085,0.00062,0.00083,0.00088,0.00077,0.00132,0.00016,0.00061,0.00027,0.00027,0.00070,0.00034,0.00276,0.00026,0.00102,0.00033,0.00040,0.00169,0.00047,0.00007,0.00051,0.00033,0.00031,0.00086,0.00028,0.00051,0.00029,0.00046,0.00032,0.00028,0.00023,0.00030,0.00053,0.00028,0.00029
4.91667,0.20339,0.00077,0.00261,0.00038,0.00024,0.00001,0.00056,0.00048,0.00079,0.00043,0.00041,0.00088,0.00068,0.00057,0.00045,0.00024,0.00086,0.00082,0.00053,0.00108,0.00138,0.00092,0.00067,0.00042,0.00048,0.00095,0.00081,0.00078,0.00041,0.00048,0.00051,0.00086,0.00140,0.00067,0.00139,0.00074,0.00071,0.00107,0.00068,0.00066,0.00081,0.00071,0.00085,0.00060,0.00083,0.00088,0.00076,0.00133,0.00017,0.00061,0.00027,0.00026,0.00070,0.00034,0.00276,0.00026,0.00101,0.00033,0.00039,0.00168,0.00048,0.00007,0.00051,0.00033,0.00031,0.00086,0.00028,0.00050,0.00029,0.00046,0.00032,0.00028,0.00023,0.00030,0.00053,0.00028,0.00029
4.95833,0.20168,0.00077,0.00260,0.00038,0.00024,0.00001,0.00055,0.00048,0.00079,0.00043,0.00041,0.00088,0.00068,0.00056,0.00045,0.00024,0.00085,0.00082,0.00053,0.00107,0.00137,0.00092,0.00066,0.00042,0.00048,0.00094,0.00082,0.00078,0.00041,0.00048,0.00051,0.00086,0.00140,0.00067,0.00138,0.00074,0.00071,0.00107,0.00067,0.00066,0.00081,0.00071,0.00085,0.00059,0.00083,0.00088,0.00076,0.00134,0.00017,0.00061,0.00027,0.00026,0.00069,0.00034,0.00276,0.00025,0.00100,0.00033,0.00039,0.00167,0.00048,0.00007,0.00051,0.00033,0.00031,0.00086,0.00028,0.00050,0.00030,0.00046,0.00032,0.00028,0.00023,0.00030,0.00053,0.00028,0.00029
5.00000,0.20000,0.00078,0.00259,0.00037,0.00024,0.00001,0.00055,0.00048,0.00079,0.00043,0.00041,0.00088,0.00068,0.00055,0.00045,0.00024,0.00084,0.00082,0.00052,0.00106,0.00137,0.00091,0.00066,0.00042,0.00048,0.00094,0.00082,0.00078,0.00040,0.00047,0.00050,0.00086,0.00137,0.00066,0.00138,0.00073,0.00071,0.00106,0.00066,0.00065,0.00081,0.00070,0.00085,0.00058,0.00082,0.00088,0.00076,0.00134,0.00017,0.00061,0.00027,0.00026,0.00069,0.00035,0.00276,0.00024,0.00099,0.00032,0.00038,0.00165,0.00048,0.00008,0.00050,0.00032,0.00031,0.00085,0.00027,0.00050,0.00030,0.00046,0.00032,0.00028,0.00023,0.00029,0.00053,0.00027,0.00029
5.04167,0.19835,0.00078,0.00258,0.00037,0.00024,0.00001,0.00055,0.00048,0.00079,0.00043,0.00041,0.00088,0.00068,0.00055,0.00045,0.00024,0.00084,0.00082,0.00052,0.00106,0.00136,0.00091,0.00065,0.00041,0.00047,0.00093,0.00082,0.00078,0.00040,0.00047,0.00050,0.00086,0.00130,0.00065,0.00138,0.00073,0.00070,0.00106,0.00066,0.00065,0.00080,0.00070,0.00084,0.00057,0.00082,0.00088,0.00076,0.00135,0.00017,0.00061,0.00027,0.00026,0.00069,0.00035,0.00277,0.00024,0.00099,0.00032,0.00038,0.00164,0.00049,0.00008,0.00050,0.00032,0.00031,0.00085,0.00027,0.00050,0.00030,0.00046,0.00032,0.00028,0.00023,0.00029,0.00052,0.00027,0.00029
5.08333,0.19672,0.00078,0.00257,0.00037,0.00024,0.00001,0.00055,0.00048,0.00079,0.00043,0.00041,0.00088,0.00067,0.00055,0.00045,0.00024,0.00083,0.00082,0.00052,0.00105,0.00136,0.00091,0.00065,0.00041,0.00047,0.00092,0.00082,0.00078,0.00040,0.00047,0.00050,0.00086,0.00123,0.00065,0.00137,0.00072,0.00070,0.00105,0.00065,0.00065,0.00080,0.00070,0.00084,0.00056,0.00082,0.00089,0.00076,0.00135,0.00017,0.00061,0.00027,0.00026,0.00069,0.00035,0.00277,0.00023,0.00098,0.00032,0.00037,0.00162,0.00049,0.00008,0.00050,0.00032,0.00030,0.00085,0.00027,0.00050,0.00030,0.00046,0.00032,0.00028,0.00023,0.00029,0.00052,0.00027,0.00029
5.12500,0.19512,0.00078,0.00256,0.00036,0.00024,0.00001,0.00055,0.00048,0.00079,0.00042,0.00041,0.00088,0.00067,0.00054,0.00045,0.00024,0.00083,0.00082,0.00053,0.00105,0.00135,0.00091,0.00065,0.00041,0.00046,0.00092,0.00083,0.00078,0.00039,0.00046,0.00050,0.00086,0.00114,0.00064,0.00136,0.00072,0.00070,0.00105,0.00065,0.00065,0.00080,0.00070,0.00084,0.00054,0.00082,0.00089,0.00075,0.00135,0.00018,0.00061,0.00027,0.00026,0.00069,0.00035,0.00277,0.00023,0.00097,0.00032,0.00037,0.00161,0.00050,0.00008,0.00050,0.00032,0.00030,0.00085,0.00027,0.00050,0.00030,0.00045,0.00032,0.00028,0.00023,0.00029,0.00052,0.00027,0.00029
5.16667,0.19355,0.00078,0.00255,0.00036,0.00023,0.00001,0.00055,0.00049,0.00078,0.00042,0.00041,0.00087,0.00067,0.00054,0.00045,0.00023,0.00082,0.00083,0.00053,0.00105,0.00135,0.00091,0.00064,0.00041,0.00046,0.00091,0.00083,0.00078,0.00039,0.00046,0.00049,0.00086,0.00106,0.00064,0.00135,0.00071,0.00070,0.00104,0.00064,0.00064,0.00080,0.00069,0.00084,0.00054,0.00081,0.00090,0.00075,0.00135,0.00018,0.00061,0.00027,0.00026,0.00069,0.00035,0.00278,0.00022,0.00096,0.00031,0.00036,0.00160,0.00050,0.00009,0.00050,0.00032,0.00030,0.00085,0.00027,0.00049,0.00030,0.00045,0.00032,0.00028,0.00023,0.00029,0.00052,0.00027,0.00029
5.20833,0.19200,0.00078,0.00254,0.00036,0.00023,0.00001,0.00055,0.00049,0.00078,0.00042,0.00041,0.00087,0.00067,0.00054,0.00045,0.00023,0.00082,0.00083,0.00053,0.00104,0.00135,0.00090,0.00064,0.00041,0.00045,0.00091,0.00083,0.00078,0.00039,0.00046,0.00049,0.00086,0.00098,0.00064,0.00133,0.00071,0.00070,0.00104,0.00064,0.00064,0.00080,0.00069,0.00084,0.00053,0.00081,0.00090,0.00075,0.00135,0.00018,0.00061,0.00027,0.00026,0.00068,0.00035,0.00278,0.00022,0.00096,0.00031,0.00036,0.00158,0.00050,0.00009,0.00050,0.00032,0.00030,0.00085,0.00027,0.00049,0.00030,0.00045,0.00032,0.00028,0.00023,0.00029,0.00052,0.00027,0.00029
5.25000,0.19048,0.00078,0.00253,0.00036,0.00023,0.00001,0.00055,0.00049,0.00078,0.00041,0.00041,0.00087,0.00067,0.00054,0.00044,0.00023,0.00082,0.00083,0.00054,0.00104,0.00134,0.00090,0.00064,0.00041,0.00044,0.00091,0.00083,0.00078,0.00039,0.00046,0.00049,0.00086,0.00091,0.00063,0.00132,0.00071,0.00070,0.00103,0.00063,0.00064,0.00080,0.00069,0.00083,0.00052,0.00081,0.00091,0.00075,0.00134,0.00018,0.00061,0.00026,0.00026,0.00068,0.00035,0.00278,0.00021,0.00095,0.00031,0.00036,0.00157,0.00050,0.00009,0.00051,0.00032,0.00030,0.00085,0.00026,0.00049,0.00030,0.00045,0.00033,0.00028,0.00023,0.00029,0.00052,0.00027,0.00029
5.29167,0.18898,0.00078,0.00252,0.00035,0.00023,0.00001,0.00055,0.00049,0.00078,0.00041,0.00041,0.00087,0.00067,0.00054,0.00044,0.00023,0.00081,0.00084,0.00054,0.00104,0.00134,0.00090,0.00064,0.00041,0.00044,0.00091,0.00083,0.00078,0.00039,0.00046,0.00049,0.00086,0.00085,0.00063,0.00130,0.00070,0.00070,0.00103,0.00063,0.00064,0.00080,0.00069,0.00083,0.00051,0.00081,0.00092,0.00075,0.00133,0.00018,0.00061,0.00026,0.00025,0.00068,0.00035,0.00279,0.00021,0.00094,0.00031,0.00036,0.00156,0.00050,0.00009,0.00051,0.00032,0.00029,0.00085,0.00026,0.00049,0.00030,0.00045,0.00033,0.00028,0.00023,0.00029,0.00051,0.00027,0.00029
5.33333,0.18750,0.00078,0.00251,0.00035,0.00023,0.00001,0.00055,0.00050,0.00078,0.00041,0.00041,0.00087,0.00067,0.00055,0.00044,0.00023,0.00081,0.00084,0.00055,0.00104,0.00133,0.00090,0.00064,0.00040,0.00043,0.00090,0.00084,0.00078,0.00039,0.00046,0.00049,0.00085,0.00080,0.00063,0.00129,0.00070,0.00070,0.00102,0.00062,0.00064,0.00080,0.00069,0.00083,0.00050,0.00081,0.00093,0.00075,0.00132,0.00018,0.00061,0.00026,0.00025,0.00068,0.00035,0.00279,0.00020,0.00094,0.00031,0.00035,0.00155,0.00050,0.00010,0.00050,0.00032,0.00029,0.00084,0.00026,0.00049,0.00030,0.00045,0.00033,0.00028,0.00023,0.00029,0.00051,0.00027,0.00029
5.37500,0.18605,0.00078,0.00251,0.00035,0.00022,0.00001,0.00055,0.00050,0.00078,0.00040,0.00041,0.00087,0.00067,0.00055,0.00044,0.00023,0.00081,0.00085,0.00055,0.00104,0.00133,0.00090,0.00063,0.00040,0.00043,0.00090,0.00084,0.00078,0.00039,0.00046,0.00049,0.00085,0.00075,0.00063,0.00127,0.00070,0.00070,0.00102,0.00062,0.00064,0.00080,0.00068,0.00083,0.00050,0.00080,0.00093,0.00075,0.00131,0.00017,0.00061,0.00026,0.00025,0.00068,0.00035,0.00280,0.00020,0.00093,0.00031,0.00035,0.00154,0.00050,0.00010,0.00050,0.00032,0.00029,0.00084,0.00026,0.00049,0.00029,0.00045,0.00033,0.00028,0.00023,0.00029,0.00051,0.00027,0.00028
5.41667,0.18462,0.00078,0.00250,0.00035,0.00022,0.00001,0.00055,0.00050,0.00078,0.00040,0.00041,0.00087,0.00067,0.00055,0.00044,0.00023,0.00081,0.00085,0.00056,0.00104,0.00133,0.00089,0.00063,0.00040,0.00042,0.00090,0.00084,0.00078,0.00039,0.00046,0.00049,0.00085,0.00071,0.00063,0.00125,0.00069,0.00070,0.00102,0.00062,0.00064,0.00080,0.00068,0.00083,0.00049,0.00080,0.00094,0.00075,0.00130,0.00017,0.00061,0.00026,0.00025,0.00068,0.00035,0.00281,0.00020,0.00093,0.00031,0.00035,0.00153,0.00050,0.00010,0.00050,0.00032,0.00029,0.00084,0.00026,0.00049,0.00029,0.00045,0.00033,0.00028,0.00023,0.00029,0.00051,0.00027,0.00028
5.45833,0.18321,0.00077,0.00250,0.00035,0.00022,0.00001,0.00055,0.00051,0.00078,0.00039,0.00040,0.00087,0.00067,0.00056,0.00044,0.00023,0.00081,0.00086,0.00057,0.00104,0.00133,0.00089,0.00063,0.00040,0.00042,0.00090,0.00084,0.00078,0.00039,0.00046,0.00049,0.00085,0.00067,0.00063,0.00123,0.00069,0.00070,0.00101,0.00061,0.00065,0.00080,0.00068,0.00083,0.00048,0.00080,0.00095,0.00075,0.00129,0.00017,0.00061,0.00026,0.00025,0.00068,0.00035,0.00282,0.00019,0.00092,0.00031,0.00035,0.00153,0.00049,0.00010,0.00050,0.00032,0.00029,0.00084,0.00027,0.00049,0.00029,0.00045,0.00033,0.00028,0.00023,0.00029,0.00051,0.00027,0.00028
5.50000,0.18182,0.00077,0.00250,0.00035,0.00022,0.00001,0.00055,0.00051,0.00078,0.00039,0.00040,0.00087,0.00067,0.00057,0.00044,0.00023,0.00081,0.00086,0.00058,0.00104,0.00132,0.00089,0.00063,0.00039,0.00041,0.00090,0.00084,0.00078,0.00039,0.00046,0.00049,0.00085,0.00064,0.00064,0.00122,0.00069,0.00070,0.00101,0.00061,0.00065,0.00080,0.00068,0.00083,0.00048,0.00080,0.00096,0.00075,0.00128,0.00017,0.00061,0.00026,0.00025,0.00068,0.00035,0.00283,0.00019,0.00092,0.00031,0.00035,0.00152,0.00049,0.00010,0.00050,0.00032,0.00029,0.00084,0.00027,0.00049,0.00028,0.00045,0.00033,0.00028,0.00023,0.00029,0.00051,0.00027,0.00028
5.54167,0.18045,0.00077,0.00249,0.00035,0.00022,0.00001,0.00055,0.00052,0.00078,0.00038,0.00040,0.00086,0.00067,0.00057,0.00044,0.00023,0.00082,0.00087,0.00059,0.00104,0.00132,0.00089,0.00063,0.00039,0.00041,0.00090,0.00084,0.00078,0.00039,0.00046,0.00049,0.00085,0.00062,0.00064,0.00120,0.00069,0.00069,0.00101,0.00061,0.00065,0.00080,0.00068,0.00082,0.00048,0.00080,0.00097,0.00075,0.00126,0.00017,0.00061,0.00026,0.00025,0.00067,0.00035,0.00284,0.00019,0.00092,0.00031,0.00035,0.00151,0.00049,0.00010,0.00050,0.00032,0.00029,0.00084,0.00027,0.00049,0.00028,0.00044,0.00033,0.00028,0.00023,0.00029,0.00050,0.00027,0.00028
5.58333,0.17910,0.00077,0.00249,0.00035,0.00022,0.00001,0.00054,0.00052,0.00077,0.00038,0.00040,0.00086,0.00067,0.00058,0.00044,0.00023,0.00082,0.00088,0.00060,0.00104,0.00132,0.00089,0.00063,0.00039,0.00040,0.00090,0.00084,0.00078,0.00039,0.00046,0.00049,0.00085,0.00059,0.00064,0.00119,0.00069,0.00069,0.00101,0.00061,0.00065,0.00080,0.00068,0.00082,0.00047,0.00079,0.00097,0.00075,0.00125,0.00016,0.00061,0.00026,0.00025,0.00067,0.00035,0.00285,0.00019,0.00091,0.00031,0.00035,0.00151,0.00048,0.00010,0.00050,0.00032,0.00029,0.00084,0.00027,0.00049,0.00028,0.00044,0.00033,0.00028,0.00023,0.00029,0.00050,0.00027,0.00028
5.62500,0.17778,0.00077,0.00249,0.00035,0.00022,0.00001,0.00054,0.00052,0.00077,0.00037,0.00040,0.00086,0.00067,0.00059,0.00044,0.00022,0.00082,0.00088,0.00061,0.00104,0.00132,0.00088,0.00063,0.00039,0.00040,0.00090,0.00084,0.00078,0.00039,0.00046,0.00049,0.00085,0.00058,0.00065,0.00117,0.00069,0.00069,0.00100,0.00061,0.00065,0.00081,0.00068,0.00082,0.00047,0.00079,0.00098,0.00075,0.00124,0.00016,0.00061,0.00026,0.00025,0.00067,0.00035,0.00286,0.00018,0.00091,0.00031,0.00035,0.00151,0.00048,0.00010,0.00050,0.00032,0.00029,0.00084,0.00027,0.00049,0.00027,0.00044,0.00034,0.00028,0.00023,0.00029,0.00050,0.00027,0.00027
5.66667,0.17647,0.00076,0.00249,0.00035,0.00022,0.00001,0.00054,0.00053,0.00077,0.00037,0.00040,0.00086,0.00067,0.00059,0.00044,0.00022,0.00082,0.00089,0.00063,0.00105,0.00132,0.00088,0.00063,0.00039,0.00039,0.00091,0.00084,0.00078,0.00039,0.00046,0.00049,0.00085,0.00056,0.00065,0.00116,0.00068,0.00069,0.00100,0.00061,0.00066,0.00081,0.00068,0.00082,0.00047,0.00079,0.00099,0.00075,0.00123,0.00016,0.00061,0.00026,0.00025,0.00067,0.00035,0.00287,0.00018,0.00091,0.00031,0.00034,0.00150,0.00047,0.00010,0.00050,0.00032,0.00029,0.00084,0.00027,0.00049,0.00027,0.00044,0.00034,0.00028,0.00024,0.00029,0.00050,0.00027,0.00027
5.70833,0.17518,0.00076,0.00249,0.00034,0.00022,0.00001,0.00055,0.00053,0.00077,0.00037,0.00039,0.00086,0.00067,0.00060,0.00044,0.00022,0.00082,0.00089,0.00064,0.00105,0.00131,0.00088,0.00063,0.00039,0.00039,0.00091,0.00083,0.00078,0.00040,0.00047,0.00049,0.00085,0.00054,0.00065,0.00115,0.00068,0.00069,0.00100,0.00060,0.00066,0.00081,0.00068,0.00082,0.00046,0.00079,0.00099,0.00075,0.00122,0.00016,0.00061,0.00026,0.00026,0.00067,0.00035,0.00287,0.00018,0.00091,0.00032,0.00034,0.00150,0.00047,0.00010,0.00050,0.00032,0.00029,0.00084,0.00027,0.00049,0.00027,0.00044,0.00034,0.00028,0.00024,0.00030,0.00050,0.00027,0.00027
5.75000,0.17391,0.00076,0.00249,0.00034,0.00022,0.00001,0.00055,0.00053,0.00077,0.00036,0.00039,0.00086,0.00067,0.00061,0.00044,0.00022,0.00083,0.00090,0.00065,0.00105,0.00131,0.00088,0.00063,0.00038,0.00039,0.00091,0.00083,0.00078,0.00040,0.00047,0.00049,0.00085,0.00053,0.00066,0.00114,0.00068,0.00069,0.00100,0.00060,0.00066,0.00081,0.00068,0.00082,0.00046,0.00079,0.00100,0.00075,0.00121,0.00015,0.00061,0.00026,0.00026,0.00067,0.00035,0.00288,0.00018,0.00091,0.00032,0.00034,0.00150,0.00046,0.00010,0.00050,0.00032,0.00029,0.00084,0.00027,0.00049,0.00027,0.00044,0.00034,0.00028,0.00024,0.00030,0.00050,0.00027,0.00027
5.79167,0.17266,0.00076,0.00249,0.00034,0.00021,0.00001,0.00055,0.00054,0.00077,0.00036,0.00039,0.00086,0.00067,0.00061,0.00044,0.00022,0.00083,0.00090,0.00066,0.00105,0.00131,0.00088,0.00063,0.00038,0.00039,0.00091,0.00083,0.00078,0.00040,0.00047,0.00049,0.00084,0.00052,0.00066,0.00113,0.00068,0.00069,0.00100,0.00060,0.00067,0.00082,0.00068,0.00082,0.00046,0.00079,0.00100,0.00075,0.00120,0.00015,0.00061,0.00025,0.00026,0.00067,0.00035,0.00289,0.00018,0.00091,0.00032,0.00034,0.00150,0.00046,0.00010,0.00050,0.00032,0.00029,0.00084,0.00028,0.00049,0.00026,0.00044,0.00034,0.00028,0.00024,0.00030,0.00050,0.00027,0.00027
5.83333,0.17143,0.00076,0.00249,0.00034,0.00021,0.00001,0.00055,0.00054,0.00077,0.00036,0.00039,0.00086,0.00067,0.00062,0.00044,0.00022,0.00083,0.00091,0.00067,0.00105,0.00131,0.00088,0.00063,0.00038,0.00038,0.00091,0.00083,0.00078,0.00040,0.00047,0.00049,0.00084,0.00052,0.00066,0.00113,0.00068,0.00069,0.00100,0.00060,0.00067,0.00082,0.00068,0.00082,0.00046,0.00079,0.00101,0.00076,0.00119,0.00015,0.00061,0.00025,0.00026,0.00067,0.00035,0.00290,0.00018,0.00090,0.00032,0.00034,0.00150,0.00046,0.00010,0.00050,0.00032,0.00029,0.00084,0.00028,0.00049,0.00026,0.00044,0.00034,0.00028,0.00024,0.00030,0.00049,0.00027,0.00027
5.87500,0.17021,0.00076,0.00249,0.00034,0.00021,0.00001,0.00055,0.00054,0.00077,0.00036,0.00039,0.00086,0.00067,0.00063,0.00044,0.00022,0.00083,0.00091,0.00067,0.00105,0.00131,0.00088,0.00063,0.00038,0.00038,0.00091,0.00083,0.00078,0.00040,0.00047,0.00049,0.00084,0.00051,0.00067,0.00112,0.00068,0.00069,0.00100,0.00060,0.00067,0.00082,0.00068,0.00082,0.00046,0.00079,0.00101,0.00076,0.00119,0.00015,0.00061,0.00025,0.00026,0.00067,0.00035,0.00290,0.00018,0.00090,0.00032,0.00034,0.00150,0.00045,0.00010,0.00050,0.00032,0.00029,0.00084,0.00028,0.00049,0.00026,0.00044,0.00034,0.00028,0.00024,0.00030,0.00049,0.00027,0.00027
5.91667,0.16901,0.00076,0.00249,0.00034,0.00021,0.00001,0.00055,0.00054,0.00077,0.00036,0.00039,0.00086,0.00067,0.00063,0.00044,0.00022,0.00083,0.00091,0.00068,0.00106,0.00131,0.00088,0.00063,0.00038,0.00038,0.00092,0.00083,0.00078,0.00040,0.00047,0.00049,0.00084,0.00050,0.00067,0.00112,0.00068,0.00069,0.00100,0.00060,0.00067,0.00082,0.00068,0.00082,0.00045,0.00079,0.00101,0.00076,0.00118,0.00015,0.00061,0.00025,0.00026,0.00067,0.00035,0.00291,0.00018,0.00090,0.00032,0.00034,0.00150,0.00045,0.00010,0.00050,0.00032,0.00029,0.00084,0.00028,0.00049,0.00026,0.00044,0.00034,0.00028,0.00024,0.00030,0.00049,0.00027,0.00027
5.95833,0.16783,0.00076,0.00249,0.00034,0.00021,0.00001,0.00055,0.00054,0.00077,0.00036,0.00039,0.00086,0.00067,0.00063,0.00044,0.00022,0.00083,0.00091,0.00068,0.00106,0.00131,0.00088,0.00063,0.00038,0.00038,0.00092,0.00083,0.00077,0.00040,0.00047,0.00049,0.00084,0.00050,0.00067,0.00111,0.00068,0.00069,0.00100,0.00060,0.00067,0.00082,0.00068,0.00082,0.00045,0.00079,0.00101,0.00076,0.00118,0.00015,0.00061,0.00025,0.00026,0.00067,0.00035,0.00291,0.00017,0.00090,0.00032,0.00034,0.00150,0.00045,0.00010,0.00050,0.00032,0.00029,0.00084,0.00028,0.00049,0.00026,0.00044,0.00034,0.00028,0.00024,0.00030,0.00049,0.00027,0.00027
6.00000,0.16667,0.00000,0.00000,0.00000,0.00000,0.00000,0.00000,0.00000,0.00000,0.00000,0.00000,0.00000,0.00000,0.00000,0.00000,0.00000,0.00000,0.00000,0.00000,0.00000,0.00000,0.00000,0.00000,0.00000,0.00000,0.00000,0.00000,0.00000,0.00000,0.00000,0.00000,0.00000,0.00000,0.00000,0.00000,0.00000,0.00000,0.00000,0.00000,0.00000,0.00000,0.00000,0.00000,0.00000,0.00000,0.00000,0.00000,0.00000,0.00000,0.00000,0.00000,0.00000,0.00000,0.00000,0.00000,0.00000,0.00000,0.00000,0.00000,0.00000,0.00000,0.00000,0.00000,0.00000,0.00000,0.00000,0.00000,0.00000,0.00000,0.00000,0.00000,0.00000,0.00000,0.00000,0.00000,0.00000,0.00000
