Spectral Frequency (1/hr),Spectral Period (hr),VAV_301.SupplyAirTemp,VAV_302.SupplyAirTemp,VAV_303.SupplyAirTemp,VAV_304.SupplyAirTemp,VAV_305.SupplyAirTemp,VAV_306.SupplyAirTemp,VAV_308.SupplyAirTemp,VAV_309.SupplyAirTemp,VAV_310.SupplyAirTemp,VAV_311.SupplyAirTemp,VAV_312.SupplyAirTemp,VAV_313.SupplyAirTemp,VAV_314.SupplyAirTemp,VAV_315.SupplyAirTemp,VAV_316.SupplyAirTemp,VAV_401.SupplyAirTemp,VAV_402.SupplyAirTemp,VAV_403.SupplyAirTemp,VAV_404.SupplyAirTemp,VAV_405.SupplyAirTemp,VAV_406.SupplyAirTemp,VAV_407.SupplyAirTemp,VAV_408.SupplyAirTemp,VAV_409.SupplyAirTemp,VAV_410.SupplyAirTemp,VAV_411.SupplyAirTemp,VAV_412.SupplyAirTemp,VAV_413.SupplyAirTemp,VAV_415.SupplyAirTemp,VAV_416.SupplyAirTemp,VAV_417.SupplyAirTemp,VAV_418.SupplyAirTemp,VAV_419.SupplyAirTemp,VAV_420.SupplyAirTemp,VAV_421.SupplyAirTemp,VAV_101.SupplyAirTemp,VAV_102.SupplyAirTemp,VAV_103.SupplyAirTemp,VAV_104.SupplyAirTemp,VAV_105.SupplyAirTemp,VAV_106.SupplyAirTemp,VAV_107.SupplyAirTemp,VAV_108.SupplyAirTemp,VAV_110.SupplyAirTemp,VAV_111.SupplyAirTemp,VAV_112.SupplyAirTemp,VAV_113.SupplyAirTemp,VAV_114.SupplyAirTemp,VAV_115.SupplyAirTemp,VAV_116.SupplyAirTemp,VAV_117.SupplyAirTemp,VAV_118.SupplyAirTemp,VAV_119.SupplyAirTemp,VAV_120.SupplyAirTemp,VAV_121.SupplyAirTemp,VAV_122.SupplyAirTemp,VAV_123.SupplyAirTemp,VAV_124.SupplyAirTemp,VAV_125.SupplyAirTemp,VAV_126.SupplyAirTemp,VAV_127.SupplyAirTemp,VAV_201.SupplyAirTemp,VAV_202.SupplyAirTemp,VAV_203.SupplyAirTemp,VAV_204.SupplyAirTemp,VAV_205.SupplyAirTemp,VAV_206.SupplyAirTemp,VAV_208.SupplyAirTemp,VAV_209.SupplyAirTemp,VAV_210.SupplyAirTemp,VAV_211.SupplyAirTemp,VAV_212.SupplyAirTemp,VAV_213.SupplyAirTemp,VAV_214.SupplyAirTemp,VAV_215.SupplyAirTemp,VAV_216.SupplyAirTemp
mean ,0.00000,65.76631,72.22901,73.24341,79.94898,76.92466,65.40177,60.97975,62.40999,71.75345,64.38863,63.65402,192.42163,65.07510,89.33309,71.82912,68.19652,74.72323,71.84696,73.28212,61.14222,76.78559,82.47964,65.91360,83.44456,157.54598,73.57780,89.55716,63.77082,75.28143,77.59739,61.23488,89.67084,66.60171,71.09630,79.42833,86.97942,74.54284,67.64193,68.15623,65.42503,73.98560,65.03237,72.24161,175.89967,91.11038,87.65863,64.18391,69.06030,62.32903,102.72491,193.02568,81.92989,60.95935,66.50271,65.99825,65.47342,60.99322,63.65593,92.23134,60.64003,77.99455,87.83729,91.77480,69.84218,94.94396,71.70325,85.19165,64.07273,77.65393,95.32886,60.27960,61.82640,68.07034,63.85959,74.94570,276.19031
day ,24.00000,6.10149,1.67015,2.76086,4.97981,0.60425,4.44866,2.34002,1.04041,11.05701,1.66353,3.02214,23.68651,2.72550,13.15551,5.02635,7.96404,3.84832,3.11505,10.39449,4.52878,11.29926,5.53260,4.11052,9.29985,21.08232,9.85664,9.42704,5.51921,2.45225,15.79282,1.27668,3.23820,3.23880,6.98557,12.97991,8.19868,1.44157,4.94339,8.67136,6.26404,2.14061,4.35178,2.80150,42.53111,7.57464,8.65803,5.03734,2.96821,3.26655,6.27520,51.39939,6.19244,2.48329,5.27340,9.31399,10.15876,2.66415,5.32256,9.32299,3.35336,2.55014,3.96358,5.04568,1.42707,23.76731,3.45186,8.66023,2.99601,3.66148,3.95056,0.44758,0.79102,1.54904,0.63033,9.73400,86.16070
week,168.00000,  null,  null,  null,  null,  null,  null,  null,  null,  null,  null,  null,  null,  null,  null,  null,  null,  null,  null,  null,  null,  null,  null,  null,  null,  null,  null,  null,  null,  null,  null,  null,  null,  null,  null,  null,  null,  null,  null,  null,  null,  null,  null,  null,  null,  null,  null,  null,  null,  null,  null,  null,  null,  null,  null,  null,  null,  null,  null,  null,  null,  null,  null,  null,  null,  null,  null,  null,  null,  null,  null,  null,  null,  null,  null,  null,  null
0.04167,24.00000,6.10149,1.67015,2.76086,4.97981,0.60425,4.44866,2.34002,1.04041,11.05701,1.66353,3.02214,23.68651,2.72550,13.15551,5.02635,7.96404,3.84832,3.11505,10.39449,4.52878,11.29926,5.53260,4.11052,9.29985,21.08232,9.85664,9.42704,5.51921,2.45225,15.79282,1.27668,3.23820,3.23880,6.98557,12.97991,8.19868,1.44157,4.94339,8.67136,6.26404,2.14061,4.35178,2.80150,42.53111,7.57464,8.65803,5.03734,2.96821,3.26655,6.27520,51.39939,6.19244,2.48329,5.27340,9.31399,10.15876,2.66415,5.32256,9.32299,3.35336,2.55014,3.96358,5.04568,1.42707,23.76731,3.45186,8.66023,2.99601,3.66148,3.95056,0.44758,0.79102,1.54904,0.63033,9.73400,86.16070
0.08333,12.00000,3.32287,1.56587,2.80312,4.31427,0.23661,3.56521,1.93664,1.11578,4.31443,1.34301,2.23429,26.87222,1.81437,1.61854,3.07195,2.97336,1.22165,3.70408,4.41887,3.44745,9.48004,3.99646,8.14424,1.68299,5.85229,8.12102,6.79440,4.21654,8.57077,1.42575,1.68136,4.32136,0.56835,3.20828,5.02397,5.04972,3.93020,2.53030,1.75306,3.50029,3.12413,1.41431,3.34078,72.61872,5.93912,8.46597,3.53498,4.84505,0.86177,6.03049,27.08087,4.09473,1.61861,3.15218,6.17401,4.94125,1.88097,2.55207,5.02868,2.36337,5.68004,3.36271,11.39354,5.29527,14.43941,3.55241,5.79751,4.63571,10.49289,4.15204,0.53606,0.89015,4.08289,1.31780,9.42211,60.00621
0.12500,8.00000,2.98361,1.12709,2.37482,4.77586,0.15544,1.67181,0.86625,0.11149,0.55541,0.62728,0.90793,8.69444,0.49994,1.14709,3.18543,0.98813,3.74043,1.24734,3.40396,1.66067,7.18589,1.90778,6.27281,4.32135,21.07777,4.49244,2.29554,1.80747,4.81853,6.40245,1.31388,3.13282,1.55946,0.79379,2.83909,2.24182,1.38766,1.73650,0.31689,0.44447,2.54146,0.33907,3.50479,32.51532,2.18100,4.56293,5.38987,3.93749,2.27849,2.47933,11.35700,4.73654,0.75191,0.56917,6.44857,2.97268,0.89902,1.57464,3.17148,1.12833,1.10604,3.08729,2.70100,1.45069,8.20781,2.93482,4.16615,2.86524,1.84724,4.19309,0.09616,0.26488,1.82772,0.39862,4.23651,17.82587
0.16667,6.00000,1.66011,0.50179,1.14884,2.71451,0.07996,0.32151,0.44484,0.23431,3.18593,0.30331,0.09966,14.98269,0.77261,3.14056,2.48277,0.58561,1.25953,0.35250,2.30602,0.21204,3.69993,0.11814,4.50311,0.37767,26.46375,1.51390,1.15284,0.10138,2.67291,2.56590,0.50647,2.90324,1.12596,1.01451,0.25163,3.09587,2.12339,1.20391,1.33443,1.84375,1.59822,1.31301,3.04745,27.83874,1.22292,5.19085,0.42264,3.30007,1.44469,2.34297,7.31215,0.84916,0.20774,0.23909,3.46173,1.59787,0.11753,3.26927,0.74787,0.07774,2.05197,0.49781,3.57158,1.33233,8.21722,1.69891,2.62453,0.37302,0.72684,0.80449,0.49972,0.37077,0.58142,0.30375,3.35274,18.78909
0.20833,4.80000,0.34246,1.04788,2.77637,0.88701,0.03721,0.79920,0.68831,0.60286,1.48204,0.12176,0.64876,15.43516,0.21334,2.48276,1.64894,2.72991,2.19977,0.83555,1.39403,0.67003,0.13207,0.89058,2.43645,2.34296,23.43611,3.04528,0.46198,0.75753,1.48846,3.23242,0.51415,1.45816,0.48755,1.34129,2.47318,3.42135,1.06556,0.45520,0.90111,1.21002,1.81061,0.34917,2.34218,41.95104,0.68233,1.27286,3.71605,2.65301,1.80461,3.99135,10.01806,6.68986,0.43872,1.29708,3.28829,1.76561,0.50320,1.61914,1.67158,0.64648,2.80509,1.74425,1.12128,1.53226,9.38961,1.69078,1.19046,1.41524,2.83738,1.55907,0.33257,0.35665,1.05163,0.86646,0.36244,32.72127
0.25000,4.00000,0.59734,1.19606,3.84979,2.78800,0.04259,0.56102,0.65665,0.44567,1.30657,0.59700,0.64837,13.06542,0.32173,1.35871,0.67539,0.10308,1.44566,1.11530,1.58212,0.93170,4.19641,1.07780,3.37402,1.30114,24.24530,2.03186,1.68045,0.73007,2.62897,1.49087,0.06464,1.31961,1.12746,1.06931,1.72541,3.03089,1.26234,1.17212,1.70752,2.52573,1.47939,0.45998,4.10444,22.41211,0.95384,0.92355,2.25308,1.91267,1.95340,3.19048,14.77959,2.54490,0.47883,2.23421,1.16527,2.12122,0.56528,0.17880,3.61967,0.73748,2.39209,1.63708,1.59479,2.62814,9.65934,2.64631,3.74087,1.05062,1.47906,1.80042,0.11744,0.08214,1.27373,0.36258,0.82020,38.06335
0.29167,3.42857,1.01853,1.34929,3.37590,2.52175,0.05413,0.80241,0.40226,0.57727,2.38438,0.75604,0.47797,6.59011,0.75778,2.00319,1.73004,0.79865,0.70812,1.11318,3.68749,0.62696,1.73304,0.74141,1.52427,0.93319,16.34392,1.87018,1.37789,0.59389,2.91741,2.24154,0.20562,1.80445,0.21313,1.05121,2.35922,1.67245,0.10424,1.63845,1.09065,0.65881,2.79907,1.94423,2.54855,8.06958,0.51391,3.53325,0.47660,0.29500,0.91187,0.22490,7.69665,3.85301,0.31950,0.86323,0.87059,1.39449,0.42018,1.04939,1.14178,0.52865,1.51393,3.79992,1.98853,2.11011,6.06483,2.77281,1.99412,1.83188,1.18207,4.39916,0.07593,0.13712,2.04227,0.49379,2.82391,17.27591
0.33333,3.00000,1.29645,1.18597,1.71298,2.25432,0.05590,1.39200,0.37308,0.64214,1.62148,0.46363,0.29190,7.79921,0.45644,1.53633,1.60734,0.88415,1.93362,1.27136,1.54143,0.40101,2.06211,0.51509,1.70977,1.62473,12.77666,1.60714,1.10756,0.63711,1.99520,2.14295,0.42539,1.68345,0.52547,0.83287,2.04272,2.99867,0.87612,0.90584,1.33806,1.05927,1.50822,1.31886,2.28430,17.19603,1.11620,1.89183,1.40748,1.52546,1.05325,2.54798,6.76509,3.00594,0.19579,2.45688,1.80601,1.21512,0.23628,1.45684,2.38094,0.30029,1.81471,2.72441,1.92528,1.76821,5.05187,1.54987,1.86223,1.85390,1.34904,3.66232,0.19426,0.18038,1.60992,0.51174,1.58917,16.30421
0.37500,2.66667,1.21078,1.15668,1.60845,2.14550,0.04958,1.20180,0.30131,0.64475,1.47393,0.42392,0.23980,6.90527,0.42434,1.40241,1.48596,0.81269,1.82777,1.19546,1.41984,0.32583,1.90624,0.42295,1.46539,1.46168,11.55188,1.43292,0.98258,0.57989,1.81275,1.90371,0.38904,1.49686,0.47302,0.74770,1.80666,2.76657,0.80102,0.76342,1.19033,0.94903,1.35467,1.27479,2.02562,15.40818,0.98652,1.68713,1.26689,1.30677,0.91383,2.84309,5.98242,2.84943,0.16181,2.42680,1.55513,1.09132,0.19485,1.28132,2.18781,0.24306,1.65500,2.90276,1.76645,1.69369,4.57722,1.52212,1.66848,1.77358,1.14145,3.84411,0.17652,0.15891,1.46042,0.49603,1.47112,14.80261
0.41667,2.40000,1.15062,1.11947,1.52551,2.07168,0.04451,1.04744,0.24914,0.64705,1.35899,0.39189,0.20183,6.18584,0.40152,1.29969,1.39093,0.75954,1.72735,1.13513,1.32905,0.27075,1.79246,0.35393,1.27063,1.33126,10.56354,1.29309,0.88327,0.53560,1.66442,1.71142,0.36048,1.33888,0.43093,0.68007,1.61724,2.56107,0.74191,0.65340,1.07096,0.86130,1.21308,1.25323,1.78648,13.94114,0.88334,1.52391,1.15056,1.13272,0.79767,3.46763,5.34570,2.72771,0.13662,2.38774,1.35533,0.99057,0.16416,1.13552,2.03510,0.20194,1.51918,3.14816,1.64471,1.64560,4.19758,1.53519,1.51149,1.71210,0.98176,4.03891,0.16134,0.14133,1.32018,0.48673,1.38591,13.61265
0.45833,2.18182,1.11122,1.07598,1.46060,2.02896,0.04036,0.92165,0.21020,0.64888,1.26837,0.36586,0.17345,5.60021,0.38599,1.22016,1.31685,0.72032,1.63504,1.08822,1.26163,0.22932,1.71122,0.30109,1.11423,1.22520,9.75369,1.17864,0.80300,0.50078,1.54238,1.55377,0.33784,1.20592,0.39645,0.62531,1.46293,2.38123,0.69502,0.56747,0.97238,0.79009,1.08670,1.25335,1.57599,12.71620,0.79993,1.39206,1.05225,0.99422,0.70134,4.84066,4.81594,2.63615,0.11755,2.33891,1.19407,0.90598,0.14090,1.01373,1.91338,0.17150,1.40394,3.48832,1.55104,1.62206,3.88899,1.59395,1.38219,1.66795,0.85715,4.23067,0.14818,0.12668,1.19422,0.48254,1.32612,12.65241
0.50000,2.00000,1.08981,1.02847,1.41083,2.01521,0.03690,0.81855,0.18043,0.65009,1.19649,0.34458,0.15178,5.11943,0.37654,1.15852,1.25986,0.69219,1.55263,1.05304,1.21268,0.19745,1.65647,0.25984,0.98761,1.13781,9.08159,1.08346,0.73728,0.47310,1.44098,1.42242,0.31984,1.09433,0.36770,0.58026,1.33576,2.22535,0.65769,0.49957,0.88948,0.73139,0.97628,1.27576,1.39588,11.67772,0.73171,1.28462,0.96753,0.88364,0.62145,7.82828,4.36698,2.57080,0.10283,2.28002,1.06239,0.83294,0.12295,0.91141,1.81585,0.14841,1.30635,3.96306,1.47934,1.62250,3.63481,1.71140,1.27425,1.63984,0.75869,4.39222,0.13662,0.11429,1.08434,0.48198,1.28714,11.86525
0.54167,1.84615,1.08511,0.97933,1.37387,2.02984,0.03397,0.73350,0.15723,0.65054,1.13950,0.32715,0.13495,4.72241,0.37250,1.11111,1.21725,0.67337,1.48113,1.02838,1.17884,0.17246,1.62444,0.22710,0.88428,1.06508,8.51788,1.00328,0.68299,0.45094,1.35607,1.31155,0.30557,1.00081,0.34336,0.54274,1.23007,2.09146,0.62808,0.44535,0.81869,0.68237,0.88108,1.32260,1.24401,10.78545,0.67547,1.19667,0.89322,0.79497,0.55501,6.93458,3.98074,2.52828,0.09129,2.21127,0.95374,0.76831,0.10886,0.82494,1.73751,0.13055,1.22393,4.61911,1.42536,1.64780,3.42312,1.91526,1.18313,1.62678,0.68007,4.48650,0.12634,0.10368,0.99031,0.48318,1.26616,11.21058
0.58333,1.71429,1.09712,0.93071,1.34774,2.07380,0.03147,0.66290,0.13883,0.65013,1.09470,0.31292,0.12169,4.39347,0.37357,1.07537,1.18716,0.66274,1.42108,1.01341,1.15782,0.15256,1.61302,0.20072,0.79936,1.00410,8.04092,0.93499,0.63789,0.43310,1.28458,1.21698,0.29435,0.92248,0.32246,0.51119,1.14174,1.97759,0.60485,0.40165,0.75745,0.64100,0.79962,1.39778,1.11673,10.00973,0.62888,1.12461,0.82699,0.72360,0.49951,3.67978,3.64440,2.50543,0.08214,2.13343,0.86325,0.70997,0.09767,0.75145,1.67454,0.11651,1.15466,5.45489,1.38610,1.70047,3.24522,2.26564,1.10549,1.62806,0.61675,4.47651,0.11712,0.09451,0.91090,0.48381,1.26171,10.65834
0.62500,1.60000,1.12711,0.88429,1.33072,2.14939,0.02930,0.60392,0.12402,0.64878,1.06015,0.30137,0.11114,4.12079,0.37982,1.04948,1.16836,0.65974,1.37272,1.00771,1.14791,0.13649,1.62133,0.17919,0.72911,0.95274,7.63444,0.87632,0.60033,0.41868,1.22416,1.13558,0.28572,0.85693,0.30428,0.48445,1.06769,1.88193,0.58702,0.36615,0.70391,0.60579,0.73022,1.50708,1.01018,9.32833,0.59022,1.06581,0.76716,0.66604,0.45289,2.28029,3.34865,2.49900,0.07482,2.04774,0.78722,0.65653,0.08868,0.68866,1.62394,0.10534,1.09690,6.20132,1.35935,1.78510,3.09462,2.90707,1.03882,1.64315,0.56546,4.34338,0.10877,0.08653,0.84450,0.48126,1.27335,10.18551
0.66667,1.50000,1.17782,0.84124,1.32108,2.26014,0.02741,0.55438,0.11197,0.64647,1.03449,0.29215,0.10267,3.89533,0.39168,1.03212,1.16014,0.66426,1.33621,1.01121,1.14782,0.12335,1.64955,0.16142,0.67069,0.90936,7.28601,0.82553,0.56907,0.40697,1.17304,1.06504,0.27933,0.80221,0.28827,0.46167,1.00559,1.80292,0.57391,0.33713,0.65665,0.57560,0.67120,1.65731,0.92084,8.72430,0.55819,1.01832,0.71250,0.61968,0.41353,1.60123,3.08660,2.50515,0.06893,1.95579,0.72283,0.60713,0.08141,0.63475,1.58321,0.09637,1.04932,6.15555,1.34345,1.90889,2.96635,4.23912,0.98120,1.67160,0.52374,4.09956,0.10117,0.07954,0.78950,0.47319,1.30155,9.77396
0.70833,1.41176,1.25396,0.80226,1.31700,2.40994,0.02575,0.51256,0.10205,0.64323,1.01676,0.28497,0.09585,3.71011,0.41002,1.02232,1.16230,0.67663,1.31175,1.02421,1.15636,0.11251,1.69881,0.14660,0.62192,0.87272,6.98591,0.78129,0.54318,0.39740,1.12985,1.00355,0.27492,0.75669,0.27402,0.44218,0.95367,1.73930,0.56504,0.31333,0.61462,0.54952,0.62108,1.85216,0.84569,8.18458,0.53180,0.98065,0.66214,0.58254,0.38010,1.21649,2.85304,2.51880,0.06418,1.85942,0.66785,0.56127,0.07551,0.58824,1.55019,0.08913,1.01094,5.18315,1.33706,2.08223,2.85657,6.92759,0.93114,1.71279,0.48980,3.78321,0.09423,0.07340,0.74445,0.45842,1.34770,9.40903
0.75000,1.33333,1.36281,0.76769,1.31635,2.60057,0.02428,0.47710,0.09382,0.63910,1.00633,0.27964,0.09034,3.55975,0.43629,1.01940,1.17504,0.69767,1.29979,1.04745,1.17218,0.10349,1.77111,0.13413,0.58111,0.84188,6.72646,0.74256,0.52194,0.38944,1.09351,0.94970,0.27232,0.71911,0.26120,0.42548,0.91058,1.69013,0.56006,0.29378,0.57701,0.52687,0.57855,2.07789,0.78223,7.69895,0.51031,0.95175,0.61545,0.55316,0.35156,0.97521,2.64396,2.53313,0.06036,1.76048,0.62056,0.51871,0.07071,0.54795,1.52292,0.08327,0.98098,4.05045,1.33898,2.31833,2.76229,5.89667,0.88743,1.76551,0.46227,3.43872,0.08788,0.06797,0.70813,0.43749,1.41413,9.07865
0.79167,1.26316,1.51497,0.73765,1.31657,2.82536,0.02297,0.44693,0.08694,0.63419,1.00284,0.27602,0.08590,3.44007,0.47290,1.02281,1.19910,0.72882,1.30108,1.08222,1.19346,0.09594,1.86912,0.12356,0.54692,0.81606,6.50148,0.70851,0.50479,0.38266,1.06321,0.90237,0.27141,0.68843,0.24956,0.41117,0.87526,1.65479,0.55881,0.27772,0.54317,0.50706,0.54250,2.27262,0.72844,7.25937,0.49314,0.93082,0.57201,0.53045,0.32708,0.81347,2.45619,2.53930,0.05731,1.66077,0.57956,0.47931,0.06682,0.51290,1.49949,0.07853,0.95895,3.16373,1.34799,2.62797,2.68110,3.25845,0.84912,1.82742,0.44014,3.10060,0.08207,0.06317,0.67957,0.41244,1.50412,8.77278
0.83333,1.20000,1.72347,0.71207,1.31463,3.05603,0.02180,0.42120,0.08116,0.62862,1.00616,0.27401,0.08234,3.34785,0.52375,1.03216,1.23577,0.77238,1.31688,1.13047,1.21751,0.08958,1.99551,0.11453,0.51831,0.79467,6.30590,0.67847,0.49133,0.37666,1.03830,0.86068,0.27211,0.66384,0.23890,0.39893,0.84696,1.63306,0.56118,0.26461,0.51262,0.48961,0.51202,2.31660,0.68266,6.85942,0.47986,0.91732,0.53153,0.51365,0.30598,0.70010,2.28715,2.52695,0.05491,1.56188,0.54373,0.44303,0.06370,0.48230,1.47806,0.07474,0.94457,2.53064,1.36261,2.99758,2.61111,2.08143,0.81541,1.89418,0.42262,2.78878,0.07677,0.05892,0.65805,0.38587,1.62169,8.48311
0.87500,1.14286,1.99482,0.69083,1.30719,3.22715,0.02075,0.39921,0.07629,0.62254,1.01635,0.27358,0.07951,3.28062,0.59551,1.04707,1.28710,0.83197,1.34909,1.19515,1.24043,0.08420,2.15130,0.10677,0.49447,0.77723,6.13551,0.65189,0.48124,0.37106,1.01829,0.82389,0.27441,0.64472,0.22906,0.38853,0.82510,1.62509,0.56723,0.25399,0.48493,0.47411,0.48634,2.14410,0.64357,6.49395,0.47016,0.91092,0.49380,0.50224,0.28771,0.61832,2.13474,2.48614,0.05308,1.46517,0.51214,0.40979,0.06123,0.45549,1.45680,0.07174,0.93780,2.07914,1.38090,3.33211,2.55076,1.49013,0.78565,1.95867,0.40913,2.51145,0.07193,0.05514,0.64306,0.36008,1.77071,8.20295
0.91667,1.09091,2.29151,0.67373,1.29104,3.24781,0.01980,0.38040,0.07218,0.61611,1.03372,0.27473,0.07731,3.23650,0.70037,1.06720,1.35614,0.91327,1.40048,1.28061,1.25697,0.07966,2.33185,0.10006,0.47473,0.76335,5.98674,0.62831,0.47430,0.36552,1.00281,0.79141,0.27832,0.63058,0.21993,0.37975,0.80933,1.63154,0.57707,0.24551,0.45979,0.46019,0.46484,1.84635,0.61007,6.15878,0.46382,0.91144,0.45868,0.49594,0.27182,0.55840,1.99717,2.41037,0.05176,1.37173,0.48404,0.37953,0.05933,0.43192,1.43397,0.06944,0.93886,1.74992,1.40025,3.41948,2.49881,1.14593,0.75928,2.01064,0.39924,2.26965,0.06753,0.05179,0.63434,0.33666,1.95189,7.92715
0.95833,1.04348,2.45926,0.66059,1.26370,3.07261,0.01894,0.36431,0.06871,0.60948,1.05878,0.27749,0.07563,3.21407,0.86276,1.09207,1.44745,1.02558,1.47484,1.39345,1.26105,0.07581,2.51910,0.09423,0.45857,0.75270,5.85648,0.60736,0.47036,0.35978,0.99158,0.76274,0.28387,0.62109,0.21142,0.37244,0.79946,1.65365,0.59098,0.23890,0.43693,0.44753,0.44698,1.54702,0.58126,5.85048,0.46071,0.91884,0.42606,0.49465,0.25796,0.51442,1.87292,2.29939,0.05090,1.28236,0.45880,0.35211,0.05795,0.41115,1.40801,0.06777,0.94827,1.50365,1.41722,3.13581,2.45426,0.92477,0.73582,2.03785,0.39262,2.06090,0.06353,0.04881,0.63185,0.31641,2.15557,7.65210
1.00000,1.00000,2.31042,0.65124,1.22413,2.75708,0.01816,0.35057,0.06579,0.60280,1.09229,0.28196,0.07439,3.21218,1.13937,1.12106,1.56784,1.18462,1.57703,1.54383,1.24722,0.07256,2.67235,0.08915,0.44555,0.74501,5.74203,0.58872,0.46933,0.35360,0.98445,0.73746,0.29115,0.61601,0.20344,0.36647,0.79551,1.69340,0.60931,0.23393,0.41611,0.43583,0.43235,1.29902,0.55641,5.56621,0.46075,0.93315,0.39583,0.49851,0.24581,0.48264,1.76063,2.15984,0.05049,1.19763,0.43587,0.32739,0.05704,0.39279,1.37769,0.06666,0.96694,1.31510,1.42764,2.65339,2.41630,0.77283,0.71483,2.02947,0.38906,1.88139,0.05992,0.04617,0.63581,0.29966,2.34871,7.37569
1.04167,0.96000,1.93402,0.64551,1.17313,2.40126,0.01745,0.33886,0.06335,0.59619,1.13527,0.28828,0.07353,3.22979,1.69460,1.15327,1.72778,1.41838,1.71216,1.74811,1.21261,0.06982,2.73154,0.08470,0.43532,0.74005,5.64091,0.57211,0.47117,0.34684,0.98130,0.71524,0.30028,0.61519,0.19596,0.36176,0.79767,1.75382,0.63259,0.23040,0.39716,0.42483,0.42056,1.10666,0.53490,5.30362,0.46395,0.95440,0.36790,0.50788,0.23513,0.46073,1.65914,2.00286,0.05049,1.11788,0.41480,0.30520,0.05658,0.37650,1.34228,0.06609,0.99629,1.16788,1.42705,2.18629,2.38428,0.66341,0.69594,1.98068,0.38839,1.72709,0.05667,0.04382,0.64675,0.28638,2.46696,7.09720
1.08333,0.92308,1.55130,0.64326,1.11315,2.07285,0.01680,0.32889,0.06131,0.58978,1.18903,0.29663,0.07297,3.26574,3.20319,1.18747,1.94375,1.77793,1.88229,2.03377,1.15843,0.06754,2.65298,0.08080,0.42758,0.73759,5.55086,0.55730,0.47590,0.33944,0.98212,0.69577,0.31140,0.61856,0.18893,0.35821,0.80639,1.83934,0.66146,0.22815,0.37991,0.41426,0.41129,0.95971,0.51617,5.06071,0.47035,0.98249,0.34217,0.52337,0.22571,0.44726,1.56740,1.84030,0.05092,1.04330,0.39523,0.28534,0.05656,0.36202,1.30162,0.06604,1.03843,1.05108,1.41158,1.81091,2.35768,0.58186,0.67880,1.89535,0.39052,1.59423,0.05374,0.04174,0.66553,0.27639,2.44455,6.81712
1.12500,0.88889,1.24920,0.64434,1.04761,1.79593,0.01620,0.32045,0.05965,0.58366,1.25519,0.30727,0.07265,3.31841,5.91901,1.22199,2.24281,2.34563,2.07638,2.44942,1.08959,0.06566,2.45220,0.07736,0.42203,0.73743,5.46976,0.54409,0.48356,0.33142,0.98696,0.67881,0.32468,0.62609,0.18232,0.35579,0.82241,1.95644,0.69680,0.22700,0.36421,0.40391,0.40425,0.84707,0.49978,4.83575,0.48003,1.01697,0.31852,0.54595,0.21735,0.44151,1.48448,1.68184,0.05177,0.97390,0.37683,0.26763,0.05697,0.34911,1.25613,0.06650,1.09653,0.95724,1.37914,1.52528,2.33612,0.51956,0.66310,1.78436,0.39535,1.47954,0.05112,0.03991,0.69355,0.26941,2.27890,6.53686
1.16667,0.85714,1.02569,0.64858,0.98005,1.57089,0.01564,0.31331,0.05833,0.57789,1.33556,0.32054,0.07251,3.38523,2.65581,1.25474,2.67072,3.11230,2.24938,3.08433,1.01282,0.06415,2.19121,0.07432,0.41841,0.73933,5.39560,0.53229,0.49422,0.32287,0.99595,0.66413,0.34030,0.63779,0.17611,0.35444,0.84684,2.11453,0.73964,0.22678,0.34995,0.39359,0.39914,0.75998,0.48530,4.62729,0.49306,1.05666,0.29685,0.57695,0.20992,0.44337,1.40952,1.53378,0.05305,0.90961,0.35937,0.25187,0.05782,0.33755,1.20673,0.06748,1.17538,0.88112,1.33013,1.30925,2.31930,0.47111,0.64854,1.66087,0.40277,1.38023,0.04879,0.03829,0.73282,0.26510,2.03618,6.25845
1.20833,0.82759,0.86064,0.65579,0.91348,1.39006,0.01513,0.30728,0.05731,0.57254,1.43197,0.33689,0.07246,3.46207,1.52973,1.28337,3.30454,3.35176,2.30973,4.09113,0.93444,0.06296,1.92811,0.07163,0.41643,0.74304,5.32645,0.52176,0.50795,0.31395,1.00928,0.65154,0.35844,0.65361,0.17029,0.35416,0.88138,2.32714,0.79121,0.22728,0.33702,0.38313,0.39566,0.69203,0.47238,4.43402,0.50944,1.09917,0.27703,0.61816,0.20326,0.45332,1.34179,1.39932,0.05475,0.85027,0.34264,0.23788,0.05913,0.32717,1.15468,0.06898,1.28230,0.81900,1.26751,1.14417,2.30699,0.43297,0.63485,1.53610,0.41261,1.29397,0.04671,0.03688,0.78629,0.26299,1.78605,5.98419
1.25000,0.80000,0.73670,0.66568,0.85009,1.24471,0.01465,0.30218,0.05657,0.56761,1.54563,0.35684,0.07242,3.54258,1.07463,1.30551,4.24960,2.62447,2.18268,5.53858,0.85909,0.06207,1.69332,0.06926,0.41575,0.74828,5.26046,0.51234,0.52473,0.30483,1.02721,0.64088,0.37919,0.67339,0.16483,0.35495,0.92851,2.61282,0.85286,0.22824,0.32531,0.37241,0.39346,0.63866,0.46066,4.25480,0.52904,1.14031,0.25894,0.67170,0.19726,0.47259,1.28059,1.27945,0.05684,0.79567,0.32651,0.22549,0.06090,0.31779,1.10136,0.07103,1.42897,0.76814,1.19583,1.01617,2.29904,0.40275,0.62178,1.41752,0.42452,1.21880,0.04488,0.03565,0.85806,0.26241,1.56450,5.71643
1.29167,0.77419,0.64168,0.67781,0.79125,1.12729,0.01421,0.29783,0.05609,0.56312,1.67578,0.38106,0.07231,3.61754,0.83625,1.31920,5.44800,1.90529,1.91171,6.32342,0.78950,0.06147,1.49545,0.06715,0.41596,0.75468,5.19585,0.50392,0.54446,0.29571,1.05009,0.63198,0.40254,0.69669,0.15973,0.35681,0.99201,2.99295,0.92578,0.22937,0.31475,0.36137,0.39214,0.59664,0.44984,4.08862,0.55140,1.17385,0.24247,0.73957,0.19182,0.50347,1.22532,1.17378,0.05925,0.74555,0.31089,0.21455,0.06317,0.30929,1.04811,0.07362,1.63455,0.72653,1.11999,0.91549,2.29533,0.37880,0.60911,1.30906,0.43788,1.15312,0.04327,0.03458,0.95355,0.26234,1.38082,5.45728
1.33333,0.75000,0.56738,0.69156,0.73760,1.03180,0.01380,0.29404,0.05588,0.55905,1.81714,0.41030,0.07202,3.67501,0.69249,1.32324,5.95515,1.44180,1.60764,5.16116,0.72691,0.06113,1.33272,0.06528,0.41653,0.76183,5.13099,0.49639,0.56680,0.28676,1.07831,0.62469,0.42815,0.72263,0.15498,0.35979,1.07772,3.47485,1.01048,0.23028,0.30525,0.34998,0.39118,0.56362,0.43963,3.93454,0.57551,1.19218,0.22749,0.82172,0.18685,0.54986,1.17542,1.08120,0.06181,0.69965,0.29573,0.20492,0.06592,0.30153,0.99606,0.07672,1.93146,0.69265,1.04422,0.83531,2.29578,0.35995,0.59663,1.21212,0.45163,1.09558,0.04187,0.03368,1.07846,0.26132,1.23246,5.20851
1.37500,0.72727,0.50825,0.70604,0.68930,0.95366,0.01341,0.29064,0.05590,0.55537,1.95606,0.44531,0.07145,3.70152,0.59834,1.31755,4.99644,1.14675,1.33941,3.78081,0.67153,0.06105,1.20000,0.06362,0.41683,0.76921,5.06436,0.48964,0.59105,0.27813,1.11234,0.61886,0.45519,0.74962,0.15056,0.36392,1.19508,3.98873,1.10552,0.23057,0.29675,0.33828,0.38999,0.53787,0.42979,3.79175,0.59957,1.18847,0.21389,0.91142,0.18225,0.61846,1.13039,1.00032,0.06419,0.65768,0.28103,0.19647,0.06912,0.29438,0.94610,0.08025,2.37341,0.66538,0.97159,0.77083,2.30030,0.34535,0.58419,1.12661,0.46417,1.04506,0.04066,0.03292,1.23375,0.25754,1.11362,4.97146
1.41667,0.70588,0.46050,0.72002,0.64623,0.88937,0.01304,0.28745,0.05617,0.55204,2.06757,0.48657,0.07051,3.68497,0.53359,1.30311,3.78302,0.94934,1.12396,2.87226,0.62302,0.06121,1.09182,0.06214,0.41610,0.77623,4.99466,0.48360,0.61596,0.26996,1.15265,0.61435,0.48204,0.77514,0.14647,0.36929,1.36025,4.28046,1.20552,0.22981,0.28919,0.32632,0.38792,0.51815,0.42008,3.65947,0.62075,1.15980,0.20157,0.98725,0.17796,0.72090,1.08978,0.92973,0.06595,0.61937,0.26680,0.18910,0.07265,0.28775,0.89886,0.08402,3.02644,0.64384,0.90396,0.71860,2.30878,0.33442,0.57163,1.05163,0.47336,1.00061,0.03963,0.03230,1.39903,0.24930,1.01848,4.74704
1.45833,0.68571,0.42144,0.73201,0.60804,0.83626,0.01270,0.28426,0.05667,0.54897,2.11966,0.53370,0.06913,3.61847,0.48787,1.28170,2.91534,0.81060,0.95587,2.29719,0.58076,0.06162,1.00347,0.06084,0.41354,0.78225,4.92080,0.47817,0.63961,0.26234,1.19967,0.61099,0.50609,0.79569,0.14268,0.37600,1.60297,4.05755,1.29855,0.22764,0.28250,0.31421,0.38426,0.50346,0.41032,3.53702,0.63542,1.10886,0.19041,1.01257,0.17392,0.87721,1.05319,0.86807,0.06652,0.58445,0.25308,0.18270,0.07627,0.28154,0.85472,0.08767,3.79913,0.62741,0.84227,0.67611,2.32108,0.32674,0.55889,0.98601,0.47688,0.96143,0.03877,0.03181,1.50565,0.23584,0.94223,4.53576
1.50000,0.66667,0.38918,0.74032,0.57435,0.79229,0.01237,0.28092,0.05741,0.54611,2.08983,0.58419,0.06728,3.50319,0.45541,1.25556,2.33896,0.70913,0.82501,1.91640,0.54405,0.06225,0.93112,0.05969,0.40836,0.78658,4.84200,0.47330,0.65944,0.25533,1.25365,0.60858,0.52387,0.80724,0.13920,0.38417,1.98369,3.45274,1.36583,0.22381,0.27665,0.30207,0.37842,0.49306,0.40037,3.42375,0.63988,1.04280,0.18032,0.96367,0.17006,1.11612,1.02024,0.81412,0.06549,0.55266,0.23990,0.17721,0.07959,0.27566,0.81387,0.09065,3.96553,0.61562,0.78677,0.64151,2.33696,0.32204,0.54589,0.92848,0.47286,0.92684,0.03807,0.03144,1.46450,0.21789,0.88108,4.33778
1.54167,0.64865,0.36231,0.74331,0.54472,0.75587,0.01206,0.27724,0.05839,0.54335,1.98260,0.63182,0.06496,3.34825,0.43282,1.22693,1.94611,0.63258,0.72229,1.65196,0.51222,0.06311,0.87178,0.05867,0.39999,0.78859,4.75779,0.46892,0.67254,0.24897,1.31444,0.60692,0.53179,0.80630,0.13599,0.39397,2.64156,2.81456,1.38780,0.21828,0.27158,0.29002,0.36997,0.48629,0.39014,3.31907,0.63177,0.97004,0.17121,0.86020,0.16633,1.42748,0.99059,0.76681,0.06279,0.52374,0.22732,0.17253,0.08202,0.27004,0.77634,0.09231,3.20937,0.60813,0.73730,0.61339,2.35605,0.32016,0.53263,0.87784,0.46067,0.89625,0.03752,0.03119,1.28740,0.19740,0.83212,4.15296
1.58333,0.63158,0.33979,0.73981,0.51874,0.72576,0.01177,0.27308,0.05960,0.54061,1.82658,0.66584,0.06221,3.16762,0.41801,1.19777,1.66769,0.57345,0.64073,1.46126,0.48461,0.06418,0.82313,0.05777,0.38822,0.78772,4.66802,0.46497,0.67646,0.24325,1.38112,0.60577,0.52750,0.79128,0.13306,0.40561,3.93157,2.29657,1.35638,0.21120,0.26725,0.27819,0.35882,0.48259,0.37960,3.22244,0.61130,0.89756,0.16300,0.74227,0.16271,1.56117,0.96394,0.72522,0.05881,0.49748,0.21537,0.16862,0.08295,0.26459,0.74206,0.09203,2.39909,0.60471,0.69348,0.59070,2.37780,0.32106,0.51914,0.83301,0.44126,0.86915,0.03711,0.03106,1.07391,0.17654,0.79315,3.98097
1.62500,0.61538,0.32083,0.72933,0.49603,0.70096,0.01149,0.26834,0.06104,0.53780,1.65454,0.67454,0.05913,2.97600,0.40977,1.16963,1.46339,0.52696,0.57521,1.31996,0.46065,0.06547,0.78338,0.05698,0.37324,0.78363,4.57290,0.46142,0.66997,0.23817,1.45147,0.60483,0.51109,0.76326,0.13037,0.41935,6.21290,1.90600,1.28138,0.20292,0.26363,0.26670,0.34522,0.48138,0.36875,3.13335,0.58118,0.82984,0.15561,0.63537,0.15915,1.29797,0.93998,0.68856,0.05414,0.47366,0.20409,0.16543,0.08196,0.25926,0.71086,0.08960,1.83711,0.60524,0.65483,0.57258,2.40146,0.32480,0.50547,0.79303,0.41681,0.84508,0.03684,0.03104,0.88772,0.15694,0.76247,3.82130
1.66667,0.60000,0.30484,0.71231,0.47623,0.68066,0.01122,0.26295,0.06270,0.53481,1.48908,0.65328,0.05582,2.78560,0.40743,1.14359,1.30929,0.48993,0.52199,1.21343,0.43985,0.06694,0.75114,0.05630,0.35565,0.77616,4.47290,0.45822,0.65365,0.23371,1.52122,0.60377,0.48509,0.72563,0.12792,0.43554,5.42735,1.61392,1.18286,0.19386,0.26069,0.25563,0.32971,0.48199,0.35765,3.05133,0.54546,0.76916,0.14897,0.54713,0.15563,0.97365,0.91846,0.65613,0.04936,0.45207,0.19348,0.16289,0.07907,0.25400,0.68257,0.08531,1.46478,0.60966,0.62083,0.55838,2.42596,0.33152,0.49172,0.75708,0.38989,0.82363,0.03670,0.03112,0.74189,0.13947,0.73876,3.67335
1.70833,0.58537,0.29135,0.68998,0.45904,0.66420,0.01096,0.25691,0.06455,0.53155,1.34089,0.60881,0.05240,2.60493,0.41078,1.12034,1.19062,0.46019,0.47838,1.13246,0.42175,0.06858,0.72532,0.05570,0.33633,0.76546,4.36878,0.45534,0.62967,0.22980,1.58347,0.60223,0.45329,0.68271,0.12569,0.45462,3.24609,1.39270,1.07919,0.18447,0.25839,0.24506,0.31302,0.48368,0.34639,2.97596,0.50802,0.71627,0.14301,0.47668,0.15215,0.74775,0.89912,0.62736,0.04483,0.43255,0.18356,0.16099,0.07473,0.24876,0.65695,0.07980,1.21016,0.61796,0.59099,0.54754,2.44992,0.34149,0.47798,0.72445,0.36271,0.80443,0.03668,0.03129,0.63065,0.12438,0.72096,3.53644
1.75000,0.57143,0.27999,0.66401,0.44418,0.65101,0.01072,0.25025,0.06655,0.52794,1.21293,0.55359,0.04899,2.43895,0.41999,1.10016,1.09793,0.43618,0.44237,1.07108,0.40597,0.07035,0.70509,0.05519,0.31620,0.75188,4.26147,0.45274,0.60096,0.22640,1.62886,0.59979,0.41930,0.63847,0.12364,0.47717,2.16346,1.22213,0.98151,0.17514,0.25670,0.23504,0.29591,0.48552,0.33509,2.90683,0.47171,0.67107,0.13768,0.42086,0.14868,0.60103,0.88172,0.60173,0.04075,0.41493,0.17431,0.15968,0.06963,0.24352,0.63377,0.07381,1.02884,0.63016,0.56484,0.53961,2.47161,0.35511,0.46436,0.69456,0.33683,0.78713,0.03678,0.03156,0.54550,0.11158,0.70817,3.40989
1.79167,0.55814,0.27048,0.63617,0.43140,0.64059,0.01048,0.24306,0.06865,0.52392,1.10432,0.49789,0.04566,2.28991,0.43566,1.08305,1.02493,0.41679,0.41247,1.02529,0.39217,0.07220,0.68975,0.05476,0.29611,0.73599,4.15201,0.45040,0.57037,0.22343,1.64725,0.59606,0.38578,0.59578,0.12177,0.50395,1.59392,1.08825,0.89464,0.16617,0.25559,0.22561,0.27905,0.48644,0.32387,2.84358,0.43822,0.63307,0.13293,0.37645,0.14524,0.50326,0.86604,0.57880,0.03719,0.39907,0.16574,0.15894,0.06435,0.23824,0.61279,0.06791,0.89508,0.64624,0.54196,0.53416,2.48897,0.37291,0.45097,0.66691,0.31311,0.77141,0.03698,0.03190,0.47947,0.10083,0.69959,3.29299
1.83333,0.54545,0.26258,0.60804,0.42051,0.63247,0.01026,0.23548,0.07076,0.51944,1.01278,0.44721,0.04250,2.15830,0.45891,1.06874,0.96734,0.40117,0.38755,0.99243,0.38004,0.07407,0.67876,0.05440,0.27672,0.71844,4.04151,0.44830,0.54014,0.22080,1.63121,0.59062,0.35428,0.55637,0.12005,0.53599,1.25340,0.98150,0.81961,0.15776,0.25504,0.21679,0.26294,0.48528,0.31285,2.78586,0.40833,0.60160,0.12870,0.34087,0.14182,0.43576,0.85184,0.55820,0.03412,0.38483,0.15781,0.15873,0.05931,0.23292,0.59377,0.06243,0.79352,0.66613,0.52198,0.53079,2.49972,0.39557,0.43792,0.64113,0.29195,0.75697,0.03728,0.03229,0.42748,0.09184,0.69441,3.18506
1.87500,0.53333,0.25610,0.58083,0.41132,0.62624,0.01004,0.22763,0.07273,0.51447,0.93577,0.40338,0.03954,2.04353,0.49160,1.05668,0.92217,0.38868,0.36674,0.97072,0.36931,0.07587,0.67165,0.05410,0.25848,0.69992,3.93105,0.44640,0.51178,0.21841,1.57967,0.58314,0.32553,0.52105,0.11846,0.57470,1.03017,0.89523,0.75569,0.15005,0.25501,0.20858,0.24793,0.48098,0.30214,2.73338,0.38224,0.57604,0.12494,0.31214,0.13844,0.38787,0.83893,0.53957,0.03150,0.37210,0.15050,0.15904,0.05474,0.22755,0.57648,0.05753,0.71467,0.68950,0.50458,0.52911,2.50152,0.42393,0.42529,0.61692,0.27338,0.74349,0.03767,0.03271,0.38595,0.08434,0.69178,3.08545
1.91667,0.52174,0.25092,0.55539,0.40365,0.62147,0.00983,0.21967,0.07441,0.50901,0.87093,0.36639,0.03681,1.94451,0.53667,1.04613,0.88735,0.37882,0.34939,0.95904,0.35973,0.07750,0.66799,0.05386,0.24165,0.68110,3.82164,0.44469,0.48614,0.21616,1.49878,0.57339,0.29975,0.49006,0.11697,0.62206,0.87412,0.82474,0.70152,0.14310,0.25546,0.20097,0.23423,0.47277,0.29185,2.68583,0.35982,0.55582,0.12161,0.28878,0.13511,0.35339,0.82707,0.52264,0.02928,0.36077,0.14377,0.15983,0.05071,0.22214,0.56068,0.05326,0.65240,0.71571,0.48947,0.52867,2.49224,0.45887,0.41318,0.59407,0.25730,0.73071,0.03811,0.03313,0.35236,0.07810,0.69070,2.99354
1.95833,0.51064,0.24689,0.53221,0.39737,0.61777,0.00964,0.21173,0.07561,0.50308,0.81626,0.33549,0.03433,1.85991,0.59896,1.03608,0.86141,0.37118,0.33497,0.95678,0.35105,0.07887,0.66732,0.05368,0.22634,0.66253,3.71418,0.44313,0.46360,0.21391,1.39926,0.56126,0.27683,0.46328,0.11556,0.68095,0.75989,0.76665,0.65566,0.13692,0.25637,0.19393,0.22192,0.46039,0.28205,2.64295,0.34081,0.54048,0.11866,0.26967,0.13185,0.32854,0.81608,0.50713,0.02740,0.35076,0.13760,0.16106,0.04723,0.21669,0.54616,0.04958,0.60259,0.74351,0.47638,0.52902,2.47029,0.50109,0.40164,0.57243,0.24350,0.71836,0.03859,0.03350,0.32489,0.07290,0.68996,2.90877
2.00000,0.50000,0.24394,0.51156,0.39234,0.61473,0.00944,0.20395,0.07614,0.49671,0.77010,0.30976,0.03210,1.78840,0.68653,1.02532,0.84335,0.36540,0.32307,0.96373,0.34304,0.07986,0.66914,0.05354,0.21256,0.64471,3.60946,0.44168,0.44427,0.21156,1.29218,0.54681,0.25655,0.44043,0.11419,0.75567,0.67340,0.71845,0.61679,0.13150,0.25767,0.18745,0.21103,0.44417,0.27280,2.60449,0.32489,0.52967,0.11607,0.25401,0.12867,0.31098,0.80574,0.49280,0.02582,0.34198,0.13196,0.16269,0.04426,0.21121,0.53270,0.04644,0.56242,0.77084,0.46509,0.52963,2.43489,0.55048,0.39071,0.55193,0.23178,0.70620,0.03906,0.03376,0.30223,0.06859,0.68820,2.83061
2.04167,0.48980,0.24198,0.49352,0.38844,0.61195,0.00926,0.19643,0.07585,0.48995,0.73113,0.28836,0.03010,1.72871,0.81367,1.01253,0.83253,0.36117,0.31337,0.98009,0.33551,0.08039,0.67285,0.05344,0.20027,0.62798,3.50811,0.44031,0.42809,0.20897,1.18611,0.53025,0.23864,0.42118,0.11286,0.85298,0.60624,0.67828,0.58375,0.12682,0.25932,0.18151,0.20152,0.42498,0.26414,2.57024,0.31177,0.52312,0.11377,0.24115,0.12557,0.29924,0.79587,0.47945,0.02448,0.33437,0.12679,0.16466,0.04175,0.20574,0.52009,0.04379,0.52989,0.79474,0.45540,0.52997,2.38626,0.60482,0.38044,0.53251,0.22191,0.69399,0.03950,0.03385,0.28341,0.06503,0.68387,2.75858
2.08333,0.48000,0.24096,0.47808,0.38554,0.60907,0.00909,0.18924,0.07469,0.48287,0.69826,0.27055,0.02833,1.67970,1.00721,0.99637,0.82864,0.35821,0.30558,1.00640,0.32825,0.08041,0.67765,0.05338,0.18937,0.61262,3.41062,0.43895,0.41491,0.20605,1.08638,0.51194,0.22282,0.40519,0.11152,0.98397,0.55311,0.64473,0.55562,0.12283,0.26126,0.17605,0.19332,0.40392,0.25609,2.53999,0.30115,0.52069,0.11174,0.23063,0.12259,0.29239,0.78628,0.46690,0.02337,0.32786,0.12209,0.16689,0.03965,0.20028,0.50813,0.04155,0.50354,0.81145,0.44710,0.52945,2.32564,0.65777,0.37084,0.51419,0.21370,0.68155,0.03985,0.03372,0.26769,0.06212,0.67552,2.69227
2.12500,0.47059,0.24081,0.46515,0.38353,0.60576,0.00892,0.18244,0.07269,0.47555,0.67064,0.25575,0.02677,1.64033,1.31957,0.97566,0.83161,0.35621,0.29951,1.04355,0.32107,0.07990,0.68252,0.05334,0.17976,0.59880,3.31733,0.43755,0.40458,0.20269,0.99557,0.49232,0.20883,0.39215,0.11016,1.16811,0.51050,0.61669,0.53160,0.11951,0.26340,0.17106,0.18636,0.38215,0.24867,2.51355,0.29283,0.52230,0.10992,0.22207,0.11972,0.28986,0.77681,0.45497,0.02245,0.32241,0.11781,0.16926,0.03791,0.19486,0.49664,0.03969,0.48231,0.81727,0.44004,0.52755,2.25513,0.69771,0.36191,0.49698,0.20699,0.66873,0.04006,0.03333,0.25451,0.05978,0.66197,2.63130
2.16667,0.46154,0.24151,0.45459,0.38228,0.60176,0.00876,0.17607,0.06999,0.46807,0.64757,0.24348,0.02540,1.60966,1.83798,0.94962,0.84168,0.35489,0.29495,1.09279,0.31383,0.07889,0.68621,0.05332,0.17135,0.58664,3.22848,0.43603,0.39694,0.19884,0.91446,0.47186,0.19644,0.38178,0.10877,1.44197,0.47600,0.59330,0.51104,0.11680,0.26566,0.16649,0.18059,0.36064,0.24187,2.49074,0.28660,0.52795,0.10828,0.21517,0.11699,0.29136,0.76729,0.44354,0.02169,0.31797,0.11392,0.17166,0.03648,0.18951,0.48545,0.03816,0.46542,0.80963,0.43404,0.52381,2.17736,0.71119,0.35365,0.48092,0.20162,0.65541,0.04008,0.03265,0.24343,0.05793,0.64268,2.57533
2.20833,0.45283,0.24301,0.44627,0.38167,0.59686,0.00860,0.17015,0.06677,0.46050,0.62850,0.23338,0.02421,1.58686,2.47635,0.91805,0.85935,0.35392,0.29175,1.15558,0.30639,0.07746,0.68727,0.05331,0.16402,0.57618,3.14420,0.43432,0.39186,0.19449,0.84281,0.45105,0.18545,0.37383,0.10731,1.87877,0.44794,0.57387,0.49340,0.11469,0.26794,0.16232,0.17592,0.34012,0.23567,2.47141,0.28233,0.53766,0.10676,0.20971,0.11438,0.29678,0.75760,0.43248,0.02108,0.31452,0.11039,0.17391,0.03533,0.18424,0.47439,0.03691,0.45226,0.78827,0.42894,0.51792,2.09514,0.69224,0.34606,0.46605,0.19748,0.64154,0.03988,0.03170,0.23411,0.05653,0.61788,2.52408
2.25000,0.44444,0.24528,0.44004,0.38157,0.59098,0.00846,0.16468,0.06325,0.45290,0.61299,0.22514,0.02320,1.57111,2.36127,0.88138,0.88550,0.35299,0.28976,1.23339,0.29867,0.07570,0.68419,0.05329,0.15769,0.56746,3.06449,0.43232,0.38923,0.18965,0.77986,0.43030,0.17569,0.36811,0.10579,2.61697,0.42510,0.55783,0.47825,0.11313,0.27013,0.15850,0.17230,0.32105,0.23006,2.45542,0.27993,0.55142,0.10532,0.20548,0.11192,0.30611,0.74764,0.42170,0.02060,0.31201,0.10721,0.17583,0.03444,0.17907,0.46334,0.03592,0.44240,0.75542,0.42458,0.50977,2.01115,0.64788,0.33910,0.45242,0.19447,0.62710,0.03942,0.03050,0.22627,0.05553,0.58856,2.47731
2.29167,0.43636,0.24827,0.43573,0.38181,0.58411,0.00832,0.15966,0.05960,0.44536,0.60069,0.21854,0.02233,1.56163,1.71390,0.84064,0.92139,0.35176,0.28882,1.32703,0.29061,0.07371,0.67569,0.05325,0.15227,0.56044,2.98930,0.42994,0.38898,0.18437,0.72468,0.40999,0.16700,0.36444,0.10419,3.65592,0.40660,0.54471,0.46521,0.11211,0.27211,0.15500,0.16970,0.30367,0.22502,2.44262,0.27931,0.56910,0.10391,0.20232,0.10959,0.31939,0.73734,0.41114,0.02025,0.31044,0.10434,0.17722,0.03378,0.17403,0.45220,0.03517,0.43550,0.71488,0.42080,0.49945,1.92772,0.59184,0.33275,0.44006,0.19252,0.61213,0.03872,0.02913,0.21965,0.05492,0.55623,2.43482
2.33333,0.42857,0.25194,0.43317,0.38226,0.57636,0.00818,0.15508,0.05599,0.43790,0.59132,0.21342,0.02161,1.55756,1.25593,0.79721,0.96887,0.34993,0.28877,1.43522,0.28222,0.07158,0.66101,0.05318,0.14769,0.55509,2.91852,0.42709,0.39103,0.17874,0.67632,0.39040,0.15928,0.36264,0.10252,3.65017,0.39179,0.53411,0.45395,0.11159,0.27376,0.15179,0.16808,0.28806,0.22051,2.43291,0.28045,0.59024,0.10247,0.20008,0.10742,0.33643,0.72665,0.40074,0.02000,0.30977,0.10176,0.17789,0.03332,0.16913,0.44088,0.03463,0.43130,0.67078,0.41745,0.48726,1.84671,0.53543,0.32699,0.42901,0.19156,0.59670,0.03778,0.02765,0.21407,0.05466,0.52252,2.39644
2.37500,0.42105,0.25623,0.43217,0.38274,0.56790,0.00806,0.15093,0.05250,0.43059,0.58466,0.20964,0.02103,1.55796,0.98031,0.75263,1.03050,0.34722,0.28944,1.55195,0.27352,0.06941,0.64013,0.05306,0.14390,0.55134,2.85196,0.42367,0.39534,0.17287,0.63389,0.37173,0.15240,0.36258,0.10077,2.56854,0.38017,0.52566,0.44419,0.11158,0.27496,0.14884,0.16742,0.27419,0.21651,2.42616,0.28333,0.61380,0.10098,0.19862,0.10538,0.35659,0.71556,0.39048,0.01985,0.30999,0.09946,0.17766,0.03307,0.16438,0.42935,0.03428,0.42961,0.62647,0.41436,0.47362,1.76952,0.48454,0.32178,0.41930,0.19154,0.58095,0.03666,0.02613,0.20935,0.05474,0.48892,2.36205
2.41667,0.41379,0.26105,0.43251,0.38308,0.55897,0.00793,0.14717,0.04921,0.42344,0.58053,0.20711,0.02058,1.56175,0.80711,0.70829,1.10976,0.34344,0.29061,1.66271,0.26458,0.06727,0.61388,0.05287,0.14086,0.54909,2.78941,0.41962,0.40186,0.16687,0.59659,0.35412,0.14627,0.36408,0.09895,1.80004,0.37141,0.51901,0.43569,0.11203,0.27561,0.14610,0.16773,0.26200,0.21298,2.42228,0.28795,0.63775,0.09938,0.19779,0.10348,0.37817,0.70410,0.38036,0.01980,0.31108,0.09742,0.17644,0.03300,0.15980,0.41761,0.03413,0.43028,0.58427,0.41139,0.45903,1.69707,0.44105,0.31708,0.41095,0.19242,0.56499,0.03539,0.02462,0.20532,0.05514,0.45656,2.33156
2.45833,0.40678,0.26630,0.43394,0.38311,0.54981,0.00782,0.14379,0.04615,0.41648,0.57881,0.20578,0.02024,1.56762,0.69204,0.66536,1.21131,0.33848,0.29203,1.74283,0.25551,0.06519,0.58364,0.05260,0.13851,0.54824,2.73062,0.41486,0.41051,0.16085,0.56374,0.33765,0.14082,0.36694,0.09709,1.34871,0.36526,0.51382,0.42824,0.11295,0.27563,0.14355,0.16901,0.25135,0.20989,2.42116,0.29431,0.65875,0.09766,0.19744,0.10172,0.39795,0.69233,0.37038,0.01984,0.31301,0.09562,0.17421,0.03311,0.15540,0.40568,0.03414,0.43317,0.54546,0.40837,0.44399,1.62994,0.40489,0.31286,0.40397,0.19416,0.54898,0.03405,0.02316,0.20183,0.05586,0.42623,2.30490
2.50000,0.40000,0.27184,0.43612,0.38267,0.54069,0.00771,0.14077,0.04332,0.40970,0.57939,0.20562,0.02003,1.57405,0.61228,0.62467,1.34102,0.33237,0.29341,1.76450,0.24640,0.06322,0.55112,0.05223,0.13685,0.54863,2.67532,0.40937,0.42112,0.15489,0.53474,0.32236,0.13598,0.37092,0.09518,1.06743,0.36154,0.50977,0.42163,0.11430,0.27496,0.14116,0.17129,0.24212,0.20720,2.42272,0.30238,0.67220,0.09579,0.19741,0.10009,0.41117,0.68032,0.36057,0.01996,0.31574,0.09405,0.17101,0.03338,0.15118,0.39360,0.03433,0.43817,0.51059,0.40518,0.42897,1.56839,0.37521,0.30907,0.39838,0.19673,0.53309,0.03267,0.02178,0.19874,0.05690,0.39833,2.28204
2.54167,0.39344,0.27747,0.43867,0.38160,0.53186,0.00760,0.13807,0.04073,0.40311,0.58218,0.20662,0.01994,1.57930,0.55549,0.58675,1.50497,0.32522,0.29444,1.71446,0.23738,0.06138,0.51791,0.05175,0.13586,0.55008,2.62321,0.40315,0.43343,0.14909,0.50909,0.30823,0.13168,0.37570,0.09327,0.87905,0.36019,0.50648,0.41570,0.11606,0.27358,0.13890,0.17458,0.23419,0.20488,2.42686,0.31208,0.67324,0.09377,0.19752,0.09858,0.41315,0.66816,0.35096,0.02014,0.31923,0.09270,0.16699,0.03381,0.14715,0.38146,0.03467,0.44509,0.47973,0.40168,0.41432,1.51248,0.35104,0.30568,0.39420,0.20007,0.51745,0.03130,0.02050,0.19590,0.05822,0.37304,2.26299
2.58333,0.38710,0.28298,0.44114,0.37979,0.52351,0.00750,0.13568,0.03837,0.39668,0.58709,0.20881,0.01996,1.58149,0.51459,0.55188,1.70555,0.31723,0.29477,1.60563,0.22856,0.05968,0.48536,0.05115,0.13554,0.55235,2.57399,0.39622,0.44697,0.14350,0.48635,0.29526,0.12787,0.38084,0.09135,0.74537,0.36116,0.50359,0.41027,0.11817,0.27151,0.13674,0.17891,0.22741,0.20288,2.43351,0.32322,0.65876,0.09161,0.19756,0.09720,0.40210,0.65598,0.34160,0.02039,0.32338,0.09155,0.16233,0.03439,0.14331,0.36934,0.03515,0.45374,0.45271,0.39777,0.40035,1.46213,0.33146,0.30264,0.39143,0.20412,0.50220,0.02998,0.01932,0.19317,0.05982,0.35036,2.24777
2.62500,0.38095,0.28809,0.44302,0.37716,0.51583,0.00740,0.13357,0.03622,0.39040,0.59406,0.21225,0.02009,1.57873,0.48530,0.52013,1.92960,0.30867,0.29407,1.46688,0.22004,0.05812,0.45439,0.05043,0.13589,0.55515,2.52737,0.38866,0.46101,0.13815,0.46616,0.28340,0.12451,0.38580,0.08947,0.64622,0.36449,0.50071,0.40522,0.12059,0.26881,0.13465,0.18432,0.22168,0.20118,2.44258,0.33540,0.62919,0.08933,0.19733,0.09594,0.38052,0.64387,0.33253,0.02068,0.32808,0.09060,0.15725,0.03509,0.13968,0.35734,0.03576,0.46379,0.42924,0.39339,0.38725,1.41713,0.31571,0.29991,0.39009,0.20878,0.48746,0.02872,0.01824,0.19044,0.06166,0.33017,2.23642
2.66667,0.37500,0.29251,0.44375,0.37366,0.50893,0.00731,0.13170,0.03427,0.38424,0.60297,0.21702,0.02035,1.56935,0.46497,0.49145,2.12593,0.29982,0.29207,1.32440,0.21189,0.05669,0.42560,0.04959,0.13695,0.55815,2.48303,0.38056,0.47448,0.13308,0.44820,0.27260,0.12155,0.38994,0.08762,0.57012,0.37030,0.49743,0.40040,0.12320,0.26555,0.13261,0.19078,0.21689,0.19972,2.45397,0.34797,0.58854,0.08698,0.19664,0.09478,0.35344,0.63197,0.32379,0.02100,0.33315,0.08984,0.15196,0.03590,0.13625,0.34554,0.03648,0.47475,0.40896,0.38849,0.37515,1.37722,0.30315,0.29745,0.39018,0.21393,0.47334,0.02755,0.01726,0.18757,0.06368,0.31232,2.22904
2.70833,0.36923,0.29592,0.44285,0.36932,0.50288,0.00722,0.13006,0.03250,0.37817,0.61368,0.22322,0.02072,1.55215,0.45192,0.46571,2.20014,0.29097,0.28860,1.19333,0.20420,0.05540,0.39927,0.04862,0.13875,0.56094,2.44067,0.37204,0.48604,0.12827,0.43220,0.26281,0.11896,0.39254,0.08584,0.51012,0.37873,0.49340,0.39572,0.12589,0.26184,0.13060,0.19823,0.21292,0.19848,2.46760,0.35991,0.54237,0.08458,0.19531,0.09373,0.32559,0.62037,0.31544,0.02131,0.33835,0.08926,0.14665,0.03677,0.13302,0.33406,0.03726,0.48594,0.39153,0.38307,0.36409,1.34209,0.29329,0.29522,0.39168,0.21938,0.45991,0.02647,0.01637,0.18448,0.06581,0.29661,2.22571
2.75000,0.36364,0.29804,0.43989,0.36418,0.49769,0.00714,0.12862,0.03088,0.37214,0.62598,0.23101,0.02120,1.52664,0.44511,0.44272,2.09175,0.28237,0.28362,1.07945,0.19699,0.05423,0.37549,0.04756,0.14134,0.56308,2.40001,0.36324,0.49412,0.12374,0.41793,0.25397,0.11668,0.39293,0.08415,0.46179,0.39004,0.48826,0.39107,0.12848,0.25779,0.12861,0.20653,0.20970,0.19741,2.48336,0.36987,0.49563,0.08219,0.19321,0.09279,0.29989,0.60919,0.30749,0.02159,0.34337,0.08886,0.14146,0.03764,0.13000,0.32296,0.03806,0.49646,0.37665,0.37716,0.35409,1.31142,0.28570,0.29318,0.39459,0.22490,0.44724,0.02549,0.01557,0.18109,0.06795,0.28286,2.22657
2.79167,0.35821,0.29863,0.43463,0.35833,0.49333,0.00705,0.12735,0.02942,0.36614,0.63956,0.24057,0.02180,1.49310,0.44396,0.42227,1.85621,0.27422,0.27723,0.98335,0.19033,0.05317,0.35421,0.04640,0.14478,0.56411,2.36078,0.35429,0.49731,0.11945,0.40518,0.24603,0.11470,0.39056,0.08255,0.42220,0.40452,0.48176,0.38638,0.13078,0.25352,0.12662,0.21536,0.20712,0.19649,2.50113,0.37631,0.45156,0.07985,0.19030,0.09194,0.27768,0.59852,0.30001,0.02180,0.34780,0.08865,0.13652,0.03843,0.12719,0.31231,0.03882,0.50515,0.36402,0.37083,0.34513,1.28485,0.28005,0.29129,0.39884,0.23020,0.43536,0.02460,0.01485,0.17736,0.06995,0.27088,2.23175
2.83333,0.35294,0.29754,0.42705,0.35191,0.48971,0.00697,0.12622,0.02809,0.36011,0.65398,0.25209,0.02249,1.45259,0.44821,0.40415,1.59385,0.26668,0.26966,0.90339,0.18421,0.05221,0.33532,0.04517,0.14915,0.56358,2.32271,0.34535,0.49465,0.11538,0.39379,0.23894,0.11296,0.38518,0.08105,0.38931,0.42254,0.47377,0.38162,0.13255,0.24914,0.12463,0.22425,0.20511,0.19566,2.52078,0.37785,0.41182,0.07759,0.18660,0.09118,0.25926,0.58845,0.29300,0.02190,0.35119,0.08861,0.13191,0.03907,0.12458,0.30218,0.03945,0.51079,0.35340,0.36416,0.33714,1.26201,0.27604,0.28952,0.40433,0.23495,0.42430,0.02379,0.01420,0.17329,0.07169,0.26050,2.24143
2.87500,0.34783,0.29476,0.41735,0.34505,0.48668,0.00690,0.12522,0.02688,0.35404,0.66864,0.26580,0.02325,1.40671,0.45789,0.38816,1.36130,0.25989,0.26121,0.83734,0.17866,0.05134,0.31864,0.04390,0.15451,0.56112,2.28559,0.33654,0.48604,0.11150,0.38359,0.23266,0.11144,0.37687,0.07968,0.36168,0.44454,0.46427,0.37673,0.13358,0.24476,0.12264,0.23246,0.20360,0.19490,2.54216,0.37373,0.37691,0.07545,0.18220,0.09051,0.24447,0.57903,0.28649,0.02184,0.35303,0.08875,0.12768,0.03944,0.12219,0.29260,0.03987,0.51221,0.34456,0.35726,0.33003,1.24253,0.27340,0.28784,0.41087,0.23881,0.41408,0.02308,0.01362,0.16890,0.07300,0.25158,2.25580
2.91667,0.34286,0.29037,0.40591,0.33790,0.48404,0.00682,0.12430,0.02578,0.34789,0.68273,0.28190,0.02404,1.35736,0.47326,0.37412,1.17221,0.25394,0.25224,0.78300,0.17367,0.05054,0.30400,0.04259,0.16097,0.55647,2.24921,0.32800,0.47223,0.10776,0.37446,0.22713,0.11010,0.36604,0.07844,0.33826,0.47095,0.45337,0.37172,0.13369,0.24047,0.12063,0.23910,0.20251,0.19418,2.56507,0.36416,0.34672,0.07347,0.17726,0.08994,0.23295,0.57033,0.28051,0.02162,0.35285,0.08907,0.12388,0.03947,0.12000,0.28362,0.03999,0.50864,0.33733,0.35025,0.32373,1.22601,0.27189,0.28624,0.41817,0.24149,0.40470,0.02245,0.01310,0.16425,0.07380,0.24400,2.27503
2.95833,0.33803,0.28455,0.39324,0.33061,0.48150,0.00675,0.12344,0.02478,0.34165,0.69529,0.30050,0.02479,1.30644,0.49481,0.36185,1.02257,0.24889,0.24308,0.73847,0.16926,0.04980,0.29123,0.04127,0.16857,0.54954,2.21342,0.31982,0.45460,0.10413,0.36626,0.22233,0.10889,0.35335,0.07734,0.31826,0.50208,0.44129,0.36658,0.13278,0.23634,0.11862,0.24323,0.20177,0.19347,2.58928,0.35021,0.32085,0.07167,0.17197,0.08945,0.22433,0.56240,0.27506,0.02122,0.35027,0.08957,0.12052,0.03911,0.11803,0.27524,0.03975,0.49984,0.33153,0.34324,0.31811,1.21203,0.27123,0.28468,0.42578,0.24276,0.39616,0.02189,0.01263,0.15942,0.07403,0.23763,2.29935
3.00000,0.33333,0.27756,0.37989,0.32330,0.47877,0.00668,0.12263,0.02388,0.33530,0.70519,0.32150,0.02544,1.25568,0.52318,0.35119,0.90448,0.24478,0.23403,0.70219,0.16540,0.04911,0.28017,0.03997,0.17731,0.54041,2.17808,0.31212,0.43478,0.10057,0.35889,0.21822,0.10778,0.33954,0.07638,0.30110,0.53796,0.42835,0.36135,0.13085,0.23244,0.11662,0.24413,0.20132,0.19276,2.61455,0.33346,0.29879,0.07008,0.16653,0.08904,0.21828,0.55526,0.27016,0.02065,0.34509,0.09027,0.11760,0.03834,0.11626,0.26748,0.03912,0.48630,0.32702,0.33636,0.31305,1.20012,0.27118,0.28317,0.43306,0.24256,0.38845,0.02140,0.01221,0.15450,0.07369,0.23240,2.32894
3.04167,0.32877,0.26972,0.36638,0.31609,0.47546,0.00661,0.12183,0.02306,0.32884,0.71130,0.34436,0.02588,1.20648,0.55909,0.34200,0.81068,0.24166,0.22534,0.67291,0.16211,0.04846,0.27069,0.03868,0.18706,0.52931,2.14310,0.30496,0.41426,0.09704,0.35225,0.21477,0.10671,0.32535,0.07557,0.28630,0.57783,0.41490,0.35605,0.12802,0.22880,0.11463,0.24157,0.20111,0.19203,2.64054,0.31550,0.28005,0.06870,0.16111,0.08873,0.21448,0.54894,0.26582,0.01995,0.33735,0.09118,0.11513,0.03722,0.11472,0.26035,0.03814,0.46899,0.32367,0.32972,0.30843,1.18979,0.27144,0.28170,0.43919,0.24094,0.38154,0.02097,0.01183,0.14957,0.07286,0.22822,2.36399
3.08333,0.32432,0.26129,0.35313,0.30908,0.47120,0.00654,0.12101,0.02231,0.32228,0.71262,0.36777,0.02605,1.15990,0.60304,0.33415,0.73550,0.23956,0.21718,0.64961,0.15937,0.04783,0.26265,0.03744,0.19747,0.51662,2.10844,0.29840,0.39420,0.09351,0.34624,0.21197,0.10565,0.31138,0.07491,0.27352,0.61954,0.40130,0.35074,0.12448,0.22546,0.11267,0.23589,0.20109,0.19128,2.66690,0.29765,0.26418,0.06755,0.15587,0.08850,0.21270,0.54345,0.26203,0.01915,0.32730,0.09229,0.11311,0.03583,0.11339,0.25384,0.03685,0.44923,0.32136,0.32340,0.30411,1.18051,0.27170,0.28026,0.44317,0.23813,0.37543,0.02059,0.01149,0.14474,0.07164,0.22504,2.40462
3.12500,0.32000,0.25257,0.34051,0.30236,0.46563,0.00648,0.12017,0.02164,0.31563,0.70847,0.38937,0.02589,1.11665,0.65472,0.32753,0.67469,0.23851,0.20968,0.63149,0.15719,0.04723,0.25595,0.03624,0.20780,0.50282,2.07407,0.29251,0.37542,0.08995,0.34078,0.20979,0.10455,0.29810,0.07441,0.26247,0.65877,0.38787,0.34545,0.12045,0.22244,0.11074,0.22789,0.20121,0.19051,2.69318,0.28077,0.25078,0.06664,0.15093,0.08836,0.21266,0.53881,0.25881,0.01830,0.31541,0.09364,0.11153,0.03427,0.11227,0.24795,0.03536,0.42829,0.31999,0.31749,0.29994,1.17173,0.27167,0.27886,0.44397,0.23441,0.37009,0.02027,0.01119,0.14008,0.07013,0.22280,2.45092
3.16667,0.31579,0.24377,0.32875,0.29596,0.45843,0.00641,0.11928,0.02104,0.30890,0.69867,0.40573,0.02541,1.07719,0.71181,0.32204,0.62513,0.23854,0.20291,0.61793,0.15555,0.04663,0.25051,0.03510,0.21685,0.48838,2.04003,0.28732,0.35838,0.08634,0.33580,0.20823,0.10336,0.28584,0.07407,0.25293,0.68881,0.37489,0.34024,0.11618,0.21976,0.10887,0.21853,0.20145,0.18973,2.71889,0.26539,0.23953,0.06600,0.14639,0.08832,0.21410,0.53501,0.25615,0.01743,0.30223,0.09524,0.11040,0.03264,0.11139,0.24267,0.03375,0.40728,0.31945,0.31206,0.29580,1.16284,0.27104,0.27753,0.44070,0.23012,0.36550,0.01998,0.01091,0.13565,0.06843,0.22149,2.50281
3.20833,0.31169,0.23507,0.31803,0.28995,0.44941,0.00635,0.11832,0.02050,0.30212,0.68356,0.41316,0.02467,1.04177,0.76836,0.31757,0.58451,0.23971,0.19693,0.60838,0.15448,0.04604,0.24626,0.03402,0.22298,0.47378,2.00635,0.28287,0.34333,0.08269,0.33122,0.20727,0.10205,0.27478,0.07390,0.24472,0.70215,0.36260,0.33516,0.11185,0.21740,0.10707,0.20874,0.20179,0.18895,2.74347,0.25176,0.23017,0.06562,0.14231,0.08838,0.21667,0.53203,0.25406,0.01658,0.28833,0.09711,0.10971,0.03102,0.11073,0.23799,0.03211,0.38703,0.31963,0.30717,0.29155,1.15325,0.26958,0.27627,0.43287,0.22560,0.36165,0.01974,0.01067,0.13150,0.06660,0.22107,2.56007
3.25000,0.30769,0.22660,0.30845,0.28434,0.43850,0.00629,0.11730,0.02002,0.29532,0.66396,0.40939,0.02377,1.01048,0.81363,0.31403,0.55112,0.24206,0.19175,0.60241,0.15398,0.04545,0.24317,0.03300,0.22453,0.45941,1.97314,0.27919,0.33036,0.07899,0.32698,0.20693,0.10057,0.26506,0.07390,0.23769,0.69408,0.35117,0.33026,0.10765,0.21536,0.10535,0.19922,0.20220,0.18820,2.76627,0.23994,0.22246,0.06553,0.13874,0.08854,0.21993,0.52986,0.25254,0.01576,0.27423,0.09929,0.10948,0.02947,0.11030,0.23389,0.03051,0.36807,0.32044,0.30288,0.28707,1.14240,0.26713,0.27511,0.42052,0.22115,0.35849,0.01952,0.01045,0.12769,0.06466,0.22153,2.62220
3.29167,0.30380,0.21846,0.30004,0.27916,0.42583,0.00623,0.11619,0.01959,0.28853,0.64098,0.39490,0.02278,0.98328,0.83461,0.31134,0.52368,0.24567,0.18738,0.59960,0.15406,0.04485,0.24119,0.03205,0.22052,0.44563,1.94050,0.27630,0.31946,0.07527,0.32301,0.20721,0.09890,0.25670,0.07407,0.23173,0.66581,0.34073,0.32558,0.10368,0.21364,0.10372,0.19045,0.20271,0.18750,2.78664,0.22992,0.21623,0.06573,0.13570,0.08881,0.22326,0.52849,0.25158,0.01500,0.26035,0.10180,0.10971,0.02803,0.11011,0.23036,0.02899,0.35073,0.32176,0.29921,0.28228,1.12979,0.26360,0.27408,0.40428,0.21701,0.35602,0.01932,0.01026,0.12422,0.06262,0.22288,2.68834
3.33333,0.30000,0.21071,0.29283,0.27440,0.41163,0.00617,0.11501,0.01921,0.28177,0.61583,0.37268,0.02181,0.96012,0.82347,0.30940,0.50121,0.25060,0.18383,0.59956,0.15476,0.04425,0.24033,0.03116,0.21127,0.43269,1.90854,0.27423,0.31060,0.07154,0.31925,0.20810,0.09704,0.24974,0.07443,0.22674,0.62379,0.33136,0.32115,0.10003,0.21220,0.10219,0.18270,0.20330,0.18687,2.80384,0.22161,0.21133,0.06626,0.13321,0.08920,0.22594,0.52786,0.25119,0.01429,0.24700,0.10468,0.11042,0.02671,0.11017,0.22740,0.02759,0.33516,0.32348,0.29620,0.27710,1.11500,0.25904,0.27319,0.38518,0.21338,0.35421,0.01913,0.01008,0.12113,0.06047,0.22511,2.75716
3.37500,0.29630,0.20337,0.28680,0.27006,0.39628,0.00611,0.11375,0.01889,0.27508,0.58966,0.34660,0.02089,0.94087,0.78381,0.30812,0.48299,0.25695,0.18109,0.60183,0.15611,0.04365,0.24059,0.03034,0.19822,0.42080,1.87741,0.27300,0.30370,0.06784,0.31566,0.20964,0.09498,0.24416,0.07496,0.22266,0.57585,0.32311,0.31701,0.09674,0.21102,0.10077,0.17612,0.20400,0.18637,2.81714,0.21494,0.20765,0.06713,0.13128,0.08970,0.22716,0.52795,0.25137,0.01365,0.23438,0.10799,0.11164,0.02552,0.11048,0.22499,0.02630,0.32138,0.32549,0.29387,0.27151,1.09779,0.25361,0.27249,0.36442,0.21040,0.35304,0.01895,0.00993,0.11843,0.05816,0.22824,2.82672
3.41667,0.29268,0.19647,0.28194,0.26614,0.38019,0.00606,0.11241,0.01861,0.26848,0.56343,0.31989,0.02008,0.92541,0.72765,0.30739,0.46846,0.26479,0.17915,0.60589,0.15814,0.04304,0.24201,0.02959,0.18327,0.41008,1.84724,0.27265,0.29870,0.06421,0.31219,0.21183,0.09273,0.23997,0.07568,0.21943,0.52805,0.31603,0.31317,0.09384,0.21007,0.09947,0.17077,0.20483,0.18600,2.82582,0.20983,0.20509,0.06838,0.12992,0.09033,0.22622,0.52870,0.25211,0.01306,0.22263,0.11179,0.11340,0.02447,0.11106,0.22313,0.02515,0.30937,0.32767,0.29225,0.26551,1.07806,0.24750,0.27198,0.34313,0.20818,0.35249,0.01877,0.00979,0.11612,0.05568,0.23229,2.89438
3.45833,0.28916,0.19000,0.27819,0.26261,0.36381,0.00600,0.11102,0.01838,0.26199,0.53787,0.29460,0.01940,0.91360,0.66721,0.30710,0.45718,0.27418,0.17803,0.61106,0.16092,0.04243,0.24464,0.02889,0.16805,0.40062,1.81819,0.27319,0.29558,0.06066,0.30880,0.21470,0.09033,0.23716,0.07659,0.21700,0.48388,0.31013,0.30965,0.09133,0.20932,0.09830,0.16668,0.20580,0.18581,2.82922,0.20623,0.20357,0.07005,0.12914,0.09108,0.22277,0.53005,0.25341,0.01254,0.21180,0.11614,0.11574,0.02356,0.11191,0.22182,0.02413,0.29905,0.32989,0.29135,0.25914,1.05591,0.24097,0.27170,0.32222,0.20682,0.35252,0.01858,0.00967,0.11421,0.05302,0.23727,2.95678
3.50000,0.28571,0.18395,0.27552,0.25946,0.34753,0.00595,0.10958,0.01819,0.25564,0.51349,0.27172,0.01886,0.90532,0.61026,0.30712,0.44883,0.28515,0.17772,0.61653,0.16452,0.04182,0.24856,0.02826,0.15362,0.39248,1.79040,0.27468,0.29432,0.05724,0.30546,0.21828,0.08780,0.23577,0.07770,0.21535,0.44477,0.30542,0.30645,0.08921,0.20870,0.09726,0.16384,0.20694,0.18583,2.82678,0.20409,0.20303,0.07218,0.12894,0.09197,0.21690,0.53191,0.25527,0.01207,0.20191,0.12113,0.11873,0.02276,0.11305,0.22103,0.02323,0.29034,0.33202,0.29119,0.25247,1.03159,0.23428,0.27166,0.30230,0.20636,0.35312,0.01837,0.00956,0.11269,0.05019,0.24318,3.00990
3.54167,0.28235,0.17830,0.27389,0.25667,0.33168,0.00590,0.10811,0.01804,0.24943,0.49062,0.25155,0.01846,0.90044,0.56024,0.30731,0.44318,0.29760,0.17825,0.62129,0.16903,0.04122,0.25388,0.02768,0.14051,0.38569,1.76399,0.27713,0.29492,0.05395,0.30215,0.22259,0.08518,0.23582,0.07900,0.21446,0.41100,0.30191,0.30358,0.08748,0.20818,0.09635,0.16226,0.20826,0.18609,2.81805,0.20344,0.20341,0.07483,0.12933,0.09298,0.20915,0.53420,0.25767,0.01166,0.19293,0.12685,0.12243,0.02209,0.11449,0.22079,0.02245,0.28315,0.33396,0.29178,0.24557,1.00553,0.22765,0.27188,0.28378,0.20687,0.35425,0.01815,0.00946,0.11159,0.04725,0.25002,3.04940
3.58333,0.27907,0.17304,0.27323,0.25420,0.31652,0.00585,0.10662,0.01794,0.24338,0.46942,0.23406,0.01821,0.89885,0.51792,0.30752,0.44005,0.31130,0.17964,0.62417,0.17453,0.04062,0.26073,0.02715,0.12889,0.38024,1.73911,0.28059,0.29746,0.05084,0.29885,0.22764,0.08253,0.23740,0.08049,0.21433,0.38222,0.29963,0.30102,0.08613,0.20771,0.09557,0.16196,0.20976,0.18661,2.80277,0.20431,0.20464,0.07805,0.13032,0.09412,0.20027,0.53681,0.26058,0.01129,0.18484,0.13342,0.12692,0.02152,0.11624,0.22108,0.02177,0.27740,0.33559,0.29311,0.23855,0.97823,0.22128,0.27237,0.26685,0.20841,0.35588,0.01790,0.00938,0.11089,0.04424,0.25773,3.07104
3.62500,0.27586,0.16814,0.27348,0.25203,0.30224,0.00580,0.10512,0.01787,0.23750,0.44997,0.21900,0.01811,0.90042,0.48288,0.30756,0.43933,0.32570,0.18193,0.62400,0.18116,0.04004,0.26930,0.02667,0.11875,0.37615,1.71585,0.28508,0.30201,0.04789,0.29555,0.23346,0.07988,0.24060,0.08218,0.21496,0.35790,0.29860,0.29877,0.08515,0.20722,0.09492,0.16301,0.21142,0.18741,2.78087,0.20680,0.20666,0.08192,0.13193,0.09539,0.19107,0.53961,0.26398,0.01096,0.17758,0.14096,0.13231,0.02106,0.11830,0.22190,0.02121,0.27301,0.33680,0.29520,0.23151,0.95025,0.21532,0.27312,0.25155,0.21102,0.35798,0.01763,0.00930,0.11061,0.04126,0.26624,3.07140
3.66667,0.27273,0.16359,0.27454,0.25014,0.28894,0.00575,0.10363,0.01785,0.23177,0.43225,0.20612,0.01817,0.90503,0.45424,0.30727,0.44092,0.33990,0.18517,0.61972,0.18903,0.03948,0.27980,0.02624,0.10995,0.37338,1.69434,0.29063,0.30871,0.04513,0.29225,0.24005,0.07727,0.24560,0.08405,0.21637,0.33748,0.29884,0.29681,0.08453,0.20666,0.09441,0.16550,0.21321,0.18850,2.75248,0.21106,0.20936,0.08650,0.13417,0.09676,0.18221,0.54245,0.26781,0.01067,0.17111,0.14959,0.13872,0.02069,0.12070,0.22326,0.02073,0.26993,0.33751,0.29802,0.22456,0.92214,0.20988,0.27414,0.23785,0.21476,0.36050,0.01734,0.00924,0.11075,0.03836,0.27537,3.04851
3.70833,0.26966,0.15936,0.27632,0.24849,0.27668,0.00571,0.10215,0.01786,0.22620,0.41621,0.19513,0.01839,0.91252,0.43107,0.30645,0.44479,0.35249,0.18940,0.61066,0.19830,0.03893,0.29249,0.02585,0.10236,0.37193,1.67465,0.29723,0.31773,0.04255,0.28895,0.24736,0.07474,0.25259,0.08608,0.21860,0.32043,0.30040,0.29511,0.08426,0.20596,0.09402,0.16955,0.21507,0.18991,2.71796,0.21732,0.21261,0.09181,0.13703,0.09821,0.17415,0.54519,0.27199,0.01042,0.16537,0.15943,0.14626,0.02041,0.12342,0.22516,0.02035,0.26811,0.33766,0.30156,0.21777,0.89443,0.20502,0.27540,0.22568,0.21968,0.36340,0.01702,0.00918,0.11132,0.03560,0.28485,3.00233
3.75000,0.26667,0.15544,0.27865,0.24704,0.26548,0.00567,0.10072,0.01791,0.22077,0.40177,0.18579,0.01879,0.92271,0.41253,0.30496,0.45087,0.36171,0.19469,0.59665,0.20908,0.03841,0.30765,0.02549,0.09582,0.37175,1.65687,0.30485,0.32927,0.04016,0.28566,0.25534,0.07232,0.26186,0.08825,0.22169,0.30630,0.30334,0.29363,0.08433,0.20508,0.09375,0.17539,0.21691,0.19163,2.67783,0.22589,0.21622,0.09785,0.14050,0.09972,0.16717,0.54765,0.27642,0.01019,0.16031,0.17054,0.15508,0.02022,0.12647,0.22760,0.02005,0.26750,0.33718,0.30575,0.21123,0.86759,0.20079,0.27687,0.21493,0.22581,0.36662,0.01668,0.00913,0.11235,0.03303,0.29429,2.93480
3.79167,0.26374,0.15180,0.28135,0.24577,0.25533,0.00563,0.09932,0.01800,0.21548,0.38882,0.17788,0.01936,0.93533,0.39788,0.30265,0.45913,0.36574,0.20109,0.57814,0.22145,0.03791,0.32560,0.02517,0.09018,0.37280,1.64106,0.31337,0.34356,0.03794,0.28240,0.26384,0.07002,0.27376,0.09051,0.22569,0.29472,0.30772,0.29234,0.08474,0.20397,0.09359,0.18327,0.21863,0.19364,2.63277,0.23722,0.21992,0.10445,0.14453,0.10124,0.16141,0.54967,0.28097,0.00999,0.15590,0.18288,0.16529,0.02010,0.12983,0.23058,0.01983,0.26809,0.33605,0.31053,0.20499,0.84201,0.19719,0.27851,0.20548,0.23318,0.37010,0.01632,0.00909,0.11384,0.03066,0.30314,2.84950
3.83333,0.26087,0.14843,0.28417,0.24464,0.24620,0.00559,0.09797,0.01812,0.21031,0.37727,0.17123,0.02012,0.95004,0.38652,0.29942,0.46949,0.36332,0.20863,0.55608,0.23535,0.03743,0.34659,0.02488,0.08532,0.37499,1.62726,0.32260,0.36076,0.03589,0.27919,0.27267,0.06787,0.28874,0.09282,0.23070,0.28537,0.31363,0.29121,0.08549,0.20258,0.09354,0.19357,0.22007,0.19593,2.58360,0.25193,0.22337,0.11129,0.14903,0.10271,0.15695,0.55105,0.28547,0.00981,0.15209,0.19614,0.17690,0.02007,0.13345,0.23408,0.01968,0.26987,0.33425,0.31576,0.19910,0.81800,0.19424,0.28025,0.19722,0.24174,0.37376,0.01595,0.00905,0.11582,0.02852,0.31072,2.75100
3.87500,0.25806,0.14532,0.28680,0.24361,0.23804,0.00555,0.09668,0.01828,0.20524,0.36701,0.16567,0.02107,0.96636,0.37793,0.29523,0.48176,0.35429,0.21733,0.53167,0.25046,0.03698,0.37073,0.02461,0.08115,0.37822,1.61553,0.33219,0.38096,0.03400,0.27605,0.28148,0.06588,0.30732,0.09509,0.23680,0.27802,0.32116,0.29017,0.08657,0.20089,0.09358,0.20676,0.22108,0.19846,2.53115,0.27084,0.22612,0.11772,0.15382,0.10407,0.15380,0.55165,0.28969,0.00964,0.14884,0.20961,0.18981,0.02011,0.13728,0.23811,0.01961,0.27281,0.33178,0.32127,0.19359,0.79581,0.19191,0.28200,0.19006,0.25139,0.37753,0.01558,0.00902,0.11831,0.02661,0.31626,2.64411
3.91667,0.25532,0.14245,0.28886,0.24266,0.23079,0.00551,0.09544,0.01846,0.20026,0.35794,0.16109,0.02216,0.98369,0.37165,0.29010,0.49567,0.33970,0.22709,0.50617,0.26605,0.03656,0.39776,0.02437,0.07756,0.38230,1.60587,0.34162,0.40394,0.03226,0.27300,0.28983,0.06405,0.33001,0.09723,0.24411,0.27248,0.33040,0.28919,0.08796,0.19887,0.09370,0.22339,0.22147,0.20115,2.47634,0.29505,0.22770,0.12279,0.15861,0.10523,0.15197,0.55132,0.29340,0.00949,0.14613,0.22200,0.20356,0.02021,0.14123,0.24262,0.01960,0.27691,0.32863,0.32680,0.18848,0.77561,0.19017,0.28367,0.18389,0.26188,0.38132,0.01520,0.00900,0.12131,0.02490,0.31906,2.53329
3.95833,0.25263,0.13981,0.28998,0.24173,0.22441,0.00548,0.09427,0.01868,0.19535,0.34997,0.15739,0.02332,1.00123,0.36728,0.28410,0.51070,0.32139,0.23771,0.48069,0.28074,0.03616,0.42664,0.02414,0.07449,0.38700,1.59830,0.35015,0.42890,0.03067,0.27006,0.29715,0.06239,0.35721,0.09913,0.25279,0.26862,0.34143,0.28821,0.08965,0.19654,0.09388,0.24402,0.22109,0.20393,2.42001,0.32590,0.22764,0.12545,0.16300,0.10609,0.15144,0.54994,0.29631,0.00935,0.14394,0.23140,0.21721,0.02039,0.14515,0.24758,0.01966,0.28214,0.32483,0.33203,0.18376,0.75754,0.18900,0.28514,0.17863,0.27276,0.38505,0.01483,0.00898,0.12484,0.02339,0.31861,2.42231
4.00000,0.25000,0.13739,0.28975,0.24081,0.21884,0.00544,0.09315,0.01892,0.19049,0.34300,0.15448,0.02438,1.01802,0.36443,0.27735,0.52608,0.30132,0.24875,0.45607,0.29245,0.03578,0.45508,0.02392,0.07187,0.39194,1.59281,0.35685,0.45411,0.02920,0.26726,0.30278,0.06091,0.38868,0.10068,0.26303,0.26631,0.35428,0.28718,0.09162,0.19389,0.09410,0.26896,0.21980,0.20668,2.36298,0.36467,0.22556,0.12498,0.16645,0.10658,0.15221,0.54743,0.29815,0.00921,0.14224,0.23570,0.22918,0.02063,0.14887,0.25294,0.01979,0.28847,0.32039,0.33655,0.17946,0.74169,0.18834,0.28628,0.17421,0.28334,0.38862,0.01447,0.00896,0.12889,0.02207,0.31473,2.31403
4.04167,0.24742,0.13519,0.28785,0.23984,0.21402,0.00541,0.09210,0.01918,0.18566,0.33696,0.15230,0.02511,1.03297,0.36272,0.27001,0.54065,0.28111,0.25950,0.43293,0.29873,0.03542,0.47911,0.02371,0.06966,0.39665,1.58937,0.36067,0.47648,0.02786,0.26463,0.30607,0.05959,0.42271,0.10175,0.27503,0.26551,0.36890,0.28605,0.09383,0.19097,0.09434,0.29757,0.21754,0.20926,2.30599,0.41156,0.22130,0.12137,0.16836,0.10659,0.15430,0.54377,0.29867,0.00907,0.14102,0.23349,0.23737,0.02092,0.15217,0.25859,0.01997,0.29580,0.31533,0.33989,0.17555,0.72813,0.18813,0.28694,0.17058,0.29267,0.39193,0.01413,0.00896,0.13342,0.02092,0.30763,2.21051
4.08333,0.24490,0.13318,0.28406,0.23881,0.20990,0.00538,0.09111,0.01946,0.18086,0.33176,0.15080,0.02522,1.04489,0.36178,0.26224,0.55292,0.26183,0.26893,0.41160,0.29767,0.03507,0.49353,0.02351,0.06781,0.40052,1.58794,0.36069,0.49171,0.02663,0.26218,0.30651,0.05845,0.45478,0.10224,0.28907,0.26618,0.38508,0.28477,0.09620,0.18779,0.09458,0.32690,0.21428,0.21150,2.24969,0.46267,0.21495,0.11540,0.16823,0.10607,0.15768,0.53897,0.29769,0.00894,0.14028,0.22493,0.23984,0.02127,0.15479,0.26441,0.02021,0.30401,0.30968,0.34155,0.17202,0.71689,0.18832,0.28698,0.16767,0.29963,0.39489,0.01379,0.00895,0.13835,0.01992,0.29788,2.11304
4.12500,0.24242,0.13137,0.27837,0.23767,0.20643,0.00535,0.09018,0.01975,0.17608,0.32734,0.14994,0.02455,1.05267,0.36123,0.25422,0.56115,0.24407,0.27572,0.39229,0.28890,0.03475,0.49378,0.02331,0.06630,0.40281,1.58845,0.35629,0.49546,0.02551,0.25993,0.30381,0.05748,0.47673,0.10210,0.30545,0.26830,0.40234,0.28329,0.09867,0.18441,0.09478,0.35027,0.21010,0.21321,2.19465,0.50487,0.20683,0.10813,0.16573,0.10497,0.16229,0.53309,0.29508,0.00880,0.14001,0.21165,0.23573,0.02166,0.15649,0.27025,0.02050,0.31286,0.30347,0.34108,0.16886,0.70803,0.18882,0.28628,0.16546,0.30314,0.39743,0.01348,0.00896,0.14352,0.01907,0.28623,2.02237
4.16667,0.24000,0.12975,0.27089,0.23640,0.20356,0.00532,0.08930,0.02003,0.17130,0.32362,0.14968,0.02318,1.05535,0.36067,0.24613,0.56367,0.22811,0.27860,0.37505,0.27391,0.03443,0.47867,0.02311,0.06508,0.40275,1.59080,0.34744,0.48540,0.02448,0.25790,0.29806,0.05668,0.47936,0.10129,0.32454,0.27189,0.41985,0.28158,0.10110,0.18089,0.09493,0.35843,0.20513,0.21421,2.14131,0.51628,0.19743,0.10054,0.16094,0.10330,0.16800,0.52624,0.29086,0.00865,0.14022,0.19589,0.22585,0.02208,0.15704,0.27591,0.02084,0.32202,0.29675,0.33814,0.16605,0.70158,0.18955,0.28473,0.16390,0.30245,0.39947,0.01319,0.00896,0.14868,0.01834,0.27347,1.93883
4.20833,0.23762,0.12831,0.26195,0.23497,0.20124,0.00530,0.08846,0.02030,0.16652,0.32054,0.15001,0.02138,1.05234,0.35975,0.23810,0.55930,0.21395,0.27670,0.35984,0.25520,0.03412,0.45126,0.02291,0.06415,0.39966,1.59487,0.33469,0.46279,0.02354,0.25610,0.28963,0.05604,0.45912,0.09985,0.34674,0.27700,0.43627,0.27962,0.10336,0.17726,0.09500,0.34636,0.19957,0.21433,2.09007,0.48562,0.18729,0.09329,0.15424,0.10109,0.17451,0.51856,0.28514,0.00850,0.14092,0.17962,0.21217,0.02252,0.15632,0.28114,0.02123,0.33101,0.28957,0.33257,0.16356,0.69761,0.19038,0.28226,0.16298,0.29746,0.40097,0.01292,0.00898,0.15349,0.01774,0.26029,1.86243
4.25000,0.23529,0.12705,0.25194,0.23335,0.19942,0.00527,0.08767,0.02056,0.16175,0.31804,0.15091,0.01944,1.04348,0.35815,0.23026,0.54775,0.20153,0.26997,0.34661,0.23523,0.03381,0.41699,0.02270,0.06349,0.39303,1.60048,0.31901,0.43179,0.02268,0.25454,0.27916,0.05558,0.42172,0.09785,0.37243,0.28369,0.44977,0.27738,0.10527,0.17357,0.09496,0.31860,0.19361,0.21343,2.04120,0.42800,0.17691,0.08673,0.14624,0.09843,0.18124,0.51019,0.27812,0.00834,0.14212,0.16410,0.19685,0.02296,0.15431,0.28567,0.02165,0.33921,0.28199,0.32446,0.16137,0.69617,0.19122,0.27885,0.16268,0.28874,0.40188,0.01268,0.00900,0.15750,0.01724,0.24723,1.79300
4.29167,0.23301,0.12595,0.24129,0.23154,0.19804,0.00524,0.08692,0.02078,0.15698,0.31605,0.15235,0.01758,1.02910,0.35564,0.22270,0.52976,0.19069,0.25917,0.33526,0.21576,0.03351,0.38097,0.02248,0.06307,0.38276,1.60742,0.30159,0.39723,0.02190,0.25324,0.26736,0.05528,0.37734,0.09540,0.40193,0.29202,0.45827,0.27486,0.10665,0.16989,0.09479,0.28468,0.18746,0.21146,1.99493,0.36607,0.16669,0.08097,0.13759,0.09540,0.18731,0.50132,0.27008,0.00818,0.14384,0.14996,0.18156,0.02338,0.15111,0.28922,0.02209,0.34590,0.27409,0.31413,0.15944,0.69736,0.19193,0.27452,0.16299,0.27730,0.40221,0.01246,0.00902,0.16018,0.01686,0.23468,1.73027
4.33333,0.23077,0.12501,0.23041,0.22950,0.19706,0.00522,0.08620,0.02096,0.15223,0.31451,0.15434,0.01592,1.00995,0.35209,0.21550,0.50685,0.18129,0.24563,0.32568,0.19777,0.03320,0.34654,0.02226,0.06290,0.36914,1.61542,0.28351,0.36289,0.02119,0.25219,0.25490,0.05514,0.33390,0.09261,0.43528,0.30208,0.45992,0.27207,0.10733,0.16624,0.09448,0.25184,0.18131,0.20843,1.95142,0.31179,0.15690,0.07604,0.12885,0.09213,0.19153,0.49211,0.26132,0.00800,0.14611,0.13741,0.16726,0.02375,0.14692,0.29153,0.02254,0.35032,0.26595,0.30203,0.15777,0.70128,0.19239,0.26937,0.16391,0.26432,0.40196,0.01227,0.00906,0.16108,0.01657,0.22288,1.67387
4.37500,0.22857,0.12423,0.21964,0.22725,0.19641,0.00519,0.08551,0.02108,0.14751,0.31336,0.15684,0.01448,0.98706,0.34748,0.20871,0.48093,0.17317,0.23075,0.31779,0.18166,0.03288,0.31537,0.02203,0.06296,0.35280,1.62417,0.26563,0.33097,0.02054,0.25140,0.24234,0.05518,0.29522,0.08961,0.47194,0.31393,0.45374,0.26903,0.10721,0.16266,0.09401,0.22324,0.17532,0.20442,1.91078,0.26775,0.14773,0.07188,0.12041,0.08871,0.19270,0.48272,0.25214,0.00783,0.14897,0.12644,0.15439,0.02405,0.14201,0.29237,0.02299,0.35183,0.25767,0.28874,0.15630,0.70808,0.19248,0.26350,0.16543,0.25084,0.40116,0.01210,0.00909,0.15990,0.01638,0.21194,1.62344
4.41667,0.22642,0.12359,0.20922,0.22476,0.19604,0.00517,0.08484,0.02114,0.14282,0.31253,0.15985,0.01327,0.96162,0.34192,0.20235,0.45382,0.16619,0.21570,0.31149,0.16751,0.03257,0.28797,0.02179,0.06325,0.33461,1.63327,0.24856,0.30244,0.01995,0.25087,0.23012,0.05539,0.26232,0.08651,0.51032,0.32760,0.44013,0.26576,0.10625,0.15918,0.09337,0.19948,0.16959,0.19958,1.87307,0.23284,0.13926,0.06843,0.11253,0.08526,0.19006,0.47331,0.24279,0.00765,0.15246,0.11690,0.14306,0.02426,0.13663,0.29161,0.02343,0.35004,0.24932,0.27482,0.15501,0.71793,0.19210,0.25707,0.16756,0.23764,0.39988,0.01195,0.00914,0.15664,0.01629,0.20193,1.57859
4.45833,0.22430,0.12309,0.19936,0.22204,0.19587,0.00515,0.08419,0.02114,0.13820,0.31195,0.16332,0.01225,0.93477,0.33560,0.19645,0.42695,0.16021,0.20125,0.30672,0.15518,0.03224,0.26424,0.02154,0.06376,0.31546,1.64228,0.23265,0.27746,0.01941,0.25058,0.21850,0.05577,0.23485,0.08341,0.54715,0.34306,0.42065,0.26231,0.10448,0.15583,0.09258,0.18011,0.16423,0.19411,1.83835,0.20520,0.13152,0.06561,0.10531,0.08184,0.18372,0.46401,0.23350,0.00747,0.15662,0.10864,0.13321,0.02435,0.13106,0.28921,0.02382,0.34491,0.24101,0.26074,0.15387,0.73104,0.19118,0.25025,0.17031,0.22523,0.39816,0.01182,0.00919,0.15155,0.01630,0.19283,1.53898
4.50000,0.22222,0.12272,0.19014,0.21910,0.19582,0.00512,0.08355,0.02106,0.13364,0.31155,0.16722,0.01142,0.90756,0.32878,0.19101,0.40132,0.15512,0.18787,0.30343,0.14451,0.03190,0.24385,0.02130,0.06450,0.29617,1.65069,0.21806,0.25584,0.01892,0.25054,0.20767,0.05633,0.21205,0.08037,0.57731,0.36013,0.39752,0.25872,0.10203,0.15263,0.09164,0.16442,0.15928,0.18822,1.80661,0.18314,0.12450,0.06337,0.09881,0.07852,0.17459,0.45493,0.22445,0.00729,0.16153,0.10148,0.12470,0.02432,0.12550,0.28525,0.02416,0.33680,0.23282,0.24690,0.15284,0.74764,0.18967,0.24319,0.17368,0.21389,0.39610,0.01172,0.00924,0.14510,0.01640,0.18461,1.50425
4.54167,0.22018,0.12247,0.18164,0.21595,0.19581,0.00510,0.08293,0.02091,0.12917,0.31127,0.17146,0.01073,0.88087,0.32172,0.18603,0.37754,0.15083,0.17576,0.30158,0.13527,0.03155,0.22636,0.02105,0.06546,0.27735,1.65793,0.20484,0.23722,0.01849,0.25072,0.19769,0.05708,0.19313,0.07745,0.59477,0.37844,0.37288,0.25504,0.09907,0.14957,0.09057,0.15173,0.15477,0.18212,1.77785,0.16536,0.11817,0.06165,0.09301,0.07535,0.16399,0.44617,0.21576,0.00711,0.16723,0.09528,0.11738,0.02416,0.12010,0.27990,0.02443,0.32633,0.22484,0.23358,0.15190,0.76801,0.18759,0.23606,0.17768,0.20374,0.39377,0.01164,0.00930,0.13786,0.01662,0.17722,1.47410
4.58333,0.21818,0.12232,0.17387,0.21260,0.19574,0.00508,0.08231,0.02070,0.12480,0.31103,0.17595,0.01018,0.85536,0.31469,0.18149,0.35588,0.14724,0.16496,0.30115,0.12730,0.03120,0.21136,0.02080,0.06662,0.25944,1.66341,0.19295,0.22120,0.01809,0.25111,0.18860,0.05802,0.17736,0.07468,0.59516,0.39731,0.34841,0.25131,0.09577,0.14669,0.08939,0.14145,0.15071,0.17599,1.75205,0.15087,0.11248,0.06040,0.08787,0.07237,0.15312,0.43779,0.20752,0.00694,0.17380,0.08990,0.11109,0.02389,0.11497,0.27341,0.02461,0.31428,0.21712,0.22096,0.15100,0.79243,0.18497,0.22899,0.18228,0.19477,0.39127,0.01158,0.00936,0.13031,0.01695,0.17059,1.44825
4.62500,0.21622,0.12226,0.16682,0.20906,0.19553,0.00506,0.08170,0.02044,0.12056,0.31077,0.18052,0.00973,0.83152,0.30792,0.17739,0.33644,0.14430,0.15541,0.30214,0.12040,0.03084,0.19850,0.02055,0.06799,0.24270,1.66651,0.18231,0.20742,0.01774,0.25169,0.18037,0.05915,0.16416,0.07209,0.57832,0.41568,0.32520,0.24759,0.09230,0.14397,0.08812,0.13313,0.14710,0.16999,1.72919,0.13895,0.10738,0.05961,0.08334,0.06958,0.14282,0.42986,0.19979,0.00678,0.18128,0.08523,0.10571,0.02351,0.11019,0.26606,0.02470,0.30143,0.20974,0.20916,0.15011,0.82116,0.18190,0.22209,0.18747,0.18696,0.38867,0.01154,0.00943,0.12285,0.01741,0.16467,1.42647
4.66667,0.21429,0.12229,0.16046,0.20537,0.19507,0.00504,0.08109,0.02012,0.11644,0.31040,0.18500,0.00938,0.80970,0.30160,0.17371,0.31916,0.14194,0.14703,0.30457,0.11444,0.03047,0.18743,0.02031,0.06953,0.22725,1.66666,0.17283,0.19555,0.01743,0.25243,0.17297,0.06049,0.15306,0.06969,0.54840,0.43213,0.30386,0.24391,0.08883,0.14142,0.08679,0.12642,0.14392,0.16424,1.70923,0.12907,0.10281,0.05925,0.07935,0.06701,0.13355,0.42242,0.19258,0.00663,0.18973,0.08117,0.10110,0.02304,0.10579,0.25813,0.02470,0.28842,0.20273,0.19821,0.14920,0.85441,0.17846,0.21547,0.19318,0.18022,0.38606,0.01151,0.00950,0.11573,0.01801,0.15939,1.40852
4.70833,0.21239,0.12237,0.15476,0.20154,0.19427,0.00502,0.08049,0.01978,0.11246,0.30986,0.18914,0.00912,0.79010,0.29589,0.17042,0.30394,0.14009,0.13971,0.30847,0.10930,0.03009,0.17791,0.02008,0.07124,0.21312,1.66332,0.16440,0.18531,0.01716,0.25330,0.16635,0.06203,0.14370,0.06748,0.51142,0.44499,0.28462,0.24033,0.08546,0.13903,0.08543,0.12106,0.14113,0.15883,1.69214,0.12082,0.09873,0.05932,0.07586,0.06465,0.12551,0.41549,0.18590,0.00649,0.19914,0.07764,0.09717,0.02252,0.10179,0.24989,0.02461,0.27575,0.19613,0.18811,0.14825,0.89224,0.17478,0.20918,0.19933,0.17446,0.38351,0.01150,0.00956,0.10910,0.01877,0.15470,1.39423
4.75000,0.21053,0.12249,0.14968,0.19761,0.19307,0.00500,0.07989,0.01941,0.10864,0.30909,0.19267,0.00894,0.77285,0.29087,0.16753,0.29061,0.13872,0.13333,0.31391,0.10486,0.02972,0.16972,0.01986,0.07306,0.20029,1.65607,0.15692,0.17645,0.01691,0.25426,0.16046,0.06377,0.13577,0.06545,0.47260,0.45269,0.26750,0.23688,0.08226,0.13681,0.08406,0.11682,0.13871,0.15381,1.67789,0.11391,0.09508,0.05982,0.07282,0.06250,0.11873,0.40909,0.17976,0.00636,0.20947,0.07458,0.09383,0.02197,0.09819,0.24158,0.02444,0.26378,0.18997,0.17885,0.14722,0.93442,0.17094,0.20328,0.20577,0.16960,0.38109,0.01151,0.00963,0.10305,0.01971,0.15054,1.38344
4.79167,0.20870,0.12263,0.14517,0.19359,0.19139,0.00498,0.07930,0.01903,0.10497,0.30805,0.19529,0.00884,0.75801,0.28661,0.16499,0.27904,0.13777,0.12780,0.32094,0.10105,0.02935,0.16266,0.01966,0.07493,0.18867,1.64464,0.15029,0.16879,0.01671,0.25527,0.15523,0.06570,0.12905,0.06361,0.43533,0.45420,0.25240,0.23358,0.07930,0.13474,0.08271,0.11354,0.13661,0.14923,1.66645,0.10809,0.09183,0.06077,0.07017,0.06055,0.11315,0.40323,0.17413,0.00624,0.22055,0.07193,0.09103,0.02140,0.09497,0.23338,0.02421,0.25272,0.18426,0.17038,0.14610,0.98019,0.16707,0.19780,0.21229,0.16555,0.37886,0.01152,0.00969,0.09759,0.02086,0.14687,1.37602
4.83333,0.20690,0.12278,0.14120,0.18952,0.18922,0.00496,0.07871,0.01864,0.10147,0.30668,0.19674,0.00881,0.74558,0.28314,0.16281,0.26907,0.13721,0.12301,0.32964,0.09779,0.02898,0.15660,0.01947,0.07679,0.17818,1.62892,0.14443,0.16215,0.01653,0.25629,0.15063,0.06781,0.12337,0.06194,0.40131,0.44937,0.23917,0.23048,0.07660,0.13282,0.08139,0.11112,0.13478,0.14511,1.65779,0.10320,0.08893,0.06221,0.06788,0.05879,0.10868,0.39791,0.16898,0.00613,0.23206,0.06963,0.08869,0.02084,0.09212,0.22542,0.02394,0.24267,0.17901,0.16266,0.14487,1.02799,0.16324,0.19277,0.21858,0.16222,0.37686,0.01155,0.00975,0.09270,0.02223,0.14364,1.37187
4.87500,0.20513,0.12291,0.13772,0.18542,0.18653,0.00494,0.07813,0.01827,0.09814,0.30496,0.19682,0.00885,0.73557,0.28046,0.16096,0.26057,0.13700,0.11890,0.34007,0.09502,0.02862,0.15140,0.01930,0.07852,0.16873,1.60898,0.13925,0.15641,0.01638,0.25727,0.14659,0.07007,0.11856,0.06044,0.37110,0.43902,0.22763,0.22759,0.07417,0.13104,0.08013,0.10943,0.13318,0.14146,1.65189,0.09910,0.08634,0.06416,0.06592,0.05722,0.10524,0.39312,0.16430,0.00604,0.24346,0.06767,0.08678,0.02030,0.08962,0.21782,0.02364,0.23369,0.17422,0.15561,0.14352,1.07516,0.15954,0.18818,0.22430,0.15953,0.37515,0.01158,0.00980,0.08835,0.02384,0.14082,1.37091
4.91667,0.20339,0.12299,0.13469,0.18133,0.18336,0.00492,0.07757,0.01791,0.09497,0.30287,0.19543,0.00896,0.72795,0.27855,0.15942,0.25341,0.13708,0.11539,0.35230,0.09269,0.02827,0.14698,0.01915,0.08001,0.16021,1.58509,0.13468,0.15143,0.01627,0.25817,0.14308,0.07243,0.11452,0.05909,0.34469,0.42459,0.21761,0.22494,0.07202,0.12940,0.07894,0.10841,0.13174,0.13827,1.64873,0.09567,0.08404,0.06670,0.06424,0.05583,0.10273,0.38886,0.16006,0.00596,0.25396,0.06599,0.08526,0.01979,0.08745,0.21062,0.02333,0.22576,0.16989,0.14920,0.14205,1.11767,0.15600,0.18405,0.22902,0.15742,0.37376,0.01162,0.00984,0.08450,0.02564,0.13837,1.37307
4.95833,0.20168,0.12302,0.13209,0.17727,0.17974,0.00490,0.07702,0.01756,0.09197,0.30042,0.19262,0.00915,0.72270,0.27736,0.15818,0.24750,0.13743,0.11241,0.36635,0.09076,0.02793,0.14323,0.01902,0.08114,0.15253,1.55766,0.13067,0.14714,0.01618,0.25892,0.14005,0.07483,0.11115,0.05789,0.32175,0.40772,0.20893,0.22252,0.07014,0.12788,0.07784,0.10800,0.13041,0.13555,1.64829,0.09283,0.08200,0.06990,0.06283,0.05460,0.10109,0.38510,0.15623,0.00590,0.26254,0.06459,0.08410,0.01932,0.08561,0.20388,0.02302,0.21887,0.16601,0.14336,0.14046,1.15038,0.15268,0.18036,0.23233,0.15581,0.37270,0.01165,0.00986,0.08111,0.02754,0.13625,1.37831
5.00000,0.20000,0.12296,0.12987,0.17325,0.17576,0.00488,0.07648,0.01724,0.08913,0.29761,0.18853,0.00943,0.71980,0.27682,0.15723,0.24276,0.13800,0.10991,0.38214,0.08919,0.02761,0.14010,0.01892,0.08178,0.14562,1.52724,0.12716,0.14344,0.01611,0.25950,0.13746,0.07716,0.10839,0.05683,0.30190,0.38988,0.20146,0.22037,0.06853,0.12647,0.07683,0.10812,0.12913,0.13328,1.65057,0.09052,0.08018,0.07384,0.06166,0.05353,0.10026,0.38184,0.15278,0.00585,0.26816,0.06342,0.08328,0.01889,0.08406,0.19760,0.02274,0.21296,0.16258,0.13805,0.13877,1.16792,0.14959,0.17711,0.23385,0.15464,0.37201,0.01169,0.00988,0.07813,0.02933,0.13444,1.38661
5.04167,0.19835,0.12281,0.12802,0.16931,0.17149,0.00487,0.07597,0.01694,0.08646,0.29448,0.18342,0.00980,0.71924,0.27687,0.15655,0.23911,0.13875,0.10786,0.39950,0.08797,0.02730,0.13753,0.01883,0.08184,0.13938,1.49447,0.12410,0.14027,0.01607,0.25985,0.13530,0.07933,0.10616,0.05589,0.28471,0.37220,0.19506,0.21847,0.06717,0.12518,0.07592,0.10875,0.12784,0.13146,1.65556,0.08868,0.07858,0.07862,0.06072,0.05261,0.10018,0.37904,0.14968,0.00582,0.26993,0.06248,0.08278,0.01851,0.08279,0.19179,0.02248,0.20799,0.15957,0.13322,0.13698,1.16625,0.14676,0.17429,0.23339,0.15384,0.37170,0.01172,0.00987,0.07552,0.03064,0.13292,1.39797
5.08333,0.19672,0.12255,0.12651,0.16547,0.16703,0.00485,0.07548,0.01668,0.08395,0.29106,0.17756,0.01028,0.72102,0.27738,0.15612,0.23650,0.13961,0.10622,0.41805,0.08706,0.02701,0.13546,0.01878,0.08128,0.13376,1.46002,0.12145,0.13757,0.01606,0.25995,0.13351,0.08118,0.10443,0.05507,0.26983,0.35543,0.18962,0.21683,0.06605,0.12398,0.07512,0.10981,0.12648,0.13008,1.66324,0.08726,0.07716,0.08432,0.05998,0.05182,0.10084,0.37670,0.14692,0.00580,0.26752,0.06176,0.08258,0.01817,0.08179,0.18645,0.02226,0.20391,0.15698,0.12883,0.13512,1.14432,0.14419,0.17188,0.23089,0.15334,0.37177,0.01174,0.00986,0.07325,0.03108,0.13166,1.41238
5.12500,0.19512,0.12217,0.12530,0.16173,0.16246,0.00484,0.07501,0.01644,0.08159,0.28740,0.17126,0.01089,0.72517,0.27824,0.15594,0.23491,0.14055,0.10494,0.43713,0.08646,0.02675,0.13386,0.01875,0.08010,0.12869,1.42453,0.11917,0.13529,0.01607,0.25975,0.13209,0.08259,0.10315,0.05436,0.25692,0.34001,0.18506,0.21546,0.06516,0.12287,0.07442,0.11126,0.12501,0.12914,1.67362,0.08624,0.07591,0.09096,0.05944,0.05117,0.10219,0.37478,0.14446,0.00580,0.26120,0.06122,0.08268,0.01788,0.08105,0.18154,0.02209,0.20068,0.15480,0.12483,0.13320,1.10454,0.14188,0.16986,0.22654,0.15309,0.37224,0.01175,0.00982,0.07127,0.03041,0.13064,1.42986
5.16667,0.19355,0.12166,0.12439,0.15812,0.15786,0.00482,0.07457,0.01623,0.07939,0.28354,0.16477,0.01165,0.73172,0.27931,0.15598,0.23429,0.14152,0.10401,0.45576,0.08614,0.02650,0.13269,0.01874,0.07837,0.12412,1.38865,0.11724,0.13337,0.01610,0.25926,0.13100,0.08344,0.10231,0.05375,0.24569,0.32613,0.18127,0.21434,0.06449,0.12185,0.07383,0.11303,0.12338,0.12863,1.68667,0.08559,0.07482,0.09843,0.05909,0.05064,0.10420,0.37326,0.14228,0.00581,0.25180,0.06088,0.08308,0.01764,0.08055,0.17706,0.02196,0.19825,0.15301,0.12119,0.13125,1.05192,0.13982,0.16823,0.22065,0.15302,0.37308,0.01175,0.00977,0.06957,0.02876,0.12984,1.45042
5.20833,0.19200,0.12103,0.12375,0.15466,0.15332,0.00481,0.07415,0.01605,0.07733,0.27956,0.15831,0.01258,0.74072,0.28044,0.15624,0.23466,0.14245,0.10340,0.47262,0.08609,0.02628,0.13193,0.01876,0.07620,0.11998,1.35293,0.11562,0.13179,0.01615,0.25846,0.13024,0.08366,0.10186,0.05323,0.23592,0.31386,0.17820,0.21348,0.06403,0.12090,0.07336,0.11503,0.12158,0.12854,1.70238,0.08530,0.07386,0.10636,0.05890,0.05022,0.10681,0.37212,0.14036,0.00584,0.24038,0.06071,0.08378,0.01745,0.08029,0.17298,0.02189,0.19658,0.15159,0.11789,0.12929,0.99221,0.13800,0.16696,0.21365,0.15306,0.37431,0.01173,0.00970,0.06812,0.02651,0.12924,1.47411
5.25000,0.19048,0.12029,0.12335,0.15134,0.14889,0.00480,0.07377,0.01589,0.07541,0.27550,0.15204,0.01371,0.75224,0.28146,0.15671,0.23601,0.14329,0.10310,0.48619,0.08632,0.02607,0.13154,0.01881,0.07373,0.11626,1.31785,0.11428,0.13051,0.01622,0.25737,0.12976,0.08321,0.10181,0.05280,0.22740,0.30316,0.17578,0.21286,0.06376,0.12002,0.07299,0.11716,0.11960,0.12889,1.72071,0.08535,0.07303,0.11395,0.05888,0.04991,0.10995,0.37133,0.13869,0.00589,0.22800,0.06072,0.08477,0.01730,0.08026,0.16928,0.02187,0.19566,0.15054,0.11489,0.12734,0.93049,0.13641,0.16603,0.20598,0.15315,0.37591,0.01170,0.00962,0.06688,0.02409,0.12882,1.50092
5.29167,0.18898,0.11944,0.12319,0.14819,0.14463,0.00479,0.07342,0.01577,0.07364,0.27141,0.14606,0.01506,0.76636,0.28221,0.15735,0.23836,0.14401,0.10307,0.49498,0.08680,0.02589,0.13151,0.01888,0.07107,0.11289,1.28383,0.11320,0.12949,0.01631,0.25600,0.12956,0.08215,0.10213,0.05245,0.21997,0.29394,0.17396,0.21247,0.06369,0.11920,0.07272,0.11931,0.11744,0.12966,1.74161,0.08572,0.07232,0.11992,0.05902,0.04971,0.11348,0.37086,0.13723,0.00595,0.21550,0.06088,0.08608,0.01719,0.08045,0.16593,0.02192,0.19544,0.14984,0.11217,0.12541,0.87041,0.13504,0.16544,0.19801,0.15323,0.37786,0.01166,0.00953,0.06585,0.02177,0.12857,1.53087
5.33333,0.18750,0.11849,0.12323,0.14521,0.14056,0.00478,0.07309,0.01567,0.07199,0.26736,0.14046,0.01659,0.78318,0.28256,0.15817,0.24174,0.14456,0.10331,0.49796,0.08753,0.02573,0.13182,0.01898,0.06835,0.10986,1.25119,0.11236,0.12871,0.01642,0.25437,0.12963,0.08057,0.10282,0.05216,0.21349,0.28611,0.17267,0.21231,0.06381,0.11845,0.07256,0.12135,0.11513,0.13087,1.76500,0.08643,0.07170,0.12280,0.05931,0.04960,0.11721,0.37068,0.13598,0.00604,0.20346,0.06121,0.08769,0.01712,0.08085,0.16291,0.02202,0.19592,0.14947,0.10970,0.12354,0.81420,0.13385,0.16515,0.19007,0.15326,0.38014,0.01160,0.00942,0.06499,0.01969,0.12847,1.56394
5.37500,0.18605,0.11747,0.12348,0.14239,0.13673,0.00477,0.07280,0.01559,0.07047,0.26338,0.13527,0.01824,0.80281,0.28239,0.15914,0.24620,0.14491,0.10380,0.49482,0.08852,0.02560,0.13244,0.01910,0.06566,0.10712,1.22017,0.11173,0.12814,0.01654,0.25254,0.12993,0.07860,0.10386,0.05195,0.20783,0.27953,0.17189,0.21235,0.06409,0.11775,0.07249,0.12313,0.11271,0.13252,1.79076,0.08746,0.07117,0.12174,0.05973,0.04958,0.12086,0.37076,0.13492,0.00614,0.19223,0.06168,0.08964,0.01708,0.08146,0.16019,0.02219,0.19707,0.14941,0.10746,0.12173,0.76297,0.13285,0.16516,0.18239,0.15319,0.38271,0.01153,0.00931,0.06430,0.01788,0.12851,1.60009
5.41667,0.18462,0.11639,0.12389,0.13976,0.13314,0.00476,0.07254,0.01554,0.06907,0.25953,0.13051,0.01979,0.82534,0.28163,0.16024,0.25179,0.14505,0.10452,0.48612,0.08974,0.02548,0.13335,0.01925,0.06308,0.10466,1.19097,0.11130,0.12775,0.01668,0.25054,0.13045,0.07636,0.10527,0.05179,0.20289,0.27411,0.17157,0.21258,0.06454,0.11710,0.07251,0.12453,0.11021,0.13461,1.81874,0.08881,0.07073,0.11704,0.06029,0.04964,0.12411,0.37107,0.13402,0.00626,0.18198,0.06230,0.09192,0.01709,0.08226,0.15775,0.02241,0.19888,0.14965,0.10544,0.12000,0.71709,0.13200,0.16544,0.17513,0.15298,0.38555,0.01144,0.00919,0.06376,0.01635,0.12866,1.63923
5.45833,0.18321,0.11528,0.12445,0.13731,0.12982,0.00475,0.07230,0.01551,0.06779,0.25583,0.12618,0.02091,0.85088,0.28025,0.16145,0.25858,0.14498,0.10544,0.47309,0.09120,0.02538,0.13454,0.01941,0.06065,0.10246,1.16371,0.11103,0.12752,0.01683,0.24842,0.13116,0.07400,0.10702,0.05168,0.19859,0.26970,0.17165,0.21298,0.06515,0.11649,0.07261,0.12545,0.10770,0.13714,1.84873,0.09049,0.07035,0.10996,0.06097,0.04977,0.12658,0.37157,0.13327,0.00640,0.17275,0.06305,0.09456,0.01712,0.08325,0.15557,0.02270,0.20131,0.15017,0.10362,0.11836,0.67648,0.13130,0.16595,0.16839,0.15262,0.38862,0.01135,0.00907,0.06334,0.01505,0.12891,1.68119
5.50000,0.18182,0.11415,0.12515,0.13504,0.12676,0.00475,0.07210,0.01550,0.06662,0.25232,0.12226,0.02129,0.87948,0.27827,0.16275,0.26663,0.14470,0.10656,0.45724,0.09288,0.02529,0.13596,0.01959,0.05839,0.10048,1.13848,0.11092,0.12743,0.01699,0.24623,0.13205,0.07162,0.10911,0.05162,0.19485,0.26622,0.17211,0.21352,0.06590,0.11594,0.07278,0.12584,0.10520,0.14012,1.88043,0.09248,0.07004,0.10194,0.06177,0.04997,0.12797,0.37224,0.13266,0.00655,0.16456,0.06392,0.09755,0.01718,0.08442,0.15364,0.02305,0.20436,0.15093,0.10199,0.11683,0.64083,0.13073,0.16669,0.16221,0.15211,0.39186,0.01125,0.00896,0.06304,0.01396,0.12924,1.72573
5.54167,0.18045,0.11304,0.12594,0.13296,0.12397,0.00474,0.07192,0.01550,0.06555,0.24902,0.11875,0.02083,0.91116,0.27578,0.16411,0.27601,0.14423,0.10784,0.44005,0.09476,0.02523,0.13760,0.01979,0.05634,0.09872,1.11533,0.11094,0.12745,0.01716,0.24403,0.13308,0.06931,0.11153,0.05159,0.19162,0.26354,0.17289,0.21418,0.06678,0.11543,0.07301,0.12569,0.10278,0.14353,1.91350,0.09478,0.06978,0.09406,0.06266,0.05022,0.12810,0.37302,0.13216,0.00673,0.15733,0.06491,0.10091,0.01727,0.08574,0.15193,0.02345,0.20798,0.15191,0.10053,0.11540,0.60974,0.13026,0.16760,0.15663,0.15146,0.39522,0.01114,0.00884,0.06284,0.01305,0.12963,1.77249
5.58333,0.17910,0.11195,0.12682,0.13106,0.12145,0.00474,0.07177,0.01552,0.06460,0.24597,0.11563,0.01975,0.94583,0.27288,0.16550,0.28677,0.14362,0.10926,0.42272,0.09683,0.02517,0.13942,0.02000,0.05449,0.09716,1.09428,0.11107,0.12756,0.01733,0.24185,0.13423,0.06712,0.11425,0.05159,0.18882,0.26157,0.17395,0.21493,0.06777,0.11496,0.07329,0.12503,0.10047,0.14735,1.94747,0.09738,0.06957,0.08688,0.06364,0.05051,0.12699,0.37390,0.13177,0.00693,0.15101,0.06599,0.10464,0.01738,0.08720,0.15042,0.02391,0.21212,0.15308,0.09922,0.11408,0.58279,0.12989,0.16867,0.15164,0.15068,0.39864,0.01104,0.00873,0.06272,0.01228,0.13007,1.82098
5.62500,0.17778,0.11092,0.12775,0.12934,0.11919,0.00474,0.07164,0.01555,0.06374,0.24316,0.11287,0.01838,0.98328,0.26972,0.16690,0.29893,0.14290,0.11077,0.40614,0.09904,0.02513,0.14136,0.02022,0.05284,0.09578,1.07533,0.11128,0.12775,0.01750,0.23975,0.13546,0.06511,0.11723,0.05162,0.18643,0.26020,0.17522,0.21574,0.06885,0.11453,0.07361,0.12396,0.09831,0.15155,1.98181,0.10025,0.06941,0.08063,0.06467,0.05084,0.12483,0.37483,0.13147,0.00714,0.14552,0.06714,0.10870,0.01750,0.08877,0.14910,0.02441,0.21670,0.15438,0.09808,0.11289,0.55956,0.12960,0.16984,0.14722,0.14981,0.40206,0.01094,0.00862,0.06268,0.01163,0.13054,1.87052
5.66667,0.17647,0.10994,0.12869,0.12781,0.11719,0.00473,0.07153,0.01558,0.06299,0.24063,0.11046,0.01699,1.02308,0.26644,0.16827,0.31246,0.14210,0.11234,0.39088,0.10136,0.02510,0.14338,0.02043,0.05139,0.09458,1.05847,0.11156,0.12798,0.01766,0.23777,0.13673,0.06330,0.12042,0.05167,0.18439,0.25934,0.17665,0.21659,0.06998,0.11415,0.07395,0.12260,0.09632,0.15604,2.01587,0.10334,0.06927,0.07534,0.06574,0.05118,0.12194,0.37578,0.13125,0.00737,0.14080,0.06834,0.11307,0.01763,0.09040,0.14797,0.02494,0.22164,0.15578,0.09707,0.11181,0.53969,0.12937,0.17108,0.14335,0.14888,0.40540,0.01084,0.00852,0.06269,0.01110,0.13103,1.92027
5.70833,0.17518,0.10905,0.12963,0.12646,0.11544,0.00473,0.07144,0.01563,0.06233,0.23837,0.10838,0.01574,1.06453,0.26318,0.16958,0.32721,0.14129,0.11393,0.37728,0.10373,0.02508,0.14542,0.02064,0.05013,0.09354,1.04368,0.11187,0.12823,0.01782,0.23593,0.13801,0.06169,0.12375,0.05173,0.18267,0.25888,0.17816,0.21744,0.07114,0.11381,0.07430,0.12107,0.09453,0.16074,2.04890,0.10659,0.06917,0.07095,0.06681,0.05153,0.11868,0.37671,0.13108,0.00760,0.13678,0.06955,0.11768,0.01777,0.09206,0.14699,0.02549,0.22680,0.15723,0.09620,0.11086,0.52286,0.12920,0.17234,0.14001,0.14795,0.40859,0.01074,0.00843,0.06274,0.01065,0.13150,1.96918
5.75000,0.17391,0.10825,0.13053,0.12530,0.11394,0.00473,0.07137,0.01567,0.06176,0.23640,0.10661,0.01468,1.10657,0.26009,0.17080,0.34288,0.14048,0.11547,0.36549,0.10607,0.02507,0.14741,0.02085,0.04906,0.09266,1.03094,0.11220,0.12850,0.01797,0.23429,0.13924,0.06031,0.12711,0.05180,0.18123,0.25872,0.17969,0.21825,0.07228,0.11352,0.07464,0.11950,0.09296,0.16552,2.08007,0.10991,0.06909,0.06736,0.06786,0.05187,0.11538,0.37759,0.13097,0.00784,0.13340,0.07073,0.12239,0.01791,0.09369,0.14617,0.02604,0.23200,0.15865,0.09546,0.11004,0.50878,0.12907,0.17357,0.13717,0.14704,0.41155,0.01066,0.00835,0.06282,0.01028,0.13196,2.01600
5.79167,0.17266,0.10756,0.13135,0.12431,0.11268,0.00473,0.07131,0.01571,0.06128,0.23473,0.10513,0.01383,1.14774,0.25728,0.17190,0.35898,0.13974,0.11691,0.35558,0.10829,0.02506,0.14927,0.02103,0.04817,0.09192,1.02022,0.11253,0.12876,0.01811,0.23285,0.14038,0.05914,0.13038,0.05186,0.18006,0.25879,0.18117,0.21900,0.07337,0.11327,0.07497,0.11800,0.09161,0.17018,2.10852,0.11316,0.06903,0.06448,0.06884,0.05219,0.11228,0.37840,0.13089,0.00807,0.13062,0.07184,0.12706,0.01804,0.09523,0.14549,0.02658,0.23705,0.16000,0.09484,0.10934,0.49723,0.12898,0.17473,0.13481,0.14619,0.41422,0.01059,0.00829,0.06292,0.00998,0.13237,2.05933
5.83333,0.17143,0.10698,0.13207,0.12351,0.11165,0.00472,0.07127,0.01576,0.06090,0.23336,0.10394,0.01316,1.18614,0.25485,0.17284,0.37470,0.13908,0.11819,0.34754,0.11031,0.02506,0.15093,0.02119,0.04745,0.09133,1.01148,0.11283,0.12899,0.01822,0.23164,0.14139,0.05819,0.13340,0.05192,0.17914,0.25898,0.18250,0.21966,0.07434,0.11306,0.07525,0.11665,0.09050,0.17450,2.13334,0.11619,0.06899,0.06223,0.06971,0.05248,0.10958,0.37910,0.13085,0.00828,0.12840,0.07284,0.13145,0.01816,0.09661,0.14495,0.02706,0.24169,0.16121,0.09434,0.10877,0.48802,0.12892,0.17575,0.13290,0.14545,0.41650,0.01053,0.00823,0.06301,0.00975,0.13273,2.09764
5.87500,0.17021,0.10653,0.13266,0.12289,0.11086,0.00472,0.07124,0.01579,0.06060,0.23229,0.10303,0.01266,1.21956,0.25288,0.17360,0.38899,0.13854,0.11926,0.34135,0.11202,0.02505,0.15232,0.02133,0.04690,0.09087,1.00472,0.11308,0.12919,0.01832,0.23069,0.14222,0.05746,0.13599,0.05198,0.17843,0.25921,0.18363,0.22020,0.07517,0.11290,0.07549,0.11554,0.08963,0.17825,2.15370,0.11883,0.06896,0.06054,0.07044,0.05272,0.10740,0.37966,0.13082,0.00846,0.12670,0.07368,0.13531,0.01826,0.09777,0.14453,0.02748,0.24567,0.16223,0.09395,0.10832,0.48101,0.12887,0.17660,0.13144,0.14484,0.41836,0.01048,0.00819,0.06310,0.00957,0.13303,2.12943
5.91667,0.16901,0.10620,0.13310,0.12244,0.11030,0.00472,0.07122,0.01582,0.06038,0.23152,0.10238,0.01231,1.24566,0.25144,0.17417,0.40056,0.13814,0.12007,0.33696,0.11333,0.02505,0.15337,0.02143,0.04651,0.09055,0.99990,0.11327,0.12934,0.01839,0.23000,0.14284,0.05694,0.13800,0.05202,0.17794,0.25944,0.18449,0.22060,0.07579,0.11278,0.07567,0.11471,0.08901,0.18116,2.16885,0.12088,0.06894,0.05938,0.07099,0.05289,0.10580,0.38009,0.13080,0.00860,0.12551,0.07431,0.13834,0.01833,0.09866,0.14424,0.02780,0.24873,0.16299,0.09368,0.10801,0.47608,0.12884,0.17724,0.13041,0.14439,0.41972,0.01044,0.00815,0.06317,0.00944,0.13324,2.15331
5.95833,0.16783,0.10600,0.13337,0.12218,0.10996,0.00472,0.07120,0.01583,0.06026,0.23106,0.10200,0.01211,1.26232,0.25056,0.17451,0.40816,0.13789,0.12057,0.33434,0.11414,0.02505,0.15401,0.02149,0.04627,0.09035,0.99702,0.11339,0.12943,0.01843,0.22958,0.14323,0.05663,0.13927,0.05204,0.17765,0.25959,0.18502,0.22085,0.07618,0.11271,0.07578,0.11419,0.08864,0.18301,2.17819,0.12218,0.06893,0.05869,0.07133,0.05300,0.10483,0.38034,0.13080,0.00870,0.12480,0.07470,0.14029,0.01838,0.09921,0.14406,0.02800,0.25067,0.16347,0.09351,0.10781,0.47315,0.12883,0.17763,0.12979,0.14411,0.42056,0.01042,0.00813,0.06321,0.00937,0.13338,2.16812
6.00000,0.16667,0.00000,0.00000,0.00000,0.00000,0.00000,0.00000,0.00000,0.00000,0.00000,0.00000,0.00000,0.00000,0.00000,0.00000,0.00000,0.00000,0.00000,0.00000,0.00000,0.00000,0.00000,0.00000,0.00000,0.00000,0.00000,0.00000,0.00000,0.00000,0.00000,0.00000,0.00000,0.00000,0.00000,0.00000,0.00000,0.00000,0.00000,0.00000,0.00000,0.00000,0.00000,0.00000,0.00000,0.00000,0.00000,0.00000,0.00000,0.00000,0.00000,0.00000,0.00000,0.00000,0.00000,0.00000,0.00000,0.00000,0.00000,0.00000,0.00000,0.00000,0.00000,0.00000,0.00000,0.00000,0.00000,0.00000,0.00000,0.00000,0.00000,0.00000,0.00000,0.00000,0.00000,0.00000,0.00000,0.00000
